# Blender v2.83.0 OBJ File: 'Carrot.blend'
# www.blender.org
mtllib Carrot.mtl
o Carrot_Cylinder.008
v 0.000000 1.042608 -0.138426
v 0.000000 1.061063 -0.062623
v 0.044281 1.061063 -0.044281
v 0.097882 1.042608 -0.097882
v 0.062623 1.061063 0.000000
v 0.138426 1.042608 0.000000
v 0.044281 1.061063 0.044281
v 0.097882 1.042608 0.097882
v 0.000000 1.061063 0.062623
v 0.000000 1.042608 0.138426
v -0.044282 1.061063 0.044281
v -0.097882 1.042608 0.097882
v -0.062623 1.061063 0.000000
v -0.138426 1.042608 0.000000
v -0.044282 1.061063 -0.044281
v -0.097882 1.042608 -0.097882
v 0.000000 0.081931 -0.015007
v 0.010611 0.081931 -0.010611
v 0.015007 0.081931 0.000000
v 0.010611 0.081931 0.010611
v 0.000000 0.081931 0.015007
v -0.010611 0.081931 0.010611
v -0.015007 0.081931 0.000000
v -0.010611 0.081931 -0.010611
v -0.077364 0.479385 -0.077364
v -0.100282 0.648818 -0.100282
v 0.000000 0.648818 -0.141821
v 0.000000 0.479385 -0.109409
v -0.109409 0.479385 0.000000
v -0.141821 0.648818 0.000000
v -0.077364 0.479385 0.077364
v -0.100282 0.648818 0.100282
v 0.000000 0.479385 0.109409
v 0.000000 0.648818 0.141821
v 0.077364 0.479385 0.077364
v 0.100282 0.648818 0.100282
v 0.109409 0.479385 0.000000
v 0.141821 0.648818 0.000000
v 0.077364 0.479385 -0.077364
v 0.100282 0.648818 -0.100282
v -0.118000 0.834300 -0.118000
v 0.000000 0.834300 -0.166878
v -0.166878 0.834300 0.000000
v -0.118000 0.834300 0.118000
v 0.000000 0.834300 0.166878
v 0.118000 0.834300 0.118000
v 0.166878 0.834300 0.000000
v 0.118000 0.834300 -0.118000
v -0.118296 0.959695 -0.118296
v 0.000000 0.959695 -0.167296
v -0.167296 0.959695 0.000000
v -0.118296 0.959695 0.118296
v 0.000000 0.959695 0.167296
v 0.118296 0.959695 0.118296
v 0.167296 0.959695 0.000000
v 0.118296 0.959695 -0.118296
v 0.000000 0.207326 -0.046820
v 0.000000 0.332721 -0.076216
v 0.053893 0.332721 -0.053893
v 0.033106 0.207326 -0.033106
v 0.076216 0.332721 0.000000
v 0.046820 0.207326 0.000000
v 0.053893 0.332721 0.053893
v 0.033106 0.207326 0.033106
v 0.000000 0.332721 0.076216
v 0.000000 0.207326 0.046820
v -0.053893 0.332721 0.053893
v -0.033106 0.207326 0.033106
v -0.076216 0.332721 0.000000
v -0.046820 0.207326 0.000000
v -0.053893 0.332721 -0.053893
v -0.033106 0.207326 -0.033106
v 0.044281 1.061063 -0.044281
v 0.041562 1.061063 -0.017216
v 0.062623 1.061063 0.000000
v 0.041562 1.061063 0.017216
v 0.044281 1.061063 0.044281
v 0.017216 1.061063 0.041562
v 0.000000 1.061063 0.062623
v -0.017216 1.061063 0.041562
v -0.044282 1.061063 0.044281
v -0.041562 1.061063 0.017216
v -0.062623 1.061063 0.000000
v -0.041562 1.061063 -0.017216
v -0.044282 1.061063 -0.044281
v -0.017216 1.061063 -0.041562
v 0.000000 1.061063 -0.062623
v 0.017216 1.061063 -0.041562
v 0.115464 1.302394 0.000000
v 0.076632 1.302394 -0.031742
v 0.127534 1.452936 -0.090158
v 0.178153 1.418780 -0.045440
v -0.045830 1.181728 -0.018983
v -0.062856 1.179349 -0.010642
v -0.104759 1.294220 -0.017580
v -0.076632 1.302394 -0.031742
v -0.018983 1.181728 0.045830
v 0.000000 1.181728 0.069053
v 0.004993 1.271102 0.101962
v -0.031742 1.302394 0.076632
v 0.045830 1.181728 0.018983
v 0.069053 1.181728 0.000000
v 0.076632 1.302394 0.031742
v 0.018983 1.181728 -0.045830
v 0.000000 1.181728 -0.069053
v 0.000000 1.302394 -0.115464
v 0.031742 1.302394 -0.076632
v -0.018983 1.181728 -0.045830
v -0.048828 1.181728 -0.048828
v -0.081645 1.302394 -0.081645
v -0.031742 1.302394 -0.076632
v -0.045830 1.181728 0.018983
v -0.048828 1.181728 0.048828
v -0.066410 1.277386 0.075520
v -0.088528 1.317831 0.039159
v 0.018983 1.181728 0.045830
v 0.048828 1.181728 0.048828
v 0.081645 1.302394 0.081645
v 0.031742 1.302394 0.076632
v 0.045830 1.181728 -0.018983
v 0.048828 1.181728 -0.048828
v 0.081645 1.302394 -0.081645
v 0.057039 1.566575 -0.172463
v 0.143278 1.589095 -0.118686
v 0.186774 1.672449 -0.212878
v 0.090298 1.651017 -0.266481
v 0.135400 1.380032 0.080672
v 0.060091 1.423507 0.073106
v 0.128926 1.421283 0.005361
v 0.000739 1.366370 0.126691
v -0.037421 1.440390 0.075135
v -0.087338 1.366540 0.077048
v -0.084672 1.390791 0.017136
v -0.132207 1.341743 -0.032992
v -0.075573 1.403203 -0.080845
v -0.076076 1.394941 -0.155516
v -0.030029 1.448263 -0.156489
v 0.022816 1.414528 -0.204440
v 0.057836 1.462252 -0.157274
v 0.135400 1.447924 -0.165747
v -0.077337 1.475223 -0.041147
v -0.147319 1.496444 -0.076781
v -0.181611 1.456473 -0.017587
v 0.242997 1.478198 -0.058153
v 0.203651 1.524044 -0.100700
v 0.330966 1.586651 -0.058178
v 0.359040 1.529116 -0.017802
v 0.075549 1.648101 -0.095178
v 0.006732 1.640625 -0.031916
v 0.061864 1.761302 0.035268
v 0.113347 1.764777 -0.008674
v 0.026125 1.420109 -0.256229
v 0.038676 1.493644 -0.243435
v 0.001961 1.442593 0.034372
v 0.119666 1.461538 0.128927
v 0.091667 1.491420 0.109470
v -0.142494 1.529458 -0.216096
v -0.116324 1.470745 -0.256052
v -0.001713 1.504389 0.124449
v 0.035800 1.478599 0.144984
v -0.159267 1.471397 0.094986
v -0.191704 1.517878 0.036076
v 0.143999 1.713402 0.023176
v 0.092517 1.709927 0.067117
v 0.135961 1.615495 -0.036113
v 0.060282 1.593706 0.021016
v 0.203230 1.549019 -0.311052
v 0.124986 1.590582 -0.304749
v 0.221461 1.612015 -0.251147
v 0.174168 1.541354 -0.158912
v 0.165284 1.500947 -0.222732
v 0.093527 1.528633 -0.214440
v 0.307194 1.621265 -0.005020
v 0.330060 1.572988 0.036641
v 0.171709 1.552023 -0.048998
v 0.203894 1.513594 -0.005531
v 0.017539 1.492180 0.011292
v 0.105266 1.520172 -0.059780
v -0.052984 1.519412 -0.058872
v 0.026400 1.523751 -0.135031
v 0.002580 1.478125 -0.121442
v 0.087423 1.474280 -0.039913
v -0.042288 1.443362 -0.233699
v -0.024637 1.508061 -0.224130
v -0.121147 1.586798 -0.187018
v -0.027455 1.553273 -0.218403
v -0.049215 1.504742 -0.237236
v -0.251615 1.509382 -0.126194
v -0.288517 1.461503 -0.045532
v -0.141533 1.441056 -0.111949
v -0.181108 1.367143 -0.063195
v -0.233091 1.436172 -0.162504
v -0.254694 1.414135 -0.091922
v -0.104994 1.522122 0.116679
v -0.107207 1.584724 0.081146
v -0.217830 1.611881 0.186780
v -0.206457 1.552080 0.195865
v -0.155527 1.585132 0.036729
v -0.256152 1.619368 0.146510
v -0.274295 1.561938 0.121366
v -0.241671 1.511605 0.157188
v -0.016460 1.501382 0.229927
v 0.020754 1.469765 0.240388
v -0.003345 1.416169 0.159971
v -0.028203 1.472584 0.141058
v -0.042448 1.465151 0.228894
v -0.016227 1.406475 0.223620
v 0.158368 1.423149 0.125089
v 0.194938 1.480989 0.210622
v 0.177506 1.506095 0.220987
v 0.155746 1.513022 0.080371
v 0.168542 1.465668 0.093540
v 0.209675 1.508780 0.205694
v 0.209960 1.538361 0.210661
v 0.167680 1.530734 0.217337
vn 0.0975 0.9670 -0.2354
vn 0.2354 0.9670 -0.0975
vn 0.2354 0.9670 0.0975
vn 0.0975 0.9670 0.2354
vn -0.0975 0.9670 0.2354
vn -0.2354 0.9670 0.0975
vn 0.0000 1.0000 -0.0000
vn -0.2354 0.9670 -0.0975
vn -0.0975 0.9670 -0.2354
vn 0.0000 -1.0000 0.0000
vn -0.3768 -0.1740 -0.9098
vn -0.9098 -0.1740 -0.3768
vn -0.9098 -0.1740 0.3768
vn -0.3768 -0.1740 0.9098
vn 0.3768 -0.1740 0.9098
vn 0.9098 -0.1740 0.3768
vn 0.9098 -0.1740 -0.3768
vn 0.3768 -0.1740 -0.9098
vn -0.3797 -0.1238 -0.9168
vn -0.9168 -0.1238 -0.3797
vn -0.9168 -0.1238 0.3797
vn -0.3797 -0.1238 0.9168
vn 0.3797 -0.1238 0.9168
vn 0.9168 -0.1238 0.3797
vn 0.9168 -0.1238 -0.3797
vn 0.3797 -0.1238 -0.9168
vn -0.3827 -0.0031 -0.9239
vn -0.9239 -0.0031 -0.3827
vn -0.9239 -0.0031 0.3827
vn -0.3827 -0.0031 0.9239
vn 0.3827 -0.0031 0.9239
vn 0.9239 -0.0031 0.3827
vn 0.9239 -0.0031 -0.3827
vn 0.3827 -0.0031 -0.9239
vn 0.3740 -0.2117 -0.9029
vn 0.3742 -0.2115 -0.9029
vn 0.9029 -0.2117 -0.3740
vn 0.9029 -0.2115 -0.3742
vn 0.9029 -0.2117 0.3740
vn 0.9029 -0.2115 0.3742
vn 0.3740 -0.2117 0.9029
vn 0.3742 -0.2115 0.9029
vn -0.3740 -0.2117 0.9029
vn -0.3742 -0.2115 0.9029
vn -0.9029 -0.2117 0.3740
vn -0.9029 -0.2115 0.3742
vn -0.9029 -0.2117 -0.3740
vn -0.9029 -0.2115 -0.3742
vn -0.3740 -0.2117 -0.9029
vn -0.3742 -0.2115 -0.9029
vn -0.3726 -0.2282 -0.8995
vn -0.8995 -0.2282 -0.3726
vn -0.8995 -0.2282 0.3726
vn -0.3726 -0.2282 0.8995
vn 0.3726 -0.2282 0.8995
vn 0.8995 -0.2282 0.3726
vn 0.8995 -0.2282 -0.3726
vn 0.3726 -0.2282 -0.8995
vn 0.3746 -0.2047 -0.9043
vn 0.9043 -0.2047 -0.3746
vn 0.9043 -0.2047 0.3746
vn 0.3746 -0.2047 0.9043
vn -0.3746 -0.2047 0.9043
vn -0.9043 -0.2047 0.3746
vn -0.9043 -0.2047 -0.3746
vn -0.3746 -0.2047 -0.9043
vn -0.3643 0.3062 -0.8795
vn -0.8795 0.3062 -0.3643
vn -0.8795 0.3062 0.3643
vn -0.3643 0.3062 0.8795
vn 0.3643 0.3062 0.8795
vn 0.8795 0.3062 0.3643
vn 0.8795 0.3062 -0.3643
vn 0.3643 0.3062 -0.8795
vn 0.4543 -0.4842 -0.7478
vn -0.3997 -0.1982 -0.8950
vn -0.7094 -0.2285 0.6668
vn 0.6149 -0.2365 0.7523
vn 0.7523 -0.2365 -0.6149
vn 0.0971 -0.2365 -0.9668
vn -0.9562 -0.2711 0.1106
vn -0.0971 -0.2365 0.9668
vn 0.9668 -0.2365 0.0971
vn 0.6149 -0.2365 -0.7523
vn 0.6325 -0.0337 -0.7738
vn 0.9944 -0.0337 0.0999
vn 0.7792 -0.2413 0.5784
vn 0.7738 -0.0337 0.6325
vn -0.0999 -0.0337 0.9944
vn -0.8524 -0.3096 0.4214
vn -0.7761 0.0088 0.6306
vn -0.9944 -0.0337 -0.0999
vn -0.7523 -0.2365 -0.6149
vn -0.7738 -0.0337 -0.6325
vn 0.0999 -0.0337 -0.9944
vn -0.0971 -0.2365 -0.9668
vn -0.0999 -0.0337 -0.9944
vn 0.7738 -0.0337 -0.6325
vn 0.9668 -0.2365 -0.0971
vn 0.9944 -0.0337 -0.0999
vn 0.6325 -0.0337 0.7738
vn 0.1209 -0.2391 0.9634
vn 0.0999 -0.0337 0.9944
vn -0.7738 -0.0337 0.6325
vn -0.9668 -0.2365 0.0971
vn -0.9944 -0.0337 0.0999
vn -0.5541 -0.0536 -0.8307
vn -0.4609 0.7474 0.4784
vn -0.0806 0.0558 0.9952
vn 0.8407 -0.4867 -0.2375
vn -0.7751 -0.0952 0.6246
vn 0.7460 -0.1467 0.6495
vn -0.9862 -0.0860 0.1415
vn 0.0085 0.0009 1.0000
vn -0.2811 -0.4244 -0.8607
vn -0.8565 -0.0074 0.5161
vn 0.3222 -0.5199 -0.7911
vn 0.8176 -0.4033 -0.4109
vn -0.9974 0.0598 0.0402
vn 0.9525 -0.2842 0.1091
vn -0.7377 -0.3192 -0.5949
vn -0.1433 -0.4406 -0.8862
vn 0.6781 -0.1096 0.7267
vn 0.0438 0.6781 0.7336
vn 0.4477 -0.3634 -0.8170
vn -0.5652 0.5928 -0.5737
vn 0.9426 -0.2792 -0.1831
vn -0.6069 -0.1370 0.7829
vn -0.9038 -0.4254 0.0462
vn 0.5824 0.7035 -0.4072
vn -0.7941 -0.5886 -0.1514
vn 0.4674 0.6502 0.5990
vn 0.7845 0.2251 -0.5779
vn -0.7372 -0.0503 0.6738
vn 0.6109 -0.4391 0.6588
vn 0.2707 0.6211 -0.7355
vn 0.8972 -0.4153 0.1505
vn 0.8432 0.1333 0.5208
vn -0.3855 -0.7112 -0.5878
vn -0.8494 -0.2253 -0.4772
vn 0.8735 0.4807 0.0776
vn -0.4705 0.4478 0.7603
vn -0.2049 0.7887 -0.5796
vn 0.1264 -0.7571 0.6409
vn 0.6416 -0.3547 0.6801
vn -0.6404 0.1713 0.7487
vn 0.6881 -0.0406 -0.7245
vn -0.6303 0.4513 -0.6317
vn -0.6978 0.1286 -0.7046
vn 0.5871 -0.5000 -0.6367
vn -0.4835 0.5141 0.7085
vn 0.6082 0.1387 0.7816
vn 0.5947 -0.4437 0.6705
vn -0.5600 0.5182 -0.6465
vn -0.3906 0.4595 0.7977
vn 0.3312 -0.5002 -0.8000
vn -0.6798 -0.1107 -0.7250
vn -0.2526 -0.5925 -0.7649
vn 0.7985 0.0336 0.6010
vn 0.9139 -0.3880 0.1197
vn -0.5175 0.6420 0.5657
vn -0.2421 0.2063 -0.9481
vn -0.4138 -0.9101 0.0239
vn -0.8991 0.3611 0.2475
vn 0.3347 0.9173 0.2157
vn -0.0895 0.4798 -0.8728
vn -0.9402 -0.0376 0.3385
vn 0.8495 -0.2833 -0.4451
vn 0.5446 -0.5824 -0.6035
vn 0.4339 0.7731 0.4625
vn -0.1058 0.8654 0.4898
vn 0.5434 0.4490 -0.7093
vn 0.0793 -0.6158 -0.7839
vn -0.5514 -0.3397 0.7619
vn -0.9071 -0.1163 -0.4046
vn 0.0838 -0.7971 -0.5980
vn 0.4097 0.5011 -0.7623
vn -0.3915 -0.5794 0.7149
vn 0.6701 0.3187 0.6704
vn 0.0977 -0.2352 0.9670
vn 0.5954 0.6653 -0.4503
vn -0.5884 -0.1341 -0.7974
vn 0.7157 0.3202 0.6207
vn -0.7379 -0.0334 0.6740
vn 0.2531 -0.6943 0.6737
vn 0.1846 0.9779 -0.0977
vn -0.5824 0.4001 -0.7076
vn -0.6317 -0.7158 -0.2977
vn 0.5688 0.8118 0.1322
vn -0.9143 -0.2877 0.2851
vn 0.7754 -0.3300 0.5384
vn -0.6600 0.6536 -0.3704
vn -0.1739 -0.0657 0.9826
vn 0.8514 -0.5168 0.0893
vn -0.7984 0.5958 -0.0876
vn -0.8852 -0.4172 -0.2057
vn -0.5160 -0.5942 0.6169
vn 0.8475 0.1648 -0.5045
vn -0.4000 -0.5229 0.7527
vn 0.9202 -0.3229 -0.2213
vn -0.3912 0.9155 -0.0939
vn 0.3279 -0.0036 0.9447
vn -0.2940 0.9508 -0.0973
vn 0.9043 -0.3991 -0.1517
vn -0.7482 -0.2605 0.6102
vn 0.9146 0.1072 -0.3899
usemtl Carrot
s 1
f 1//1 2//1 3//1 4//1
f 4//2 3//2 5//2 6//2
f 6//3 5//3 7//3 8//3
f 8//4 7//4 9//4 10//4
f 10//5 9//5 11//5 12//5
f 12//6 11//6 13//6 14//6
f 3//7 2//7 15//7 13//7 11//7 9//7 7//7 5//7
f 14//8 13//8 15//8 16//8
f 16//9 15//9 2//9 1//9
f 17//10 18//10 19//10 20//10 21//10 22//10 23//10 24//10
f 25//11 26//11 27//11 28//11
f 29//12 30//12 26//12 25//12
f 31//13 32//13 30//13 29//13
f 33//14 34//14 32//14 31//14
f 35//15 36//15 34//15 33//15
f 37//16 38//16 36//16 35//16
f 39//17 40//17 38//17 37//17
f 28//18 27//18 40//18 39//18
f 26//19 41//19 42//19 27//19
f 30//20 43//20 41//20 26//20
f 32//21 44//21 43//21 30//21
f 34//22 45//22 44//22 32//22
f 36//23 46//23 45//23 34//23
f 38//24 47//24 46//24 36//24
f 40//25 48//25 47//25 38//25
f 27//26 42//26 48//26 40//26
f 41//27 49//27 50//27 42//27
f 43//28 51//28 49//28 41//28
f 44//29 52//29 51//29 43//29
f 45//30 53//30 52//30 44//30
f 46//31 54//31 53//31 45//31
f 47//32 55//32 54//32 46//32
f 48//33 56//33 55//33 47//33
f 42//34 50//34 56//34 48//34
f 57//35 58//36 59//36 60//35
f 60//37 59//38 61//38 62//37
f 62//39 61//40 63//40 64//39
f 64//41 63//42 65//42 66//41
f 66//43 65//44 67//44 68//43
f 68//45 67//46 69//46 70//45
f 70//47 69//48 71//48 72//47
f 72//49 71//50 58//50 57//49
f 24//51 72//51 57//51 17//51
f 23//52 70//52 72//52 24//52
f 22//53 68//53 70//53 23//53
f 21//54 66//54 68//54 22//54
f 20//55 64//55 66//55 21//55
f 19//56 62//56 64//56 20//56
f 18//57 60//57 62//57 19//57
f 17//58 57//58 60//58 18//58
f 58//36 28//59 39//59 59//36
f 59//38 39//60 37//60 61//38
f 61//40 37//61 35//61 63//40
f 63//42 35//62 33//62 65//42
f 65//44 33//63 31//63 67//44
f 67//46 31//64 29//64 69//46
f 69//48 29//65 25//65 71//48
f 71//50 25//66 28//66 58//50
f 49//67 16//67 1//67 50//67
f 51//68 14//68 16//68 49//68
f 52//69 12//69 14//69 51//69
f 53//70 10//70 12//70 52//70
f 54//71 8//71 10//71 53//71
f 55//72 6//72 8//72 54//72
f 56//73 4//73 6//73 55//73
f 50//74 1//74 4//74 56//74
usemtl Carrot_GReen
f 73//10 74//10 75//10 76//10 77//10 78//10 79//10 80//10 81//10 82//10 83//10 84//10 85//10 86//10 87//10 88//10
f 89//75 90//75 91//75 92//75
f 93//76 94//76 95//76 96//76
f 97//77 98//77 99//77 100//77
f 101//78 102//78 89//78 103//78
f 104//79 105//79 106//79 107//79
f 108//80 109//80 110//80 111//80
f 112//81 113//81 114//81 115//81
f 116//82 117//82 118//82 119//82
f 120//83 121//83 122//83 90//83
f 102//84 120//84 90//84 89//84
f 75//85 74//85 120//85 102//85
f 74//86 73//86 121//86 120//86
f 98//87 116//87 119//87 99//87
f 79//88 78//88 116//88 98//88
f 78//89 77//89 117//89 116//89
f 94//90 112//90 115//90 95//90
f 83//91 82//91 112//91 94//91
f 82//92 81//92 113//92 112//92
f 105//93 108//93 111//93 106//93
f 87//94 86//94 108//94 105//94
f 86//95 85//95 109//95 108//95
f 121//96 104//96 107//96 122//96
f 73//97 88//97 104//97 121//97
f 88//98 87//98 105//98 104//98
f 117//99 101//99 103//99 118//99
f 77//100 76//100 101//100 117//100
f 76//101 75//101 102//101 101//101
f 113//102 97//102 100//102 114//102
f 81//103 80//103 97//103 113//103
f 80//104 79//104 98//104 97//104
f 109//105 93//105 96//105 110//105
f 85//106 84//106 93//106 109//106
f 84//107 83//107 94//107 93//107
f 123//108 124//108 125//108 126//108
f 119//109 118//109 127//109 128//109
f 118//110 103//110 129//110 127//110
f 100//111 99//111 130//111 131//111
f 99//112 119//112 128//112 130//112
f 115//113 114//113 132//113 133//113
f 114//114 100//114 131//114 132//114
f 96//115 95//115 134//115 135//115
f 95//116 115//116 133//116 134//116
f 111//117 110//117 136//117 137//117
f 107//118 106//118 138//118 139//118
f 110//119 96//119 135//119 136//119
f 90//120 122//120 140//120 91//120
f 106//121 111//121 137//121 138//121
f 122//122 107//122 139//122 140//122
f 103//123 89//123 92//123 129//123
f 133//124 141//124 142//124 143//124
f 144//125 145//125 146//125 147//125
f 148//126 149//126 150//126 151//126
f 139//127 138//127 152//127 153//127
f 154//128 128//128 155//128 156//128
f 136//129 135//129 157//129 158//129
f 128//130 154//130 159//130 160//130
f 133//131 132//131 161//131 162//131
f 163//132 151//132 150//132 164//132
f 165//133 148//133 151//133 163//133
f 149//134 166//134 164//134 150//134
f 166//135 165//135 163//135 164//135
f 167//136 168//136 126//136 125//136 169//136
f 170//137 171//137 167//137 169//137
f 124//138 170//138 169//138 125//138
f 171//139 172//139 168//139 167//139
f 172//140 123//140 126//140 168//140
f 146//141 173//141 174//141 147//141
f 175//142 176//142 174//142 173//142
f 145//143 175//143 173//143 146//143
f 176//144 144//144 147//144 174//144
f 177//145 178//145 165//145 166//145
f 179//146 177//146 166//146 149//146
f 178//147 180//147 148//147 165//147
f 180//148 179//148 149//148 148//148
f 181//149 141//149 179//149 180//149
f 182//150 181//150 180//150 178//150
f 141//151 154//151 177//151 179//151
f 154//152 182//152 178//152 177//152
f 129//153 92//153 144//153 176//153
f 91//154 182//154 175//154 145//154
f 182//155 129//155 176//155 175//155
f 92//156 91//156 145//156 144//156
f 139//157 181//157 123//157 172//157
f 140//158 139//158 172//158 171//158
f 182//159 91//159 170//159 124//159
f 91//160 140//160 171//160 170//160
f 181//161 182//161 124//161 123//161
f 183//162 184//162 153//162 152//162
f 138//163 137//163 183//163 152//163
f 137//164 181//164 184//164 183//164
f 181//165 139//165 153//165 184//165
f 157//166 185//166 186//166 187//166 158//166
f 135//167 141//167 185//167 157//167
f 181//168 137//168 187//168 186//168
f 137//169 136//169 158//169 187//169
f 141//170 181//170 186//170 185//170
f 143//171 142//171 188//171 189//171
f 141//172 135//172 190//172 142//172
f 135//173 134//173 191//173 190//173
f 134//174 133//174 143//174 191//174
f 189//175 188//175 192//175 193//175
f 190//176 191//176 193//176 192//176
f 142//177 190//177 192//177 188//177
f 191//178 143//178 189//178 193//178
f 194//179 195//179 196//179 197//179
f 132//180 131//180 194//180 161//180
f 154//181 141//181 198//181 195//181
f 141//182 133//182 162//182 198//182
f 131//183 154//183 195//183 194//183
f 196//184 199//184 200//184 201//184 197//184
f 161//185 194//185 197//185 201//185
f 195//186 198//186 199//186 196//186
f 198//187 162//187 200//187 199//187
f 162//188 161//188 201//188 200//188
f 160//189 159//189 202//189 203//189
f 131//190 130//190 204//190 205//190
f 130//191 128//191 160//191 204//191
f 154//192 131//192 205//192 159//192
f 203//193 202//193 206//193 207//193
f 204//194 160//194 203//194 207//194
f 159//195 205//195 206//195 202//195
f 205//196 204//196 207//196 206//196
f 155//197 208//197 209//197 210//197
f 129//198 182//198 211//198 212//198
f 128//199 127//199 208//199 155//199
f 127//200 129//200 212//200 208//200
f 182//201 154//201 156//201 211//201
f 213//202 214//202 215//202 210//202 209//202
f 211//203 156//203 215//203 214//203
f 208//204 212//204 213//204 209//204
f 156//205 155//205 210//205 215//205
f 212//206 211//206 214//206 213//206
