# Blender v2.83.0 OBJ File: 'Mountain.blend'
# www.blender.org
mtllib Mountain.mtl
o Plane
v -1.667450 -0.684386 2.211842
v 0.922752 -1.072212 1.995052
v -1.102701 -1.247530 -1.493271
v 1.944115 -0.504349 -3.071012
v -2.276253 -0.664102 3.244828
v -1.920186 -0.562725 3.528789
v -1.469289 -0.437791 3.546066
v -1.086701 -0.148675 4.210181
v -0.641890 0.115526 4.587945
v -0.116492 -0.492110 3.498868
v 0.349113 -0.770219 3.073025
v 0.724505 -0.882871 2.956031
v 0.993822 -0.987229 2.660930
v 1.357621 -1.104745 2.441356
v 1.242625 -1.106201 2.259023
v 2.150957 -0.483601 -3.137108
v 2.124952 -0.486234 -3.439869
v 1.757242 -0.430166 -3.282104
v 1.666890 -0.535564 -2.924015
v 0.915932 -0.377548 -2.982895
v 0.462347 -0.515399 -2.915803
v -0.176034 -0.591944 -2.927832
v -0.694494 -0.716759 -2.718476
v -0.916387 -0.847386 -2.056282
v -1.168793 -0.900275 -1.882884
v -1.223733 -1.104232 -1.447113
v -1.300557 -0.811044 -1.361490
v -1.576815 -0.634599 -1.355930
v -2.130154 -0.480841 -1.352684
v -2.583199 -0.497490 -1.123935
v -2.301816 -0.190375 -0.584508
v -2.664966 -0.285575 0.006430
v -2.601262 -0.386379 0.626937
v -2.182280 -0.118783 1.258222
v -2.465270 -0.181407 1.902449
v -2.183979 -0.272147 2.096408
v -1.929075 -0.267036 2.315357
v 1.311588 -0.741617 1.730911
v 1.716791 -0.932026 1.373514
v 2.092191 -0.768927 0.845336
v 2.507181 -0.582948 0.612639
v 2.901269 -0.265133 0.384211
v 3.719810 -0.317052 -0.073624
v 2.853450 -0.480024 -0.639418
v 3.093185 -0.642187 -1.253875
v 3.063842 -0.560016 -1.939209
v 3.376627 -0.598130 -2.595729
v 1.850897 -0.348858 -3.104455
v -2.582654 -0.250298 3.051596
v -2.759125 -0.035300 2.832268
v -3.329755 -0.018676 2.329247
v -4.159887 -0.128924 1.253875
v -3.996385 -0.399377 0.626938
v -4.658945 0.249629 -0.000000
v -4.345712 0.176114 -0.626938
v -3.892760 -0.576414 -1.168729
v -3.137598 -0.590637 -1.171450
v -2.892874 -0.562008 -1.319393
v -1.674586 -0.428640 -1.471243
v -2.323646 -0.002167 2.977823
v -2.316366 0.566010 2.527214
v -2.940816 0.422128 2.163909
v -2.913549 -0.008737 1.454978
v -2.934032 -0.071894 0.626938
v -2.713666 0.813576 -0.000000
v -2.729208 0.668207 -0.626938
v -2.624727 0.783921 -1.252622
v -3.118695 0.063421 -1.461429
v -2.517972 0.335281 -1.937080
v -1.793785 -0.017510 -2.067816
v -1.940733 0.117138 2.900826
v -1.842332 0.891596 2.417190
v -1.900889 1.721044 1.886741
v -2.007716 1.305153 1.255788
v -2.150617 1.758319 0.552286
v -1.952063 2.127172 0.074132
v -1.969052 2.469506 -0.525036
v -2.202860 0.675670 -1.330268
v -2.013274 1.016140 -1.815606
v -1.805641 0.860175 -2.283425
v -1.462590 0.170548 -2.324629
v -1.267101 0.174447 2.798815
v -1.257654 1.832221 2.554850
v -1.271733 1.707747 1.901349
v -1.342067 2.285470 1.355295
v -1.283158 1.377617 0.660613
v -1.440140 2.834848 0.214333
v -1.432361 2.994569 -0.399756
v -1.300974 2.380075 -1.109001
v -1.237710 1.101036 -1.975336
v -1.175939 0.337927 -2.646487
v -0.978897 0.320173 -2.644989
v -0.556532 0.356260 3.035539
v -0.587658 1.532285 2.709417
v -0.637739 1.367738 1.894583
v -0.767378 2.525387 1.415381
v -0.842590 2.857359 0.874938
v -0.934190 3.543086 0.353955
v -0.810081 2.967597 -0.333352
v -0.620091 2.196260 -1.059064
v -0.549170 1.556032 -1.827711
v -0.526283 0.427340 -2.638847
v -0.398290 -0.186160 -3.216486
v 0.116295 0.314307 3.199100
v 0.157825 1.372548 2.875293
v 0.056673 1.566168 1.972446
v -0.071359 1.822370 1.334602
v -0.257918 3.083987 0.923544
v -0.382693 4.550602 0.440097
v -0.161242 2.970078 -0.290999
v -0.118493 2.567560 -0.679717
v 0.113083 2.362857 -1.647007
v -0.152327 -0.383240 -3.252512
v 0.037875 -0.195493 -3.692676
v 0.704105 0.199454 3.996373
v 0.794828 1.352389 2.813535
v 0.871763 1.520666 1.858277
v 0.558102 2.003454 1.327835
v 0.548085 1.959008 0.718065
v 0.673680 2.494747 0.163179
v 0.566406 2.711601 -0.328028
v 0.716056 2.196925 -1.004087
v 0.765309 2.469019 -1.629591
v 0.781606 0.719335 -2.677594
v 0.721870 0.605392 -3.946121
v 1.152832 0.027666 3.840210
v 1.311381 0.817400 2.595679
v 1.268926 1.719020 1.855366
v 1.144581 2.813958 1.379563
v 1.175940 2.123630 0.720526
v 1.214033 1.921400 0.124358
v 1.263031 2.184828 -0.432799
v 1.355497 1.955013 -1.079467
v 1.397572 2.200097 -1.701514
v 1.360882 0.271277 -2.819460
v 1.246741 0.280431 -3.989169
v 1.322018 -0.271888 3.029904
v 1.765924 0.352407 2.307731
v 1.932679 1.007402 2.087849
v 1.782917 1.978120 1.375041
v 2.034231 1.736672 0.720549
v 1.998933 2.048723 0.069597
v 1.958840 1.493255 -0.580822
v 2.027318 1.659286 -1.186289
v 1.947929 0.805970 -1.902380
v 1.924395 0.244714 -2.758388
v 1.603600 -0.064628 -3.755370
v 1.745078 -0.447489 2.504552
v 3.630827 0.093328 2.301815
v 3.727347 0.150823 1.785409
v 3.229156 -0.062322 1.354913
v 2.610226 0.688637 0.884944
v 2.644940 0.582531 0.020164
v 2.539951 0.162783 -0.627049
v 2.612731 0.990921 -1.250915
v 2.447084 0.354964 -1.880813
v 2.439978 0.020940 -2.654980
v 2.078852 -0.299774 -3.803835
v 1.680550 -0.619899 2.069726
v 2.340364 -0.560723 1.670892
v 3.076773 -0.401695 1.155881
v 3.754879 -0.186655 0.644776
v 4.009558 0.141772 0.359789
v 4.191981 0.141413 -0.013143
v 3.854203 -0.062550 -0.620358
v 4.006503 -0.121160 -1.253876
v 3.875579 -0.149542 -1.882937
v 3.775624 -0.202325 -2.531649
v 2.491803 -0.286472 -3.254014
vt 0.000000 0.916667
vt 0.083333 0.916667
vt 0.083333 1.000000
vt 0.000000 1.000000
vt 0.833333 0.000000
vt 0.916667 0.000000
vt 0.916667 0.083333
vt 0.833333 0.083333
vt 0.916667 0.166667
vt 0.833333 0.166667
vt 0.916667 0.250000
vt 0.833333 0.250000
vt 0.000000 0.000000
vt 0.083333 0.000000
vt 0.083333 0.083333
vt 0.000000 0.083333
vt 0.083333 0.166667
vt 0.000000 0.166667
vt 0.083333 0.250000
vt 0.000000 0.250000
vt 0.083333 0.333333
vt 0.000000 0.333333
vt 0.083333 0.416667
vt 0.000000 0.416667
vt 0.083333 0.500000
vt 0.000000 0.500000
vt 0.083333 0.583333
vt 0.000000 0.583333
vt 0.083333 0.666667
vt 0.000000 0.666667
vt 0.083333 0.750000
vt 0.000000 0.750000
vt 0.083333 0.833333
vt 0.000000 0.833333
vt 1.000000 0.000000
vt 1.000000 0.083333
vt 1.000000 0.166667
vt 1.000000 0.250000
vt 1.000000 0.333333
vt 0.916667 0.333333
vt 1.000000 0.416667
vt 0.916667 0.416667
vt 1.000000 0.500000
vt 0.916667 0.500000
vt 1.000000 0.583333
vt 0.916667 0.583333
vt 1.000000 0.666667
vt 0.916667 0.666667
vt 1.000000 0.750000
vt 0.916667 0.750000
vt 1.000000 0.833333
vt 0.916667 0.833333
vt 1.000000 0.916667
vt 0.916667 0.916667
vt 1.000000 1.000000
vt 0.750000 0.000000
vt 0.666667 0.000000
vt 0.583333 0.000000
vt 0.500000 0.000000
vt 0.416667 0.000000
vt 0.333333 0.000000
vt 0.250000 0.000000
vt 0.166667 0.000000
vt 0.166667 1.000000
vt 0.250000 1.000000
vt 0.333333 1.000000
vt 0.416667 1.000000
vt 0.500000 1.000000
vt 0.583333 1.000000
vt 0.666667 1.000000
vt 0.750000 1.000000
vt 0.833333 1.000000
vt 0.916667 1.000000
vt 0.166667 0.916667
vt 0.250000 0.916667
vt 0.333333 0.916667
vt 0.416667 0.916667
vt 0.500000 0.916667
vt 0.583333 0.916667
vt 0.666667 0.916667
vt 0.750000 0.916667
vt 0.833333 0.916667
vt 0.833333 0.333333
vt 0.833333 0.416667
vt 0.833333 0.500000
vt 0.833333 0.583333
vt 0.833333 0.666667
vt 0.833333 0.750000
vt 0.833333 0.833333
vt 0.750000 0.083333
vt 0.750000 0.166667
vt 0.750000 0.250000
vt 0.724681 0.333333
vt 0.750000 0.416667
vt 0.750000 0.500000
vt 0.750000 0.583333
vt 0.750000 0.666667
vt 0.750000 0.750000
vt 0.750000 0.833333
vt 0.666667 0.083333
vt 0.666667 0.166667
vt 0.666667 0.250000
vt 0.666667 0.416667
vt 0.666667 0.500000
vt 0.666667 0.583333
vt 0.666667 0.666667
vt 0.666667 0.750000
vt 0.666667 0.833333
vt 0.583333 0.083333
vt 0.583333 0.166667
vt 0.583333 0.250000
vt 0.583333 0.416667
vt 0.583333 0.500000
vt 0.583333 0.583333
vt 0.583333 0.666667
vt 0.583333 0.750000
vt 0.583333 0.833333
vt 0.500000 0.083333
vt 0.500000 0.166667
vt 0.500000 0.250000
vt 0.583333 0.333333
vt 0.500000 0.333333
vt 0.500000 0.666667
vt 0.500000 0.750000
vt 0.500000 0.833333
vt 0.416667 0.083333
vt 0.416667 0.166667
vt 0.416667 0.250000
vt 0.416667 0.333333
vt 0.416667 0.666667
vt 0.416667 0.750000
vt 0.416667 0.833333
vt 0.333333 0.083333
vt 0.333333 0.166667
vt 0.333333 0.250000
vt 0.333333 0.333333
vt 0.333333 0.583333
vt 0.416667 0.583333
vt 0.333333 0.666667
vt 0.333333 0.750000
vt 0.333333 0.833333
vt 0.250000 0.083333
vt 0.250000 0.166667
vt 0.250000 0.250000
vt 0.250000 0.333333
vt 0.333333 0.416667
vt 0.250000 0.416667
vt 0.333333 0.500000
vt 0.250000 0.500000
vt 0.250000 0.583333
vt 0.250000 0.666667
vt 0.250000 0.750000
vt 0.250000 0.833333
vt 0.166667 0.083333
vt 0.166667 0.166667
vt 0.166667 0.250000
vt 0.166667 0.333333
vt 0.166667 0.416667
vt 0.166667 0.500000
vt 0.166667 0.583333
vt 0.166667 0.666667
vt 0.166667 0.750000
vt 0.166667 0.833333
vt 0.666667 0.333333
vt 0.500000 0.416667
vt 0.500000 0.500000
vt 0.500000 0.583333
vt 0.416667 0.416667
vt 0.416667 0.500000
vn -0.4845 -0.3598 0.7974
vn 0.8054 -0.5888 -0.0684
vn 0.2896 -0.8989 0.3289
vn 0.4388 -0.8825 0.1691
vn -0.6963 -0.5283 -0.4858
vn -0.3347 -0.9349 -0.1183
vn -0.1974 -0.9761 0.0910
vn -0.0472 -0.9980 0.0427
vn 0.0058 -0.9199 0.3922
vn -0.1350 -0.8820 -0.4515
vn -0.2143 -0.9672 -0.1363
vn -0.0796 -0.7182 0.6913
vn 0.0996 -0.8537 0.5111
vn 0.0894 -0.4826 0.8713
vn -0.1042 -0.5231 -0.8459
vn 0.4898 -0.7461 -0.4511
vn 0.1811 -0.8939 0.4102
vn 0.3771 -0.9186 0.1183
vn 0.3274 -0.9445 -0.0281
vn 0.2563 -0.7458 -0.6149
vn 0.3987 -0.7501 0.5276
vn 0.5039 -0.8238 -0.2596
vn 0.4198 -0.8619 0.2844
vn 0.4754 -0.8748 -0.0938
vn 0.5383 -0.8301 0.1456
vn 0.2525 -0.6981 -0.6700
vn -0.0309 -0.9995 0.0004
vn -0.0610 -0.9633 0.2613
vn -0.0626 -0.8757 -0.4788
vn 0.2154 0.2511 0.9437
vn -0.7684 -0.5696 -0.2916
vn -0.4071 -0.4415 -0.7996
vn -0.7126 -0.3459 -0.6104
vn -0.6201 -0.3243 -0.7144
vn -0.1575 -0.8581 -0.4888
vn 0.3757 -0.6728 -0.6373
vn -0.2799 -0.7588 -0.5882
vn -0.5168 -0.7612 -0.3918
vn -0.3876 -0.8094 -0.4412
vn 0.5637 -0.7787 -0.2756
vn 0.8606 -0.4823 0.1635
vn 0.5714 0.5910 0.5693
vn 0.3133 0.9493 -0.0267
vn 0.1933 0.8496 -0.4907
vn 0.3744 0.7596 0.5319
vn 0.4302 0.7526 -0.4985
vn 0.2562 0.9277 -0.2715
vn 0.2664 0.8667 -0.4217
vn 0.4986 -0.4860 0.7178
vn 0.2606 0.2243 0.9390
vn 0.2576 0.6467 0.7179
vn 0.6685 0.7357 0.1087
vn 0.8369 0.5468 -0.0259
vn 0.8967 0.4386 0.0592
vn 0.8416 0.3823 -0.3814
vn 0.7855 0.4340 0.4412
vn 0.5161 0.5260 -0.6760
vn 0.5390 0.7340 -0.4132
vn 0.4068 0.8335 -0.3740
vn 0.6004 -0.6444 0.4736
vn 0.9027 0.1669 0.3965
vn 0.4893 0.4292 0.7592
vn 0.1583 0.9836 0.0870
vn 0.3208 0.9211 -0.2204
vn 0.5892 0.8072 0.0346
vn 0.7492 0.5949 -0.2913
vn 0.5623 0.5053 -0.6546
vn 0.4226 0.8823 -0.2071
vn -0.0002 -0.6930 0.7209
vn 0.6257 0.5764 0.5256
vn 0.4032 0.7702 0.4942
vn 0.3229 0.8958 0.3055
vn 0.6554 0.6998 0.2842
vn 0.4206 0.8214 -0.3853
vn 0.3825 0.8433 0.3776
vn 0.1462 0.5013 -0.8528
vn 0.5634 0.8228 -0.0755
vn -0.3883 -0.1882 0.9021
vn -0.3912 0.5341 0.7495
vn 0.0673 0.9795 0.1899
vn -0.0333 0.8389 0.5432
vn 0.1896 0.9790 0.0749
vn -0.0683 0.5099 -0.8575
vn -0.7591 0.6503 -0.0299
vn 0.6685 0.5923 0.4497
vn -0.1801 0.2755 0.9443
vn -0.0302 0.9994 0.0196
vn 0.2297 0.6288 0.7429
vn -0.5222 0.7275 -0.4451
vn -0.3290 0.5145 -0.7919
vn 0.6070 0.7827 -0.1376
vn -0.4367 0.8811 0.1816
vn -0.2528 0.1890 0.9489
vn 0.4498 0.8724 -0.1914
vn 0.0042 0.5090 0.8607
vn 0.1769 0.7275 -0.6630
vn -0.0184 0.6476 -0.7617
vn -0.1555 0.6049 -0.7809
vn -0.1383 0.6279 -0.7659
vn -0.4905 0.7345 0.4690
vn -0.2542 0.2875 0.9234
vn -0.5787 0.6847 0.4432
vn -0.5978 0.7771 0.1968
vn -0.3174 0.9072 -0.2760
vn -0.2593 0.4409 0.8593
vn -0.7632 0.5950 0.2520
vn -0.5478 0.4619 -0.6975
vn -0.6117 0.5916 -0.5252
vn 0.0094 0.7793 -0.6266
vn -0.5730 -0.3972 -0.7169
vn -0.1438 0.6691 0.7291
vn -0.1208 0.5734 0.8103
vn -0.4037 0.5504 0.7308
vn -0.7918 0.5364 -0.2920
vn -0.8530 0.4768 0.2124
vn -0.8861 0.4355 0.1584
vn -0.8967 0.4328 0.0933
vn -0.6982 0.4949 -0.5173
vn -0.5193 0.8248 -0.2238
vn -0.6555 0.5736 -0.4912
vn -0.3667 -0.2266 -0.9023
vn -0.4582 0.3041 0.8352
vn -0.2971 0.5828 0.7563
vn -0.4893 0.6520 0.5792
vn -0.3185 0.9374 -0.1410
vn -0.1652 0.9577 -0.2358
vn -0.1755 0.5921 0.7865
vn -0.2767 0.9334 -0.2286
vn -0.4507 0.6754 -0.5836
vn -0.4275 0.1065 -0.8977
vn -0.4706 -0.3535 -0.8084
vn -0.1808 -0.6498 -0.7383
vn 0.4509 0.4894 0.7465
vn 0.5839 0.7161 -0.3823
vn -0.4420 0.3919 0.8069
vn -0.5556 0.7154 -0.4237
vn 0.4906 0.6051 0.6270
vn 0.7126 0.3227 0.6229
vn 0.6185 0.5526 -0.5587
vn 0.1618 0.7619 -0.6271
vn 0.2165 0.5265 0.8222
vn -0.4626 0.3363 0.8203
vn -0.3203 0.4843 -0.8142
vn 0.0393 0.6921 -0.7208
vn -0.8209 0.5217 -0.2324
vn -0.7287 0.2098 0.6520
vn -0.4484 0.8373 -0.3129
usemtl BrownMountain
s off
f 27/1/1 59/2/1 26/3/1 3/4/1
f 14/5/2 15/6/2 159/7/2 148/8/2
f 148/8/3 159/7/3 160/9/3 149/10/3
f 149/10/4 160/9/4 161/11/4 150/12/4
f 1/13/5 5/14/5 49/15/5 37/16/5
f 37/16/6 49/15/6 50/17/6 36/18/6
f 36/18/7 50/17/7 51/19/7 35/20/7
f 35/20/8 51/19/8 52/21/8 34/22/8
f 34/22/9 52/21/9 53/23/9 33/24/9
f 33/24/10 53/23/10 54/25/10 32/26/10
f 32/26/11 54/25/11 55/27/11 31/28/11
f 31/28/12 55/27/12 56/29/12 30/30/12
f 30/30/13 56/29/13 57/31/13 29/32/13
f 29/32/14 57/31/14 58/33/14 28/34/14
f 28/34/15 58/33/15 59/2/15 27/1/15
f 15/6/16 2/35/16 38/36/16 159/7/16
f 159/7/17 38/36/17 39/37/17 160/9/17
f 160/9/18 39/37/18 40/38/18 161/11/18
f 161/11/19 40/38/19 41/39/19 162/40/19
f 162/40/20 41/39/20 42/41/20 163/42/20
f 163/42/21 42/41/21 43/43/21 164/44/21
f 164/44/22 43/43/22 44/45/22 165/46/22
f 165/46/23 44/45/23 45/47/23 166/48/23
f 166/48/24 45/47/24 46/49/24 167/50/24
f 167/50/25 46/49/25 47/51/25 168/52/25
f 168/52/26 47/51/26 48/53/26 169/54/26
f 37/16/27 36/18/27 35/20/27 34/22/27 33/24/27 32/26/27 31/28/27 30/30/27 29/32/27 28/34/27 27/1/27 3/4/27 4/55/27 48/53/27 47/51/27 46/49/27 45/47/27 44/45/27 43/43/27 42/41/27 41/39/27 40/38/27 39/37/27 38/36/27 2/35/27 1/13/27
f 15/6/28 14/5/28 13/56/28 12/57/28 11/58/28 10/59/28 9/60/28 8/61/28 7/62/28 6/63/28 5/14/28 1/13/28 2/35/28
f 26/3/29 25/64/29 24/65/29 23/66/29 22/67/29 21/68/29 20/69/29 19/70/29 18/71/29 17/72/29 16/73/29 4/55/29 3/4/29
usemtl GreyRockMountain
f 169/54/30 48/53/30 4/55/30 16/73/30
f 59/2/31 70/74/31 25/64/31 26/3/31
f 70/74/32 81/75/32 24/65/32 25/64/32
f 81/75/33 92/76/33 23/66/33 24/65/33
f 92/76/34 103/77/34 22/67/34 23/66/34
f 103/77/35 114/78/35 21/68/35 22/67/35
f 114/78/36 125/79/36 20/69/36 21/68/36
f 125/79/37 136/80/37 19/70/37 20/69/37
f 136/80/38 147/81/38 18/71/38 19/70/38
f 147/81/39 158/82/39 17/72/39 18/71/39
f 158/82/40 169/54/40 16/73/40 17/72/40
f 150/12/41 161/11/41 162/40/41 151/83/41
f 151/83/42 162/40/42 163/42/42 152/84/42
f 152/84/43 163/42/43 164/44/43 153/85/43
f 153/85/44 164/44/44 165/46/44 154/86/44
f 154/86/45 165/46/45 166/48/45 155/87/45
f 155/87/46 166/48/46 167/50/46 156/88/46
f 156/88/47 167/50/47 168/52/47 157/89/47
f 157/89/48 168/52/48 169/54/48 158/82/48
f 13/56/49 14/5/49 148/8/49 137/90/49
f 137/90/50 148/8/50 149/10/50 138/91/50
f 138/91/51 149/10/51 150/12/51 139/92/51
f 139/92/52 150/12/52 151/83/52 140/93/52
f 140/93/53 151/83/53 152/84/53 141/94/53
f 141/94/54 152/84/54 153/85/54 142/95/54
f 142/95/55 153/85/55 154/86/55 143/96/55
f 143/96/56 154/86/56 155/87/56 144/97/56
f 144/97/57 155/87/57 156/88/57 145/98/57
f 145/98/58 156/88/58 157/89/58 146/99/58
f 146/99/59 157/89/59 158/82/59 147/81/59
f 12/57/60 13/56/60 137/90/60 126/100/60
f 126/100/61 137/90/61 138/91/61 127/101/61
f 127/101/62 138/91/62 139/92/62 128/102/62
f 130/103/63 141/94/63 142/95/63 131/104/63
f 131/104/64 142/95/64 143/96/64 132/105/64
f 132/105/65 143/96/65 144/97/65 133/106/65
f 133/106/66 144/97/66 145/98/66 134/107/66
f 134/107/67 145/98/67 146/99/67 135/108/67
f 135/108/68 146/99/68 147/81/68 136/80/68
f 11/58/69 12/57/69 126/100/69 115/109/69
f 115/109/70 126/100/70 127/101/70 116/110/70
f 116/110/71 127/101/71 128/102/71 117/111/71
f 119/112/72 130/103/72 131/104/72 120/113/72
f 120/113/73 131/104/73 132/105/73 121/114/73
f 121/114/74 132/105/74 133/106/74 122/115/74
f 122/115/75 133/106/75 134/107/75 123/116/75
f 123/116/76 134/107/76 135/108/76 124/117/76
f 124/117/77 135/108/77 136/80/77 125/79/77
f 10/59/78 11/58/78 115/109/78 104/118/78
f 104/118/79 115/109/79 116/110/79 105/119/79
f 105/119/80 116/110/80 117/111/80 106/120/80
f 106/120/81 117/111/81 118/121/81 107/122/81
f 111/123/82 122/115/82 123/116/82 112/124/82
f 112/124/83 123/116/83 124/117/83 113/125/83
f 113/125/84 124/117/84 125/79/84 114/78/84
f 9/60/85 10/59/85 104/118/85 93/126/85
f 93/126/86 104/118/86 105/119/86 94/127/86
f 94/127/87 105/119/87 106/120/87 95/128/87
f 95/128/88 106/120/88 107/122/88 96/129/88
f 100/130/89 111/123/89 112/124/89 101/131/89
f 101/131/90 112/124/90 113/125/90 102/132/90
f 102/132/91 113/125/91 114/78/91 103/77/91
f 8/61/92 9/60/92 93/126/92 82/133/92
f 82/133/93 93/126/93 94/127/93 83/134/93
f 83/134/94 94/127/94 95/128/94 84/135/94
f 84/135/95 95/128/95 96/129/95 85/136/95
f 88/137/96 99/138/96 100/130/96 89/139/96
f 89/139/97 100/130/97 101/131/97 90/140/97
f 90/140/98 101/131/98 102/132/98 91/141/98
f 91/141/99 102/132/99 103/77/99 92/76/99
f 7/62/100 8/61/100 82/133/100 71/142/100
f 71/142/101 82/133/101 83/134/101 72/143/101
f 72/143/102 83/134/102 84/135/102 73/144/102
f 73/144/103 84/135/103 85/136/103 74/145/103
f 74/145/104 85/136/104 86/146/104 75/147/104
f 75/147/105 86/146/105 87/148/105 76/149/105
f 76/149/106 87/148/106 88/137/106 77/150/106
f 77/150/107 88/137/107 89/139/107 78/151/107
f 78/151/108 89/139/108 90/140/108 79/152/108
f 79/152/109 90/140/109 91/141/109 80/153/109
f 80/153/110 91/141/110 92/76/110 81/75/110
f 6/63/111 7/62/111 71/142/111 60/154/111
f 60/154/112 71/142/112 72/143/112 61/155/112
f 61/155/113 72/143/113 73/144/113 62/156/113
f 62/156/114 73/144/114 74/145/114 63/157/114
f 63/157/115 74/145/115 75/147/115 64/158/115
f 64/158/116 75/147/116 76/149/116 65/159/116
f 65/159/117 76/149/117 77/150/117 66/160/117
f 66/160/118 77/150/118 78/151/118 67/161/118
f 67/161/119 78/151/119 79/152/119 68/162/119
f 68/162/120 79/152/120 80/153/120 69/163/120
f 69/163/121 80/153/121 81/75/121 70/74/121
f 5/14/122 6/63/122 60/154/122 49/15/122
f 49/15/123 60/154/123 61/155/123 50/17/123
f 50/17/124 61/155/124 62/156/124 51/19/124
f 51/19/125 62/156/125 63/157/125 52/21/125
f 52/21/126 63/157/126 64/158/126 53/23/126
f 53/23/127 64/158/127 65/159/127 54/25/127
f 54/25/128 65/159/128 66/160/128 55/27/128
f 55/27/129 66/160/129 67/161/129 56/29/129
f 56/29/130 67/161/130 68/162/130 57/31/130
f 57/31/131 68/162/131 69/163/131 58/33/131
f 58/33/132 69/163/132 70/74/132 59/2/132
usemtl Mountain
f 128/102/133 139/92/133 140/93/133 129/164/133
f 129/164/134 140/93/134 141/94/134 130/103/134
f 117/111/135 128/102/135 129/164/135 118/121/135
f 118/121/136 129/164/136 130/103/136 119/112/136
f 107/122/137 118/121/137 119/112/137 108/165/137
f 108/165/138 119/112/138 120/113/138 109/166/138
f 109/166/139 120/113/139 121/114/139 110/167/139
f 110/167/140 121/114/140 122/115/140 111/123/140
f 96/129/141 107/122/141 108/165/141 97/168/141
f 97/168/142 108/165/142 109/166/142 98/169/142
f 98/169/143 109/166/143 110/167/143 99/138/143
f 99/138/144 110/167/144 111/123/144 100/130/144
f 85/136/145 96/129/145 97/168/145 86/146/145
f 86/146/146 97/168/146 98/169/146 87/148/146
f 87/148/147 98/169/147 99/138/147 88/137/147
