# Blender MTL File: 'None'
# Material Count: 3

newmtl Material.011
Ns 225.000000
Ka 1.000000 1.000000 1.000000
Kd 0.116017 0.311102 0.065910
Ks 0.500000 0.500000 0.500000
Ke 0.000000 0.000000 0.000000
Ni 1.450000
d 1.000000
illum 2

newmtl Material.012
Ns 225.000000
Ka 1.000000 1.000000 1.000000
Kd 0.786757 0.800000 0.649023
Ks 0.500000 0.500000 0.500000
Ke 0.000000 0.000000 0.000000
Ni 1.450000
d 1.000000
illum 2

newmtl Material.013
Ns 225.000000
Ka 1.000000 1.000000 1.000000
Kd 0.800000 0.057106 0.047691
Ks 0.500000 0.500000 0.500000
Ke 0.000000 0.000000 0.000000
Ni 1.450000
d 1.000000
illum 2
