# Blender v2.90.1 OBJ File: ''
# www.blender.org
mtllib hopital.mtl
o Cube.001
v -0.245508 1.000000 -0.754493
v 0.000000 -1.000000 -1.000000
v -0.245508 1.000000 2.754492
v 0.000000 -1.000000 3.000000
v -1.754492 1.000000 -0.754493
v -2.000000 -1.000000 -1.000000
v -1.754492 1.000000 2.754492
v -2.000000 -1.000000 3.000000
v 0.000000 1.000000 3.000000
v -2.000000 1.000000 3.000000
v 0.000000 1.000000 -1.000000
v -2.000000 1.000000 -1.000000
v -0.245508 0.800000 2.754492
v -1.754492 0.800000 2.754492
v -0.245508 0.800000 -0.754493
v -1.754492 0.800000 -0.754493
v 0.000000 0.687046 -1.000000
v -2.000000 0.687047 3.000000
v 0.000000 0.687047 3.000000
v -2.000000 0.687046 -1.000000
v 0.000000 0.247918 -1.000000
v 0.000000 0.247919 3.000000
v -2.000000 0.247918 -1.000000
v -2.000000 0.247919 3.000000
v 0.000000 0.107066 -1.000000
v 0.000000 0.107066 3.000000
v -2.000000 0.107066 -1.000000
v -2.000000 0.107066 3.000000
v 0.000000 -0.299766 -1.000000
v 0.000000 -0.299765 3.000000
v -2.000000 -0.299766 -1.000000
v -2.000000 -0.299765 3.000000
v 0.000000 -0.435092 -1.000000
v 0.000000 -0.435091 3.000000
v -2.000000 -0.435092 -1.000000
v -2.000000 -0.435091 3.000000
v 0.000000 -0.858773 -1.000000
v 0.000000 -0.858773 3.000000
v -2.000000 -0.858773 -1.000000
v -2.000000 -0.858773 3.000000
v -1.634921 -1.000000 -1.000000
v -1.634921 1.000000 3.000000
v -1.634921 -1.000000 3.000000
v -1.634921 1.000000 -1.000000
v -1.479043 1.000000 2.754492
v -1.479043 1.000000 -0.754493
v -1.279043 0.800000 2.754492
v -1.279043 0.800000 -0.754493
v -1.634921 0.767046 -1.000000
v -1.634921 0.767047 3.000000
v -1.634921 0.327919 3.000000
v -1.634921 0.327918 -1.000000
v -1.634921 0.187066 -1.000000
v -1.634921 0.187066 3.000000
v -1.634921 -0.219765 3.000000
v -1.634921 -0.219766 -1.000000
v -1.634921 -0.355092 -1.000000
v -1.634921 -0.355091 3.000000
v -1.634921 -0.778773 3.000000
v -1.634921 -0.778773 -1.000000
v -1.222222 -1.000000 3.000000
v -1.222222 1.000000 -1.000000
v -1.167665 1.000000 -0.754493
v -1.167665 0.800000 -0.754493
v -1.222222 0.767046 -1.000000
v -1.222222 0.327918 -1.000000
v -1.222222 0.187066 -1.000000
v -1.222222 -0.219766 -1.000000
v -1.222222 -0.355092 -1.000000
v -1.222222 -0.778773 -1.000000
v -1.222222 -1.000000 -1.000000
v -1.222222 1.000000 3.000000
v -1.167665 1.000000 2.754492
v -1.167665 0.800000 2.754492
v -1.222222 0.767047 3.000000
v -1.222222 0.327919 3.000000
v -1.222222 0.187066 3.000000
v -1.222222 -0.219765 3.000000
v -1.222222 -0.355091 3.000000
v -1.222222 -0.778773 3.000000
v -0.373016 -1.000000 3.000000
v -0.373016 1.000000 -1.000000
v -0.526945 1.000000 -0.754493
v -0.726945 0.800000 -0.754493
v -0.373016 0.767046 -1.000000
v -0.373016 0.327918 -1.000000
v -0.373016 0.187066 -1.000000
v -0.373016 -0.219766 -1.000000
v -0.373016 -0.355092 -1.000000
v -0.373016 -0.778773 -1.000000
v -0.373016 -1.000000 -1.000000
v -0.373016 1.000000 3.000000
v -0.526945 1.000000 2.754492
v -0.726945 0.800000 2.754492
v -0.373016 0.767047 3.000000
v -0.373016 0.327919 3.000000
v -0.373016 0.187066 3.000000
v -0.373016 -0.219765 3.000000
v -0.373016 -0.355091 3.000000
v -0.373016 -0.778773 3.000000
v -0.781596 -1.000000 -1.000000
v -0.781596 1.000000 3.000000
v -0.835216 1.000000 2.754492
v -0.835216 0.800000 2.754492
v -0.781596 0.767047 3.000000
v -0.781596 0.327919 3.000000
v -0.781596 0.187066 3.000000
v -0.781596 -0.219765 3.000000
v -0.781596 -0.355091 3.000000
v -0.781596 -0.778773 3.000000
v -0.781596 -1.000000 3.000000
v -0.781596 1.000000 -1.000000
v -0.835216 1.000000 -0.754493
v -0.835216 0.800000 -0.754493
v -0.781596 0.767046 -1.000000
v -0.781596 0.327918 -1.000000
v -0.781596 0.187066 -1.000000
v -0.781596 -0.219766 -1.000000
v -0.781596 -0.355092 -1.000000
v -0.781596 -0.778773 -1.000000
v -2.000000 -1.000000 2.715415
v 0.000000 1.000000 2.715415
v -2.000000 1.000000 2.715415
v 0.000000 -1.000000 2.715415
v -0.245508 1.000000 2.504841
v -1.754492 1.000000 2.504841
v -0.245508 0.800000 2.504841
v -1.754492 0.800000 2.504841
v 0.000000 0.767047 2.615415
v -2.000000 0.767047 2.615415
v -2.000000 0.327919 2.615415
v 0.000000 0.327919 2.615415
v 0.000000 0.187066 2.615415
v -2.000000 0.187066 2.615415
v -2.000000 -0.219765 2.615415
v 0.000000 -0.219765 2.615415
v 0.000000 -0.355092 2.615415
v -2.000000 -0.355091 2.615415
v -2.000000 -0.778773 2.615415
v 0.000000 -0.778773 2.615415
v -1.279043 0.800000 2.504841
v -1.634921 -1.000000 2.715415
v -1.222222 -1.000000 2.715415
v -0.726945 0.800000 2.504841
v -0.373016 -1.000000 2.715415
v -0.781596 -1.000000 2.715415
v -2.000000 1.000000 2.343873
v 0.000000 -1.000000 2.343874
v -1.754492 1.000000 2.178908
v -1.754492 0.800000 2.178908
v -2.000000 0.767047 2.243873
v -2.000000 0.327919 2.243874
v -2.000000 0.187066 2.243874
v -2.000000 -0.219765 2.243874
v -2.000000 -0.355092 2.243874
v -2.000000 -0.778773 2.243874
v -2.000000 -1.000000 2.343874
v 0.000000 1.000000 2.343873
v -0.245508 1.000000 2.178908
v -0.245508 0.800000 2.178908
v 0.000000 0.767047 2.243873
v 0.000000 0.327919 2.243874
v 0.000000 0.187066 2.243874
v 0.000000 -0.219765 2.243874
v 0.000000 -0.355092 2.243874
v 0.000000 -0.778773 2.243874
v -1.634921 -1.000000 2.343874
v -1.222222 -1.000000 2.343874
v -0.373016 -1.000000 2.343874
v -0.781596 -1.000000 2.343874
v -2.000000 1.000000 2.115165
v 0.000000 -1.000000 2.115165
v -1.754492 1.000000 1.978274
v -1.754492 0.800000 1.778274
v -2.000000 0.767047 2.015165
v -2.000000 0.327919 2.015165
v -2.000000 0.187066 2.015165
v -2.000000 -0.219765 2.015165
v -2.000000 -0.355092 2.015165
v -2.000000 -0.778773 2.015166
v -2.000000 -1.000000 2.115165
v 0.000000 1.000000 2.115165
v -0.245508 1.000000 1.978274
v -0.245508 0.800000 1.778274
v 0.000000 0.767047 2.015165
v 0.000000 0.327919 2.015165
v 0.000000 0.187066 2.015165
v 0.000000 -0.219765 2.015165
v 0.000000 -0.355092 2.015165
v 0.000000 -0.778773 2.015166
v -1.279043 0.800000 1.878274
v -1.634921 -1.000000 2.115165
v -1.222222 -1.000000 2.115165
v -0.726945 0.800000 1.878274
v -0.373016 -1.000000 2.115165
v -0.781596 -1.000000 2.115165
v -2.000000 1.000000 1.759372
v 0.000000 -1.000000 1.759372
v -1.754492 1.000000 1.666156
v -1.754492 0.800000 1.666156
v -2.000000 0.767047 1.659372
v -2.000000 0.327919 1.659372
v -2.000000 0.187066 1.659372
v -2.000000 -0.219765 1.659372
v -2.000000 -0.355092 1.659372
v -2.000000 -0.778773 1.659372
v -2.000000 -1.000000 1.759372
v 0.000000 1.000000 1.759372
v -0.245508 1.000000 1.666156
v -0.245508 0.800000 1.666156
v 0.000000 0.767047 1.659372
v 0.000000 0.327919 1.659372
v 0.000000 0.187066 1.659372
v 0.000000 -0.219765 1.659372
v 0.000000 -0.355092 1.659372
v 0.000000 -0.778773 1.659372
v -1.279043 0.800000 1.666156
v -1.634921 -1.000000 1.759372
v -1.222222 -1.000000 1.759372
v -0.726945 0.800000 1.666156
v -0.373016 -1.000000 1.759372
v -0.781596 -1.000000 1.759372
v -2.000000 1.000000 1.546506
v 0.000000 -1.000000 1.546507
v -1.754492 1.000000 1.479420
v -1.754492 0.800000 1.479420
v -2.000000 0.767047 1.446506
v -2.000000 0.327919 1.446506
v -2.000000 0.187066 1.446506
v -2.000000 -0.219765 1.446506
v -2.000000 -0.355092 1.446506
v -2.000000 -0.778773 1.446507
v -2.000000 -1.000000 1.546507
v 0.000000 1.000000 1.546506
v -0.245508 1.000000 1.479420
v -0.245508 0.800000 1.479420
v 0.000000 0.767047 1.446506
v 0.000000 0.327919 1.446506
v 0.000000 0.187066 1.446506
v 0.000000 -0.219766 1.446506
v 0.000000 -0.355092 1.446506
v 0.000000 -0.778773 1.446507
v -0.726945 1.100000 1.878274
v -1.634921 -1.000000 1.546507
v -1.222222 -1.000000 1.546507
v -1.279043 1.000000 1.878274
v -0.373016 -1.000000 1.546507
v -0.781596 -1.000000 1.546507
v -2.000000 1.000000 1.190628
v 0.000000 -1.000000 1.190628
v -1.754492 1.000000 1.167228
v -1.754492 0.800000 0.967228
v -2.000000 0.767047 1.090628
v -2.000000 0.327918 1.090628
v -2.000000 0.187066 1.090628
v -2.000000 -0.219766 1.090628
v -2.000000 -0.355092 1.090628
v -2.000000 -0.778773 1.090628
v -2.000000 -1.000000 1.190628
v 0.000000 1.000000 1.190628
v -0.245508 1.000000 1.167228
v -0.245508 0.800000 0.967228
v 0.000000 0.767047 1.090628
v 0.000000 0.327918 1.090628
v 0.000000 0.187066 1.090628
v 0.000000 -0.219766 1.090628
v 0.000000 -0.355092 1.090628
v 0.000000 -0.778773 1.090628
v -1.279043 0.800000 1.067228
v -1.634921 -1.000000 1.190628
v -1.222222 -1.000000 1.190628
v -0.726945 0.800000 1.067228
v -0.373016 -1.000000 1.190628
v -0.781596 -1.000000 1.190628
v -2.000000 1.000000 0.993629
v 0.000000 -1.000000 0.993629
v -1.754492 1.000000 0.994411
v -1.754492 0.800000 0.994411
v -2.000000 0.767047 0.893629
v -2.000000 0.327918 0.893629
v -2.000000 0.187066 0.893629
v -2.000000 -0.219766 0.893629
v -2.000000 -0.355092 0.893629
v -2.000000 -0.778773 0.893629
v -2.000000 -1.000000 0.993629
v 0.000000 1.000000 0.993629
v -0.245508 1.000000 0.994411
v -0.245508 0.800000 0.994411
v 0.000000 0.767047 0.893629
v 0.000000 0.327918 0.893629
v 0.000000 0.187066 0.893629
v 0.000000 -0.219766 0.893629
v 0.000000 -0.355092 0.893629
v 0.000000 -0.778773 0.893629
v -0.726945 1.100000 2.504841
v -1.634921 -1.000000 0.993629
v -1.222222 -1.000000 0.993629
v -1.279043 1.000000 2.504841
v -0.373016 -1.000000 0.993629
v -0.781596 -1.000000 0.993629
v -2.000000 1.000000 0.621801
v 0.000000 -1.000000 0.621802
v -1.754492 1.000000 0.668227
v -1.754492 0.800000 0.668227
v -2.000000 0.767047 0.521801
v -2.000000 0.327918 0.521801
v -2.000000 0.187066 0.521801
v -2.000000 -0.219766 0.521802
v -2.000000 -0.355092 0.521802
v -2.000000 -0.778773 0.521802
v -2.000000 -1.000000 0.621802
v 0.000000 1.000000 0.621801
v -0.245508 1.000000 0.668227
v -0.245508 0.800000 0.668227
v 0.000000 0.767047 0.521801
v 0.000000 0.327918 0.521801
v 0.000000 0.187066 0.521801
v 0.000000 -0.219766 0.521802
v 0.000000 -0.355092 0.521802
v 0.000000 -0.778773 0.521802
v -1.279043 0.800000 0.668227
v -1.634921 -1.000000 0.621802
v -1.222222 -1.000000 0.621802
v -0.726945 0.800000 0.668227
v -0.373016 -1.000000 0.621802
v -0.781596 -1.000000 0.621802
v -2.000000 1.000000 0.415101
v 0.000000 -1.000000 0.415101
v -1.754492 1.000000 0.486900
v -1.754492 0.800000 0.486900
v -2.000000 0.767047 0.315101
v -2.000000 0.327918 0.315101
v -2.000000 0.187066 0.315101
v -2.000000 -0.219766 0.315101
v -2.000000 -0.355092 0.315101
v -2.000000 -0.778773 0.315101
v -2.000000 -1.000000 0.415101
v 0.000000 1.000000 0.415101
v -0.245508 1.000000 0.486900
v -0.245508 0.800000 0.486900
v 0.000000 0.767047 0.315101
v 0.000000 0.327918 0.315101
v 0.000000 0.187066 0.315101
v 0.000000 -0.219766 0.315101
v 0.000000 -0.355092 0.315101
v 0.000000 -0.778773 0.315101
v -1.279043 0.800000 0.486900
v -1.634921 -1.000000 0.415101
v -1.222222 -1.000000 0.415101
v -0.726945 0.800000 0.486900
v -0.373016 -1.000000 0.415101
v -0.781596 -1.000000 0.415101
v -2.000000 1.000000 0.057351
v 0.000000 -1.000000 0.057351
v -1.754492 1.000000 0.173065
v -1.754492 0.800000 0.143065
v -2.000000 0.767047 -0.042649
v -2.000000 0.327918 -0.042649
v -2.000000 0.187066 -0.042649
v -2.000000 -0.219766 -0.042649
v -2.000000 -0.355092 -0.042649
v -2.000000 -0.778773 -0.042649
v -2.000000 -1.000000 0.057351
v 0.000000 1.000000 0.057351
v -0.245508 1.000000 0.173065
v -0.245508 0.800000 0.143065
v 0.000000 0.767047 -0.042649
v 0.000000 0.327918 -0.042649
v 0.000000 0.187066 -0.042649
v 0.000000 -0.219766 -0.042649
v 0.000000 -0.355092 -0.042649
v 0.000000 -0.778773 -0.042649
v -1.279043 0.800000 0.143065
v -1.634921 -1.000000 0.057351
v -1.222222 -1.000000 0.057351
v -0.726945 0.800000 0.143065
v -0.373016 -1.000000 0.057351
v -0.781596 -1.000000 0.057351
v -2.000000 1.000000 -0.147807
v 0.000000 -1.000000 -0.147806
v -1.754492 1.000000 -0.006909
v -1.754492 0.800000 0.043091
v -2.000000 0.767047 -0.247807
v -2.000000 0.327918 -0.247807
v -2.000000 0.187066 -0.247807
v -2.000000 -0.219766 -0.247807
v -2.000000 -0.355092 -0.247807
v -2.000000 -0.778773 -0.247806
v -2.000000 -1.000000 -0.147806
v 0.000000 1.000000 -0.147807
v -0.245508 1.000000 -0.006909
v -0.245508 0.800000 0.043091
v 0.000000 0.767047 -0.247807
v 0.000000 0.327918 -0.247807
v 0.000000 0.187066 -0.247807
v 0.000000 -0.219766 -0.247807
v 0.000000 -0.355092 -0.247807
v 0.000000 -0.778773 -0.247807
v -1.279043 0.800000 0.043091
v -1.634921 -1.000000 -0.147806
v -1.222222 -1.000000 -0.147806
v -0.726945 0.800000 0.043091
v -0.373016 -1.000000 -0.147806
v -0.781596 -1.000000 -0.147806
v -2.000000 1.000000 -0.526559
v 0.000000 -1.000000 -0.526559
v -1.754492 1.000000 -0.339168
v -1.754492 0.800000 -0.339168
v -2.000000 0.767047 -0.626559
v -2.000000 0.327918 -0.626559
v -2.000000 0.187066 -0.626559
v -2.000000 -0.219766 -0.626559
v -2.000000 -0.355092 -0.626559
v -2.000000 -0.778773 -0.626559
v -2.000000 -1.000000 -0.526559
v 0.000000 1.000000 -0.526559
v -0.245508 1.000000 -0.339168
v -0.245508 0.800000 -0.339168
v 0.000000 0.767047 -0.626559
v 0.000000 0.327918 -0.626559
v 0.000000 0.187066 -0.626559
v 0.000000 -0.219766 -0.626559
v 0.000000 -0.355092 -0.626559
v 0.000000 -0.778773 -0.626559
v -1.279043 0.800000 -0.339168
v -1.634921 -1.000000 -0.526559
v -1.222222 -1.000000 -0.526559
v -0.726945 0.800000 -0.339168
v -0.373016 -1.000000 -0.526559
v -0.781596 -1.000000 -0.526559
v -0.100000 0.767047 2.243873
v -0.100000 0.767047 2.615415
v -0.100000 0.327919 2.243874
v -0.100000 0.327919 2.615415
v -0.100000 -0.355092 2.243874
v -0.100000 -0.355092 2.615415
v -0.100000 -0.778773 2.243874
v -0.100000 -0.778773 2.615415
v -0.100000 0.767047 1.659372
v -0.100000 0.767047 2.015165
v -0.100000 0.327919 1.659372
v -0.100000 0.327919 2.015165
v -0.100000 -0.355092 1.659372
v -0.100000 -0.355092 2.015165
v -0.100000 -0.778773 1.659372
v -0.100000 -0.778773 2.015166
v -0.100000 0.767047 1.090628
v -0.100000 0.767047 1.446506
v -0.100000 0.327918 1.090628
v -0.100000 0.327919 1.446506
v -0.100000 -0.355092 1.090628
v -0.100000 -0.355092 1.446506
v -0.100000 -0.778773 1.090628
v -0.100000 -0.778773 1.446507
v -0.100000 0.767047 0.521801
v -0.100000 0.767047 0.893629
v -0.100000 0.327918 0.521801
v -0.100000 0.327918 0.893629
v -0.100000 -0.355092 0.521802
v -0.100000 -0.355092 0.893629
v -0.100000 -0.778773 0.521802
v -0.100000 -0.778773 0.893629
v -0.100000 0.767047 -0.042649
v -0.100000 0.767047 0.315101
v -0.100000 0.327918 -0.042649
v -0.100000 0.327918 0.315101
v -0.100000 -0.355092 -0.042649
v -0.100000 -0.355092 0.315101
v -0.100000 -0.778773 -0.042649
v -0.100000 -0.778773 0.315101
v -0.100000 0.767047 -0.626559
v -0.100000 0.767047 -0.247807
v -0.100000 0.327918 -0.626559
v -0.100000 0.327918 -0.247807
v -0.100000 -0.355092 -0.626559
v -0.100000 -0.355092 -0.247807
v -0.100000 -0.778773 -0.626559
v -0.100000 -0.778773 -0.247807
v -1.900000 -0.355091 2.615415
v -1.900000 -0.778773 2.615415
v -1.900000 0.767047 2.615415
v -1.900000 0.327919 2.615415
v -1.900000 0.767047 2.243873
v -1.900000 0.327919 2.243874
v -1.900000 -0.355092 2.243874
v -1.900000 -0.778773 2.243874
v -1.900000 -0.355092 2.015165
v -1.900000 -0.778773 2.015166
v -1.900000 0.767047 2.015165
v -1.900000 0.327919 2.015165
v -1.900000 0.767047 1.659372
v -1.900000 0.327919 1.659372
v -1.900000 -0.355092 1.659372
v -1.900000 -0.778773 1.659372
v -1.900000 -0.355092 1.446506
v -1.900000 -0.778773 1.446507
v -1.900000 0.767047 1.446506
v -1.900000 0.327919 1.446506
v -1.900000 0.767047 1.090628
v -1.900000 0.327918 1.090628
v -1.900000 -0.355092 1.090628
v -1.900000 -0.778773 1.090628
v -1.900000 -0.355092 0.893629
v -1.900000 -0.778773 0.893629
v -1.900000 0.767047 0.893629
v -1.900000 0.327918 0.893629
v -1.900000 0.767047 0.521801
v -1.900000 0.327918 0.521801
v -1.900000 -0.355092 0.521802
v -1.900000 -0.778773 0.521802
v -1.900000 -0.355092 0.315101
v -1.900000 -0.778773 0.315101
v -1.900000 0.767047 0.315101
v -1.900000 0.327918 0.315101
v -1.900000 0.767047 -0.042649
v -1.900000 0.327918 -0.042649
v -1.900000 -0.355092 -0.042649
v -1.900000 -0.778773 -0.042649
v -1.900000 -0.355092 -0.247807
v -1.900000 -0.778773 -0.247806
v -1.900000 0.767047 -0.247807
v -1.900000 0.327918 -0.247807
v -1.900000 0.767047 -0.626559
v -1.900000 0.327918 -0.626559
v -1.900000 -0.355092 -0.626559
v -1.900000 -0.778773 -0.626559
v -1.222222 0.767047 2.900000
v -1.634921 0.767047 2.900000
v -1.222222 0.327919 2.900000
v -1.634921 0.327919 2.900000
v -1.222222 -0.355091 2.900000
v -1.634921 -0.355091 2.900000
v -1.222222 -0.778773 2.900000
v -1.634921 -0.778773 2.900000
v -0.373016 -0.355091 2.900000
v -0.373016 -0.778773 2.900000
v -0.373016 0.767047 2.900000
v -0.373016 0.327919 2.900000
v -0.781596 0.767047 2.900000
v -0.781596 0.327919 2.900000
v -0.781596 -0.355091 2.900000
v -0.781596 -0.778773 2.900000
v -1.634921 -0.355092 -0.900000
v -1.634921 -0.778773 -0.900000
v -1.634921 0.767047 -0.900000
v -1.634921 0.327918 -0.900000
v -1.222222 0.767047 -0.900000
v -1.222222 0.327918 -0.900000
v -1.222222 -0.355092 -0.900000
v -1.222222 -0.778773 -0.900000
v -0.781596 0.767047 -0.900000
v -0.373016 0.767047 -0.900000
v -0.781596 0.327918 -0.900000
v -0.373016 0.327918 -0.900000
v -0.781596 -0.355092 -0.900000
v -0.373016 -0.355092 -0.900000
v -0.781596 -0.778773 -0.900000
v -0.373016 -0.778773 -0.900000
v -1.279043 1.000000 1.666156
v -0.726945 1.100000 1.666156
v -1.279043 1.000000 1.067228
v -0.726945 1.100000 1.067227
v -1.173263 0.800000 0.043091
v -1.173263 0.800000 0.143065
v -1.173263 0.800000 -0.339168
v -1.173263 0.800000 0.486900
v -0.840364 0.800000 0.043091
v -0.840364 0.800000 0.143065
v -0.840364 0.800000 -0.339168
v -0.840364 0.800000 0.486900
v -0.987756 0.801283 -0.500265
v -1.095056 0.801283 -0.489697
v -1.198232 0.801283 -0.458398
v -1.293320 0.801283 -0.407573
v -1.376665 0.801283 -0.339173
v -1.445065 0.801283 -0.255828
v -1.495890 0.801283 -0.160741
v -1.527188 0.801283 -0.057564
v -1.537756 0.801283 0.049735
v -1.527188 0.801283 0.157035
v -1.495890 0.801283 0.260211
v -1.445065 0.801283 0.355299
v -1.376665 0.801283 0.438644
v -1.293320 0.801283 0.507044
v -1.198232 0.801283 0.557869
v -1.095056 0.801283 0.589167
v -0.987756 0.801283 0.599735
v -0.880457 0.801283 0.589167
v -0.777280 0.801283 0.557869
v -0.682193 0.801283 0.507044
v -0.598848 0.801283 0.438644
v -0.530448 0.801283 0.355299
v -0.479622 0.801283 0.260211
v -0.448325 0.801283 0.157035
v -0.437756 0.801283 0.049735
v -0.448325 0.801283 -0.057565
v -0.479623 0.801283 -0.160741
v -0.530448 0.801283 -0.255829
v -0.598848 0.801283 -0.339174
v -0.682193 0.801283 -0.407573
v -0.777281 0.801283 -0.458399
v -0.880458 0.801283 -0.489697
v -0.987756 0.801283 -0.610265
v -1.116516 0.801283 -0.597583
v -1.240327 0.801283 -0.560025
v -1.354433 0.801283 -0.499035
v -1.454447 0.801283 -0.416955
v -1.536526 0.801283 -0.316941
v -1.597517 0.801283 -0.202836
v -1.635075 0.801283 -0.079024
v -1.647757 0.801283 0.049735
v -1.635075 0.801283 0.178495
v -1.597517 0.801283 0.302306
v -1.536526 0.801283 0.416412
v -1.454447 0.801283 0.516426
v -1.354433 0.801283 0.598505
v -1.240327 0.801283 0.659496
v -1.116516 0.801283 0.697054
v -0.987756 0.801283 0.709735
v -0.858997 0.801283 0.697054
v -0.735185 0.801283 0.659496
v -0.621080 0.801283 0.598505
v -0.521066 0.801283 0.516426
v -0.438986 0.801283 0.416411
v -0.377996 0.801283 0.302306
v -0.340438 0.801283 0.178494
v -0.327756 0.801283 0.049735
v -0.340438 0.801283 -0.079025
v -0.377996 0.801283 -0.202836
v -0.438987 0.801283 -0.316942
v -0.521067 0.801283 -0.416956
v -0.621081 0.801283 -0.499035
v -0.735186 0.801283 -0.560026
v -0.858998 0.801283 -0.597583
v 0.600000 -0.219765 2.015165
v 0.600000 -0.355092 1.659372
v 0.600000 -0.355092 2.115165
v 0.600000 -0.355092 1.446506
v 0.600000 -0.219766 1.090628
v 0.600000 -0.355092 0.990628
v 0.600000 -0.355092 2.003631
v 0.000000 -0.355092 1.906018
v 0.600000 -0.355092 1.103386
v 0.000000 -0.355092 1.205840
v 0.483888 -0.219765 2.015165
v 0.483888 -0.355092 1.446506
v 0.483888 -0.355092 1.659372
v 0.483888 -0.219766 1.090628
v 0.483888 -0.355092 2.115165
v 0.483888 -0.355092 0.990628
v 0.483888 -0.355092 2.004093
v 0.483888 -0.355092 1.103861
v 0.600000 -1.000092 2.003631
v 0.600000 -1.000092 2.115165
v 0.600000 -1.000092 0.990628
v 0.600000 -1.000092 1.103386
v 0.483888 -1.000092 2.115165
v 0.483888 -1.000092 0.990628
v 0.483888 -1.000092 2.004093
v 0.483888 -1.000092 1.103861
v 0.483888 0.080235 2.015165
v 0.600000 0.080235 2.015165
v 0.600000 0.080234 1.090628
v 0.483888 0.080234 1.090628
v 0.600000 0.080235 1.658417
v 0.600000 0.080234 1.446256
v 0.600000 -0.189766 1.476429
v 0.600000 -0.189765 1.629075
v 0.600000 -0.096292 1.628739
v 0.600000 -0.066292 1.090628
v 0.600000 -0.096292 1.476340
v 0.600000 -0.066292 2.015165
v 0.600000 -0.355092 1.840052
v 0.600000 -0.096292 1.790052
v 0.600000 -0.189765 1.790052
v 0.600000 0.080235 1.840052
v 0.600000 -0.189766 1.311569
v 0.600000 -0.355092 1.261569
v 0.600000 0.080234 1.261569
v 0.600000 -0.096292 1.311569
v -1.222222 0.187066 2.900000
v -1.634921 0.187066 2.900000
v -1.222222 -0.219765 2.900000
v -1.634921 -0.219765 2.900000
v -0.373016 0.187066 2.900000
v -0.373016 -0.219765 2.900000
v -0.781596 0.187066 2.900000
v -0.781596 -0.219765 2.900000
v -1.900000 0.187066 2.615415
v -1.900000 -0.219765 2.615415
v -1.900000 0.187066 2.243874
v -1.900000 -0.219765 2.243874
v -1.900000 0.187066 2.015165
v -1.900000 -0.219765 2.015165
v -1.900000 0.187066 1.659372
v -1.900000 -0.219765 1.659372
v -1.900000 0.187066 1.446506
v -1.900000 -0.219765 1.446506
v -1.900000 0.187066 1.090628
v -1.900000 -0.219766 1.090628
v -1.900000 0.187066 0.893629
v -1.900000 -0.219766 0.893629
v -1.900000 0.187066 0.521801
v -1.900000 -0.219766 0.521802
v -1.900000 0.187066 0.315101
v -1.900000 -0.219766 0.315101
v -1.900000 0.187066 -0.042649
v -1.900000 -0.219766 -0.042649
v -1.900000 0.187066 -0.247807
v -1.900000 -0.219766 -0.247807
v -1.900000 0.187066 -0.626559
v -1.900000 -0.219766 -0.626559
v -1.634921 0.187066 -0.900000
v -1.634921 -0.219766 -0.900000
v -1.222222 0.187066 -0.900000
v -1.222222 -0.219766 -0.900000
v -0.781596 0.187066 -0.900000
v -0.373016 0.187066 -0.900000
v -0.781596 -0.219766 -0.900000
v -0.373016 -0.219766 -0.900000
v -0.100000 0.187066 2.243874
v -0.100000 0.187066 2.615415
v -0.100000 -0.219765 2.243874
v -0.100000 -0.219765 2.615415
v -0.100000 0.187066 1.659372
v -0.100000 0.187066 2.015165
v -0.100000 -0.219765 1.659372
v -0.100000 -0.219765 2.015165
v -0.100000 0.187066 1.090628
v -0.100000 0.187066 1.446506
v -0.100000 -0.219766 1.090628
v -0.100000 -0.219766 1.446506
v -0.100000 0.187066 0.521801
v -0.100000 0.187066 0.893629
v -0.100000 -0.219766 0.521802
v -0.100000 -0.219766 0.893629
v -0.100000 0.187066 -0.042649
v -0.100000 0.187066 0.315101
v -0.100000 -0.219766 -0.042649
v -0.100000 -0.219766 0.315101
v -0.100000 0.187066 -0.626559
v -0.100000 0.187066 -0.247807
v -0.100000 -0.219766 -0.626559
v -0.100000 -0.219766 -0.247807
v 0.600000 0.022176 1.628479
v 0.600000 0.052176 1.090628
v 0.600000 0.022176 1.476272
v 0.600000 0.052176 2.015165
v 0.600000 0.052176 1.840052
v 0.600000 0.052176 1.261569
v 0.600000 -0.296523 1.629310
v 0.600000 -0.296523 1.476490
v 0.600000 -0.326523 1.840052
v 0.600000 -0.326523 1.261569
v 0.000000 -0.219765 2.115165
v 0.000000 -0.355092 2.115165
v 0.483888 -0.219765 2.115165
v 0.600000 -0.219765 2.115165
v 0.600000 -0.355092 2.115165
v 0.483888 -0.355092 2.115165
v 0.483888 0.080235 2.115165
v 0.600000 0.080235 2.115165
v 0.600000 -0.066292 2.115165
v 0.600000 0.052176 2.115165
v 0.000000 -0.219766 0.990628
v 0.000000 -0.355092 0.990628
v 0.600000 -0.219766 0.990628
v 0.600000 -0.355092 0.990628
v 0.483888 -0.219766 0.990628
v 0.483888 -0.355092 0.990628
v 0.600000 0.080234 0.990628
v 0.483888 0.080234 0.990628
v 0.600000 -0.066292 0.990628
v 0.600000 0.052176 0.990628
v 0.000412 -0.997103 0.502487
v 0.198181 0.302897 0.304718
v 0.000412 -0.997103 -1.197513
v 0.198181 0.302897 -0.999745
v 2.000412 -0.997103 0.502487
v 1.802644 0.302897 0.304718
v 2.000412 -0.997103 -1.197513
v 1.802644 0.302897 -0.999745
v 0.000412 0.106993 0.502487
v 0.000412 0.106992 -1.197513
v 2.000412 0.106992 -1.197513
v 2.000412 0.106993 0.502487
v 0.000412 -0.300801 -1.197513
v 2.000412 -0.300801 -1.197513
v 2.000412 -0.300801 0.502487
v 0.000412 -0.300801 0.502487
v 0.000412 -0.437816 -1.197513
v 2.000412 -0.437816 -1.197513
v 2.000412 -0.437816 0.502487
v 0.000412 -0.437816 0.502487
v 0.000412 -0.857568 -1.197513
v 2.000412 -0.857568 -1.197513
v 2.000412 -0.857568 0.502487
v 0.000412 -0.857568 0.502487
v 1.200413 -0.997103 -1.197513
v 1.200413 0.302897 -0.999745
v 1.200413 -0.997103 0.502487
v 1.200413 0.302897 0.304718
v 1.200413 0.136993 0.502487
v 1.200413 0.136992 -1.197513
v 1.200413 -0.270801 -1.197513
v 1.200413 -0.270801 0.502487
v 1.200413 -0.407816 0.502487
v 1.200413 -0.407816 -1.197513
v 1.200413 -0.827568 -1.197513
v 1.200413 -0.827568 0.502487
v 0.800412 -0.997103 -1.197513
v 0.800412 0.302897 0.304718
v 0.800412 0.136993 0.502487
v 0.800412 -0.270801 0.502487
v 0.800412 -0.407816 0.502487
v 0.800412 -0.827568 0.502487
v 0.800412 0.302897 -0.999745
v 0.800412 -0.997103 0.502487
v 0.800412 0.136992 -1.197513
v 0.800412 -0.270801 -1.197513
v 0.800412 -0.407816 -1.197513
v 0.800412 -0.827568 -1.197513
v 1.431991 0.302897 -0.999745
v 1.431991 -0.997103 0.502487
v 1.431991 0.136992 -1.197513
v 1.431991 -0.270801 -1.197513
v 1.431991 -0.407816 -1.197513
v 1.431991 -0.827568 -1.197513
v 1.431991 -0.997103 -1.197513
v 1.431991 0.302897 0.304718
v 1.431991 0.136993 0.502487
v 1.431991 -0.270801 0.502487
v 1.431991 -0.407816 0.502487
v 1.431991 -0.827568 0.502487
v 1.816202 0.302897 -0.999745
v 1.816202 -0.997103 0.502487
v 1.816202 0.136992 -1.197513
v 1.816202 -0.270801 -1.197513
v 1.816202 -0.407816 -1.197513
v 1.816202 -0.827568 -1.197513
v 1.816202 -0.997103 -1.197513
v 1.816202 0.302897 0.304718
v 1.816202 0.136993 0.502487
v 1.816202 -0.270801 0.502487
v 1.816202 -0.407816 0.502487
v 1.816202 -0.827568 0.502487
v 0.587255 -0.997103 -1.197513
v 0.587255 0.302897 0.304718
v 0.587255 0.136993 0.502487
v 0.587255 -0.270801 0.502487
v 0.587255 -0.407816 0.502487
v 0.587255 -0.827568 0.502487
v 0.587255 0.302897 -0.999745
v 0.587255 -0.997103 0.502487
v 0.587255 0.136992 -1.197513
v 0.587255 -0.270801 -1.197513
v 0.587255 -0.407816 -1.197513
v 0.587255 -0.827568 -1.197513
v 0.199520 -0.997103 -1.197513
v 0.199520 0.302897 0.304718
v 0.199520 0.136993 0.502487
v 0.199520 -0.270801 0.502487
v 0.199520 -0.407816 0.502487
v 0.199520 -0.827568 0.502487
v 0.199520 0.302897 -0.999745
v 0.199520 -0.997103 0.502487
v 0.199520 0.136992 -1.197513
v 0.199520 -0.270801 -1.197513
v 0.199520 -0.407816 -1.197513
v 0.199520 -0.827568 -1.197513
v 1.200413 -0.407816 0.402487
v 1.200413 -0.827568 0.402487
v 1.200413 0.136993 0.402487
v 1.200413 -0.270801 0.402487
v 0.800412 0.136993 0.402487
v 0.800412 -0.270801 0.402487
v 0.800412 -0.407816 0.402487
v 0.800412 -0.827568 0.402487
v 1.816202 0.136993 0.402487
v 1.431991 0.136993 0.402487
v 1.816202 -0.270801 0.402487
v 1.431991 -0.270801 0.402487
v 1.816202 -0.407816 0.402487
v 1.431991 -0.407816 0.402487
v 1.816202 -0.827568 0.402487
v 1.431991 -0.827568 0.402487
v 0.587255 -0.407816 0.402487
v 0.587255 -0.827568 0.402487
v 0.587255 0.136993 0.402487
v 0.587255 -0.270801 0.402487
v 0.199520 0.136993 0.402487
v 0.199520 -0.270801 0.402487
v 0.199520 -0.407816 0.402487
v 0.199520 -0.827568 0.402487
v 0.800412 0.136992 -1.097513
v 1.200413 0.136992 -1.097513
v 0.800412 -0.270801 -1.097513
v 1.200413 -0.270801 -1.097513
v 0.800412 -0.407816 -1.097513
v 1.200413 -0.407816 -1.097513
v 0.800412 -0.827568 -1.097513
v 1.200413 -0.827568 -1.097513
v 1.431991 -0.407816 -1.097513
v 1.431991 -0.827568 -1.097513
v 1.431991 0.136992 -1.097513
v 1.431991 -0.270801 -1.097513
v 1.816202 0.136992 -1.097513
v 1.816202 -0.270801 -1.097513
v 1.816202 -0.407816 -1.097513
v 1.816202 -0.827568 -1.097513
v 0.199520 0.136992 -1.097513
v 0.587255 0.136992 -1.097513
v 0.199520 -0.270801 -1.097513
v 0.587255 -0.270801 -1.097513
v 0.199520 -0.407816 -1.097513
v 0.587255 -0.407816 -1.097513
v 0.199520 -0.827568 -1.097513
v 0.587255 -0.827568 -1.097513
v 0.000412 0.302897 0.502487
v 0.000412 0.302897 -1.197513
v 1.816202 0.302897 -1.197513
v 2.000412 0.302897 -1.197513
v 2.000412 0.302897 0.502487
v 0.199520 0.302897 0.502487
v 0.800412 0.302897 -1.197513
v 1.200413 0.302897 -1.197513
v 1.431991 0.302897 0.502487
v 1.200413 0.302897 0.502487
v 0.800412 0.302897 0.502487
v 0.587255 0.302897 -1.197513
v 1.431991 0.302897 -1.197513
v 1.816202 0.302897 0.502487
v 0.587255 0.302897 0.502487
v 0.199520 0.302897 -1.197513
v 0.198181 0.102897 0.304718
v 0.198181 0.102897 -0.999745
v 1.816202 0.102897 -0.999745
v 1.802644 0.102897 -0.999745
v 1.802644 0.102897 0.304718
v 0.199520 0.102897 0.304718
v 0.800412 0.102897 -0.999745
v 1.200413 0.102897 -0.999745
v 1.431991 0.102897 0.304718
v 1.200413 0.102897 0.304718
v 0.800412 0.102897 0.304718
v 0.587255 0.102897 -0.999745
v 1.431991 0.102897 -0.999745
v 1.816202 0.102897 0.304718
v 0.587255 0.102897 0.304718
v 0.199520 0.102897 -0.999745
vt 0.559880 0.166635
vt 0.440868 0.166635
vt 0.440868 0.166635
vt 0.559880 0.166635
vt 0.195614 0.672461
vt 0.195614 0.659157
vt 0.195614 0.659157
vt 0.195614 0.672461
vt 0.559880 0.219053
vt 0.440868 0.219053
vt 0.440868 0.219053
vt 0.559880 0.219053
vt 0.440868 0.186142
vt 0.559880 0.186142
vt 0.559880 0.186142
vt 0.440868 0.186142
vt 0.440868 0.135452
vt 0.440868 0.135452
vt 0.559880 0.135452
vt 0.559880 0.135452
vt 0.440868 0.073317
vt 0.467473 0.073317
vt 0.467473 0.092931
vt 0.440868 0.092931
vt 0.559880 0.062068
vt 0.559880 0.073317
vt 0.537078 0.073317
vt 0.537078 0.062068
vt 0.440868 0.041302
vt 0.467473 0.041302
vt 0.467473 0.062068
vt 0.440868 0.062068
vt 0.537078 0.041302
vt 0.559880 0.041302
vt 0.537078 0.092931
vt 0.559880 0.092931
vt 0.195614 0.636914
vt 0.195614 0.636914
vt 0.195614 0.636914
vt 0.195614 0.636914
vt 0.195614 0.643991
vt 0.195614 0.643962
vt 0.195614 0.647598
vt 0.212529 0.694698
vt 0.212529 0.694698
vt 0.212529 0.694698
vt 0.212529 0.694698
vt 0.195614 0.687756
vt 0.195614 0.687876
vt 0.195614 0.672461
vt 0.195614 0.644115
vt 0.195614 0.687727
vt 0.195614 0.683753
vt 0.212529 0.694698
vt 0.212529 0.694698
vt 0.212529 0.694698
vt 0.212529 0.694698
vt 0.195614 0.659157
vt 0.212529 0.636914
vt 0.212529 0.636914
vt 0.212529 0.636914
vt 0.212529 0.636914
vt 0.195614 0.694698
vt 0.195614 0.694698
vt 0.212529 0.659157
vt 0.212529 0.672461
vt 0.212529 0.636914
vt 0.212529 0.636914
vt 0.212529 0.636914
vt 0.212529 0.694698
vt 0.212529 0.694698
vt 0.212529 0.683753
vt 0.212529 0.672401
vt 0.212529 0.659141
vt 0.212529 0.647598
vt 0.212529 0.636914
vt 0.196724 0.672457
vt 0.200872 0.672442
vt 0.206797 0.683753
vt 0.197974 0.683753
vt 0.212529 0.694698
vt 0.209793 0.647598
vt 0.206929 0.647598
vt 0.196724 0.659156
vt 0.198002 0.647598
vt 0.212529 0.694698
vt 0.209732 0.683753
vt 0.211439 0.672405
vt 0.211439 0.659142
vt 0.212005 0.647598
vt 0.211994 0.683753
vt 0.206836 0.672421
vt 0.195614 0.694698
vt 0.195614 0.636914
vt 0.212529 0.636914
vt 0.000000 0.000000
vt 0.000000 0.000000
vt 0.000000 0.000000
vt 0.000000 0.000000
vt 0.000000 0.000000
vt 0.000000 0.000000
vt 0.000000 0.000000
vt 0.000000 0.000000
vt 0.000000 0.000000
vt 0.000000 0.000000
vt 0.000000 0.000000
vt 0.000000 0.000000
vt 0.000000 0.000000
vt 0.000000 0.000000
vt 0.000000 0.000000
vt 0.000000 0.000000
vt 0.000000 0.000000
vt 0.000000 0.000000
vt 0.000000 0.000000
vt 0.000000 0.000000
vt 0.000000 0.000000
vt 0.000000 0.000000
vt 0.000000 0.000000
vt 0.000000 0.000000
vt 0.000000 0.000000
vt 0.000000 0.000000
vt 0.000000 0.000000
vt 0.000000 0.000000
vt 0.000000 0.000000
vt 0.000000 0.000000
vt 0.000000 0.000000
vt 0.000000 0.000000
vt 0.000000 0.000000
vt 0.000000 0.000000
vt 0.000000 0.000000
vt 0.000000 0.000000
vt 0.000000 0.000000
vt 0.000000 0.000000
vt 0.000000 0.000000
vt 0.000000 0.000000
vt 0.000000 0.000000
vt 0.000000 0.000000
vt 0.000000 0.000000
vt 0.000000 0.000000
vt 0.000000 0.000000
vt 0.000000 0.000000
vt 0.000000 0.000000
vt 0.000000 0.000000
vt 0.000000 0.000000
vt 0.000000 0.000000
vt 0.000000 0.000000
vt 0.000000 0.000000
vt 0.000000 0.000000
vt 0.000000 0.000000
vt 0.000000 0.000000
vt 0.000000 0.000000
vt 0.000000 0.000000
vt 0.000000 0.000000
vt 0.000000 0.000000
vt 0.000000 0.000000
vt 0.000000 0.000000
vt 0.000000 0.000000
vt 0.000000 0.000000
vt 0.000000 0.000000
vt 0.206836 0.659146
vt 0.200872 0.659152
vt 0.195614 0.694698
vt 0.195614 0.694698
vt 0.212529 0.694698
vt 0.195614 0.694698
vt 0.212529 0.694698
vt 0.212529 0.636914
vt 0.212529 0.636914
vt 0.212529 0.636914
vt 0.212529 0.636914
vt 0.195614 0.636914
vt 0.212529 0.636914
vt 0.559880 0.015344
vt 0.594312 0.015344
vt 0.594312 0.015344
vt 0.559880 0.015344
vt 0.585881 0.454365
vt 0.625000 0.454365
vt 0.625000 0.500000
vt 0.585881 0.500000
vt 0.585881 0.720410
vt 0.625000 0.720410
vt 0.625000 0.750000
vt 0.585881 0.750000
vt 0.578373 0.982213
vt 0.625000 0.982213
vt 0.625000 1.000000
vt 0.578373 1.000000
vt 0.335881 0.732213
vt 0.375000 0.732213
vt 0.375000 0.750000
vt 0.335881 0.750000
vt 0.835881 0.703373
vt 0.875000 0.703373
vt 0.875000 0.750000
vt 0.835881 0.750000
vt 0.559880 0.234656
vt 0.594312 0.234656
vt 0.625000 0.250000
vt 0.579365 0.250000
vt 0.405688 0.219053
vt 0.405688 0.234656
vt 0.375000 0.250000
vt 0.375000 0.232213
vt 0.594312 0.041302
vt 0.625000 0.000000
vt 0.625000 0.029590
vt 0.440868 0.015344
vt 0.405688 0.015344
vt 0.375000 0.000000
vt 0.421627 0.000000
vt 0.405688 0.041302
vt 0.405688 0.015344
vt 0.405688 0.041302
vt 0.594312 0.219053
vt 0.594312 0.234656
vt 0.594312 0.219053
vt 0.440868 0.234656
vt 0.405688 0.234656
vt 0.440868 0.234656
vt 0.780990 0.703373
vt 0.780990 0.750000
vt 0.280990 0.732213
vt 0.280990 0.750000
vt 0.530990 0.720410
vt 0.530990 0.750000
vt 0.530990 0.454365
vt 0.530990 0.500000
vt 0.513383 0.454365
vt 0.513383 0.500000
vt 0.513383 0.720410
vt 0.513383 0.750000
vt 0.263383 0.732213
vt 0.263383 0.750000
vt 0.763383 0.703373
vt 0.763383 0.750000
vt 0.712529 0.703373
vt 0.712529 0.750000
vt 0.212529 0.732213
vt 0.212529 0.750000
vt 0.462529 0.720410
vt 0.462529 0.750000
vt 0.462529 0.454365
vt 0.462529 0.500000
vt 0.445614 0.454365
vt 0.445614 0.500000
vt 0.445614 0.720410
vt 0.445614 0.750000
vt 0.195614 0.732213
vt 0.195614 0.750000
vt 0.695614 0.703373
vt 0.695614 0.750000
vt 0.642653 0.703373
vt 0.642653 0.750000
vt 0.142653 0.732213
vt 0.142653 0.750000
vt 0.392653 0.720410
vt 0.392653 0.750000
vt 0.392653 0.454365
vt 0.392653 0.500000
vt 0.375000 0.454365
vt 0.375000 0.500000
vt 0.375000 0.720410
vt 0.375000 0.750000
vt 0.125000 0.732213
vt 0.125000 0.750000
vt 0.625000 0.703373
vt 0.625000 0.750000
vt 0.625000 0.500000
vt 0.642653 0.500000
vt 0.642653 0.545635
vt 0.625000 0.545635
vt 0.375000 0.402778
vt 0.392653 0.402778
vt 0.392653 0.454365
vt 0.445614 0.454365
vt 0.695614 0.500000
vt 0.695614 0.545635
vt 0.712529 0.500000
vt 0.712529 0.545635
vt 0.445614 0.402778
vt 0.462529 0.402778
vt 0.462529 0.347700
vt 0.462529 0.296627
vt 0.462529 0.296627
vt 0.462529 0.347700
vt 0.763383 0.500000
vt 0.763383 0.545635
vt 0.780990 0.500000
vt 0.780990 0.545635
vt 0.513383 0.402778
vt 0.530990 0.402778
vt 0.585881 0.347700
vt 0.530990 0.347700
vt 0.530990 0.347700
vt 0.585881 0.347700
vt 0.835881 0.500000
vt 0.835881 0.545635
vt 0.559880 0.234656
vt 0.579365 0.000000
vt 0.520958 0.234656
vt 0.527778 0.250000
vt 0.875000 0.500000
vt 0.875000 0.545635
vt 0.375000 0.982213
vt 0.420635 0.982213
vt 0.420635 1.000000
vt 0.375000 1.000000
vt 0.585881 0.402778
vt 0.625000 0.402778
vt 0.520958 0.015344
vt 0.520958 0.015344
vt 0.479402 0.015344
vt 0.479402 0.015344
vt 0.625000 0.347700
vt 0.479402 0.234656
vt 0.472700 0.250000
vt 0.513383 0.347700
vt 0.445614 0.347700
vt 0.392653 0.347700
vt 0.375000 0.347700
vt 0.642653 0.597222
vt 0.625000 0.597222
vt 0.642653 0.703373
vt 0.695614 0.703373
vt 0.712529 0.597222
vt 0.695614 0.597222
vt 0.763383 0.545635
vt 0.712529 0.545635
vt 0.780990 0.597222
vt 0.763383 0.597222
vt 0.642653 0.652300
vt 0.695614 0.652300
vt 0.695614 0.652300
vt 0.642653 0.652300
vt 0.520958 0.234656
vt 0.527778 0.000000
vt 0.875000 0.597222
vt 0.835881 0.597222
vt 0.472222 0.982213
vt 0.472222 1.000000
vt 0.375000 0.250000
vt 0.392653 0.250000
vt 0.392653 0.296627
vt 0.375000 0.296627
vt 0.445614 0.250000
vt 0.445614 0.296627
vt 0.462529 0.250000
vt 0.513383 0.250000
vt 0.513383 0.296627
vt 0.530990 0.250000
vt 0.530990 0.296627
vt 0.585881 0.250000
vt 0.585881 0.296627
vt 0.421627 0.250000
vt 0.625000 0.250000
vt 0.625000 0.296627
vt 0.440868 0.015344
vt 0.625000 0.652301
vt 0.835881 0.597222
vt 0.835881 0.545635
vt 0.712529 0.652300
vt 0.712529 0.652300
vt 0.712529 0.703373
vt 0.763383 0.652300
vt 0.780990 0.652300
vt 0.479402 0.234656
vt 0.472700 0.000000
vt 0.835881 0.652300
vt 0.875000 0.652300
vt 0.527300 0.982213
vt 0.527300 1.000000
vt 0.530990 0.296627
vt 0.513383 0.347700
vt 0.585881 0.296627
vt 0.472222 0.958992
vt 0.527300 0.958992
vt 0.578373 0.958992
vt 0.420635 0.958992
vt 0.375000 0.958992
vt 0.125000 0.708992
vt 0.142653 0.708992
vt 0.392653 0.517787
vt 0.375000 0.517787
vt 0.445614 0.517787
vt 0.335881 0.529590
vt 0.335881 0.553262
vt 0.335881 0.553262
vt 0.335881 0.529590
vt 0.195614 0.708992
vt 0.212529 0.708992
vt 0.462529 0.517787
vt 0.513383 0.517787
vt 0.263383 0.529590
vt 0.263383 0.553262
vt 0.263383 0.553262
vt 0.263383 0.529590
vt 0.263383 0.708992
vt 0.280990 0.708992
vt 0.530990 0.517787
vt 0.585881 0.517787
vt 0.280990 0.708992
vt 0.280990 0.732213
vt 0.594312 0.198682
vt 0.594312 0.198682
vt 0.405688 0.219053
vt 0.625000 0.232213
vt 0.405688 0.198682
vt 0.375000 0.208992
vt 0.335881 0.708992
vt 0.375000 0.708992
vt 0.625000 0.958992
vt 0.625000 0.517787
vt 0.578373 0.944698
vt 0.625000 0.944698
vt 0.335881 0.694698
vt 0.375000 0.694698
vt 0.405688 0.186142
vt 0.375000 0.194698
vt 0.594312 0.186142
vt 0.594312 0.186142
vt 0.280990 0.694698
vt 0.263383 0.694698
vt 0.142653 0.694698
vt 0.125000 0.694698
vt 0.375000 0.944698
vt 0.420635 0.944698
vt 0.472222 0.944698
vt 0.527300 0.944698
vt 0.392653 0.541008
vt 0.375000 0.541008
vt 0.530990 0.720410
vt 0.585881 0.720410
vt 0.462529 0.541008
vt 0.445614 0.541008
vt 0.462529 0.683916
vt 0.462529 0.661556
vt 0.462529 0.661556
vt 0.462529 0.683916
vt 0.530990 0.541008
vt 0.513383 0.541008
vt 0.445614 0.517787
vt 0.392653 0.517787
vt 0.405688 0.198682
vt 0.625000 0.208992
vt 0.625000 0.541008
vt 0.585881 0.541008
vt 0.472222 0.922461
vt 0.527300 0.922461
vt 0.578373 0.922461
vt 0.420635 0.922461
vt 0.375000 0.922461
vt 0.125000 0.672461
vt 0.142653 0.672461
vt 0.142653 0.672461
vt 0.142653 0.694698
vt 0.212529 0.636914
vt 0.212529 0.659157
vt 0.263383 0.672461
vt 0.280990 0.672461
vt 0.335881 0.659157
vt 0.280990 0.659157
vt 0.280990 0.659157
vt 0.335881 0.659157
vt 0.594312 0.166635
vt 0.594312 0.166635
vt 0.405688 0.166635
vt 0.375000 0.172461
vt 0.335881 0.672461
vt 0.375000 0.672461
vt 0.625000 0.922461
vt 0.392653 0.555302
vt 0.375000 0.555302
vt 0.445614 0.555302
vt 0.462529 0.555302
vt 0.513383 0.555302
vt 0.530990 0.555302
vt 0.585881 0.555302
vt 0.405688 0.186142
vt 0.625000 0.194698
vt 0.625000 0.555302
vt 0.578373 0.909157
vt 0.625000 0.909157
vt 0.375000 0.659157
vt 0.405688 0.154964
vt 0.375000 0.159157
vt 0.594312 0.154964
vt 0.594312 0.154964
vt 0.263383 0.659157
vt 0.142653 0.659157
vt 0.125000 0.659157
vt 0.375000 0.909157
vt 0.420635 0.909157
vt 0.472222 0.909157
vt 0.527300 0.909157
vt 0.392653 0.577539
vt 0.375000 0.577539
vt 0.585881 0.577539
vt 0.585881 0.577539
vt 0.585881 0.555302
vt 0.462529 0.577539
vt 0.445614 0.577539
vt 0.462529 0.555302
vt 0.462529 0.577539
vt 0.530990 0.577539
vt 0.513383 0.577539
vt 0.445614 0.648637
vt 0.392653 0.648637
vt 0.392653 0.648637
vt 0.445614 0.648637
vt 0.405688 0.166635
vt 0.625000 0.172461
vt 0.625000 0.577539
vt 0.472222 0.886914
vt 0.527300 0.886915
vt 0.578373 0.886914
vt 0.420635 0.886914
vt 0.375000 0.886914
vt 0.125000 0.636914
vt 0.142653 0.636914
vt 0.195614 0.566084
vt 0.195614 0.588444
vt 0.195614 0.588444
vt 0.195614 0.566084
vt 0.263383 0.566084
vt 0.263383 0.588444
vt 0.263383 0.588444
vt 0.263383 0.566084
vt 0.263383 0.636914
vt 0.280990 0.636914
vt 0.335881 0.636914
vt 0.335881 0.636914
vt 0.594312 0.135452
vt 0.594312 0.135452
vt 0.405688 0.135452
vt 0.375000 0.136914
vt 0.375000 0.636914
vt 0.625000 0.886914
vt 0.392653 0.590843
vt 0.375000 0.590843
vt 0.445614 0.590843
vt 0.462529 0.590843
vt 0.513383 0.590843
vt 0.530990 0.590843
vt 0.585881 0.590843
vt 0.405688 0.154964
vt 0.625000 0.159157
vt 0.625000 0.590843
vt 0.578373 0.874602
vt 0.625000 0.874602
vt 0.335881 0.624602
vt 0.375000 0.624602
vt 0.405688 0.124651
vt 0.375000 0.124602
vt 0.594312 0.124651
vt 0.594312 0.124651
vt 0.280990 0.624602
vt 0.263383 0.624602
vt 0.212529 0.624602
vt 0.195614 0.624602
vt 0.142653 0.624602
vt 0.125000 0.624602
vt 0.375000 0.874602
vt 0.420635 0.874602
vt 0.472222 0.874602
vt 0.527300 0.874602
vt 0.392653 0.613086
vt 0.375000 0.613086
vt 0.445614 0.541008
vt 0.462529 0.613086
vt 0.445614 0.613086
vt 0.462529 0.648637
vt 0.462529 0.625398
vt 0.462529 0.625398
vt 0.462529 0.648637
vt 0.530990 0.613086
vt 0.513383 0.613086
vt 0.585881 0.613086
vt 0.530990 0.613086
vt 0.585881 0.613086
vt 0.405688 0.135452
vt 0.625000 0.136914
vt 0.625000 0.613086
vt 0.472222 0.851363
vt 0.527300 0.851363
vt 0.578373 0.851363
vt 0.420635 0.851363
vt 0.375000 0.851363
vt 0.125000 0.601363
vt 0.142653 0.601363
vt 0.142653 0.529590
vt 0.195614 0.529590
vt 0.195614 0.529590
vt 0.142653 0.529590
vt 0.195614 0.601363
vt 0.212529 0.601363
vt 0.263383 0.694698
vt 0.263383 0.672461
vt 0.263383 0.601363
vt 0.280990 0.601363
vt 0.335881 0.601363
vt 0.335881 0.601363
vt 0.280990 0.601363
vt 0.594312 0.104264
vt 0.594312 0.104264
vt 0.405688 0.104264
vt 0.375000 0.101363
vt 0.375000 0.601363
vt 0.625000 0.851363
vt 0.392653 0.625398
vt 0.375000 0.625398
vt 0.445614 0.625398
vt 0.513383 0.625398
vt 0.530990 0.625398
vt 0.585881 0.625398
vt 0.405688 0.124651
vt 0.625000 0.124602
vt 0.625000 0.625398
vt 0.578373 0.838444
vt 0.625000 0.838444
vt 0.335881 0.588444
vt 0.375000 0.588444
vt 0.405688 0.092931
vt 0.375000 0.088444
vt 0.594312 0.092931
vt 0.594312 0.092931
vt 0.280990 0.588444
vt 0.212529 0.588444
vt 0.142653 0.588444
vt 0.125000 0.588444
vt 0.375000 0.838444
vt 0.420635 0.838444
vt 0.472222 0.838444
vt 0.527300 0.838444
vt 0.375000 0.648637
vt 0.392653 0.541008
vt 0.513383 0.696738
vt 0.513383 0.720410
vt 0.513383 0.696738
vt 0.530990 0.648637
vt 0.513383 0.648637
vt 0.530990 0.696738
vt 0.585881 0.696738
vt 0.585881 0.696738
vt 0.530990 0.696738
vt 0.405688 0.104264
vt 0.625000 0.101363
vt 0.625000 0.648637
vt 0.585881 0.648637
vt 0.472222 0.816085
vt 0.527300 0.816085
vt 0.578373 0.816085
vt 0.420635 0.816085
vt 0.375000 0.816084
vt 0.125000 0.566084
vt 0.142653 0.566084
vt 0.195614 0.694698
vt 0.195614 0.672461
vt 0.212529 0.566084
vt 0.263383 0.624602
vt 0.263383 0.601363
vt 0.280990 0.566084
vt 0.195614 0.636914
vt 0.142653 0.636914
vt 0.594312 0.073317
vt 0.594312 0.073317
vt 0.405688 0.073317
vt 0.375000 0.066084
vt 0.335881 0.566084
vt 0.375000 0.566084
vt 0.625000 0.816085
vt 0.392653 0.661556
vt 0.375000 0.661556
vt 0.445614 0.661556
vt 0.513383 0.661556
vt 0.530990 0.661556
vt 0.585881 0.661556
vt 0.405688 0.092931
vt 0.625000 0.088444
vt 0.625000 0.661556
vt 0.578373 0.803262
vt 0.625000 0.803262
vt 0.375000 0.553262
vt 0.405688 0.062068
vt 0.375000 0.053262
vt 0.594312 0.062068
vt 0.594312 0.062068
vt 0.280990 0.553262
vt 0.212529 0.553262
vt 0.195614 0.553262
vt 0.142653 0.553262
vt 0.125000 0.553262
vt 0.375000 0.803262
vt 0.420635 0.803262
vt 0.472222 0.803262
vt 0.527300 0.803262
vt 0.392653 0.683916
vt 0.375000 0.683916
vt 0.445614 0.625398
vt 0.392653 0.625398
vt 0.445614 0.683916
vt 0.462529 0.590843
vt 0.462529 0.613086
vt 0.530990 0.683916
vt 0.513383 0.683916
vt 0.392653 0.696738
vt 0.392653 0.696738
vt 0.392653 0.720410
vt 0.405688 0.073317
vt 0.625000 0.066084
vt 0.625000 0.683916
vt 0.585881 0.683916
vt 0.472222 0.779590
vt 0.527300 0.779590
vt 0.578373 0.779590
vt 0.420635 0.779590
vt 0.375000 0.779590
vt 0.125000 0.529590
vt 0.335881 0.708992
vt 0.212529 0.529590
vt 0.263383 0.659157
vt 0.263383 0.636914
vt 0.280990 0.529590
vt 0.335881 0.732213
vt 0.594312 0.041302
vt 0.375000 0.029590
vt 0.375000 0.529590
vt 0.625000 0.779590
vt 0.375000 0.696738
vt 0.445614 0.696738
vt 0.462529 0.696738
vt 0.405688 0.062068
vt 0.625000 0.053262
vt 0.625000 0.696738
vt 0.578373 0.750000
vt 0.335881 0.500000
vt 0.375000 0.500000
vt 0.280990 0.500000
vt 0.263383 0.500000
vt 0.212529 0.500000
vt 0.195614 0.500000
vt 0.142653 0.500000
vt 0.125000 0.500000
vt 0.420635 0.750000
vt 0.472222 0.750000
vt 0.527300 0.750000
vt 0.530990 0.625398
vt 0.530990 0.648637
vt 0.513383 0.683916
vt 0.513383 0.661556
vt 0.585881 0.590843
vt 0.530990 0.590843
vt 0.142653 0.624602
vt 0.195614 0.624602
vt 0.280990 0.636914
vt 0.280990 0.553262
vt 0.142653 0.566084
vt 0.142653 0.588444
vt 0.280990 0.529590
vt 0.142653 0.732213
vt 0.195614 0.732213
vt 0.195614 0.708992
vt 0.142653 0.708992
vt 0.335881 0.672461
vt 0.280990 0.672461
vt 0.195614 0.601363
vt 0.142653 0.601363
vt 0.195614 0.659157
vt 0.335881 0.566084
vt 0.280990 0.566084
vt 0.335881 0.624602
vt 0.195614 0.553262
vt 0.280990 0.624602
vt 0.142653 0.659157
vt 0.142653 0.553262
vt 0.335881 0.694698
vt 0.280990 0.694698
vt 0.335881 0.588444
vt 0.280990 0.588444
vt 0.585881 0.683916
vt 0.585881 0.661556
vt 0.530990 0.555302
vt 0.530990 0.577539
vt 0.445614 0.555302
vt 0.392653 0.555302
vt 0.585881 0.625398
vt 0.530990 0.661556
vt 0.530990 0.683916
vt 0.445614 0.661556
vt 0.392653 0.661556
vt 0.530990 0.541008
vt 0.585881 0.541008
vt 0.392653 0.577539
vt 0.445614 0.577539
vt 0.585881 0.648637
vt 0.392653 0.683916
vt 0.445614 0.683916
vt 0.445614 0.590843
vt 0.392653 0.590843
vt 0.445614 0.696738
vt 0.585881 0.517787
vt 0.530990 0.517787
vt 0.392653 0.613086
vt 0.445614 0.613086
vt 0.445614 0.720410
vt 0.530990 0.454365
vt 0.585881 0.454365
vt 0.445614 0.402778
vt 0.392653 0.402778
vt 0.585881 0.402778
vt 0.445614 0.347700
vt 0.445614 0.296627
vt 0.530990 0.402778
vt 0.392653 0.347700
vt 0.392653 0.296627
vt 0.780990 0.545635
vt 0.780990 0.597222
vt 0.695614 0.545635
vt 0.642653 0.545635
vt 0.835881 0.703373
vt 0.835881 0.652300
vt 0.780990 0.652300
vt 0.695614 0.597222
vt 0.780990 0.703373
vt 0.642653 0.597222
vt 0.513383 0.296627
vt 0.462529 0.402778
vt 0.462529 0.454365
vt 0.513383 0.402778
vt 0.513383 0.454365
vt 0.462529 0.696738
vt 0.462529 0.720410
vt 0.513383 0.577539
vt 0.513383 0.590843
vt 0.513383 0.613086
vt 0.513383 0.625398
vt 0.513383 0.541008
vt 0.513383 0.517787
vt 0.462529 0.541008
vt 0.513383 0.648637
vt 0.513383 0.555302
vt 0.462529 0.517787
vt 0.712529 0.597222
vt 0.763383 0.703373
vt 0.763383 0.652300
vt 0.763383 0.597222
vt 0.263383 0.732213
vt 0.263383 0.708992
vt 0.212529 0.601363
vt 0.212529 0.624602
vt 0.212529 0.672461
vt 0.212529 0.694698
vt 0.212529 0.566084
vt 0.212529 0.588444
vt 0.212529 0.529590
vt 0.212529 0.553262
vt 0.212529 0.732213
vt 0.212529 0.708992
vt 0.587326 0.000000
vt 0.625000 0.000000
vt 0.625000 0.250000
vt 0.587326 0.250000
vt 0.587326 0.476974
vt 0.625000 0.476974
vt 0.625000 0.500000
vt 0.587326 0.500000
vt 0.625000 0.750000
vt 0.587326 0.750000
vt 0.587326 0.975112
vt 0.625000 0.975112
vt 0.625000 1.000000
vt 0.587326 1.000000
vt 0.351974 0.500000
vt 0.375000 0.500000
vt 0.375000 0.750000
vt 0.351974 0.750000
vt 0.508904 0.975112
vt 0.508904 1.000000
vt 0.508904 0.500000
vt 0.508904 0.750000
vt 0.508904 0.476974
vt 0.508904 0.000000
vt 0.508904 0.250000
vt 0.482555 0.000000
vt 0.482555 0.250000
vt 0.482555 0.476974
vt 0.482555 0.500000
vt 0.482555 0.750000
vt 0.482555 0.975112
vt 0.482555 1.000000
vt 0.401834 0.975112
vt 0.401834 1.000000
vt 0.401834 0.500000
vt 0.401834 0.750000
vt 0.401834 0.476974
vt 0.401834 0.000000
vt 0.401834 0.250000
vt 0.375000 0.000000
vt 0.375000 0.250000
vt 0.375000 0.476974
vt 0.375000 0.975112
vt 0.375000 1.000000
vt 0.375000 0.821053
vt 0.401834 0.821053
vt 0.401834 0.850000
vt 0.375000 0.850000
vt 0.375000 0.350000
vt 0.401834 0.350000
vt 0.401834 0.400000
vt 0.375000 0.400000
vt 0.587326 0.323355
vt 0.508904 0.323355
vt 0.508904 0.323355
vt 0.587326 0.323355
vt 0.482555 0.821053
vt 0.482555 0.850000
vt 0.508904 0.821053
vt 0.508904 0.850000
vt 0.482555 0.350000
vt 0.508904 0.350000
vt 0.508904 0.400000
vt 0.482555 0.400000
vt 0.401834 0.400000
vt 0.482555 0.400000
vt 0.587326 0.821053
vt 0.587326 0.850000
vt 0.225000 0.500000
vt 0.275000 0.500000
vt 0.275000 0.750000
vt 0.225000 0.750000
vt 0.625000 0.821053
vt 0.625000 0.850000
vt 0.587326 0.350000
vt 0.625000 0.350000
vt 0.625000 0.400000
vt 0.587326 0.400000
vt 0.625000 0.323355
vt 0.198355 0.500000
vt 0.198355 0.750000
vt 0.482555 0.323355
vt 0.401834 0.323355
vt 0.375000 0.323355
vt 0.401834 0.900000
vt 0.375000 0.900000
vt 0.587326 0.773026
vt 0.587326 0.821053
vt 0.587326 0.773026
vt 0.508904 0.900000
vt 0.482555 0.900000
vt 0.587326 0.850000
vt 0.508904 0.850000
vt 0.625000 0.900000
vt 0.587326 0.900000
vt 0.625000 0.773026
vt 0.401834 0.926645
vt 0.482555 0.926645
vt 0.482555 0.926645
vt 0.401834 0.926645
vt 0.482555 0.773026
vt 0.508904 0.773026
vt 0.587326 0.900000
vt 0.375000 0.773026
vt 0.401834 0.773026
vt 0.401834 0.428947
vt 0.375000 0.428947
vt 0.482555 0.428947
vt 0.508904 0.428947
vt 0.587326 0.428947
vt 0.303947 0.500000
vt 0.303947 0.750000
vt 0.625000 0.428947
vt 0.508904 0.350000
vt 0.508904 0.400000
vt 0.401834 0.323355
vt 0.482555 0.323355
vt 0.375000 0.274888
vt 0.401834 0.274888
vt 0.587326 0.400000
vt 0.587326 0.350000
vt 0.482555 0.274888
vt 0.508904 0.274888
vt 0.508904 0.476974
vt 0.587326 0.476974
vt 0.149888 0.500000
vt 0.149888 0.750000
vt 0.587326 0.274888
vt 0.625000 0.274888
vt 0.375000 0.926645
vt 0.508904 0.926645
vt 0.587326 0.926645
vt 0.625000 0.926645
vt 0.125000 0.500000
vt 0.125000 0.750000
vt 0.482555 0.773026
vt 0.401834 0.773026
vt 0.587326 0.975112
vt 0.587326 0.926645
vt 0.725000 0.529084
vt 0.775000 0.529084
vt 0.775000 0.529084
vt 0.725000 0.529084
vt 0.508904 0.926645
vt 0.508904 0.975112
vt 0.401834 0.821053
vt 0.482555 0.821053
vt 0.508904 0.900000
vt 0.508904 0.773026
vt 0.508904 0.821053
vt 0.482555 0.975112
vt 0.401834 0.975112
vt 0.482555 0.900000
vt 0.482555 0.850000
vt 0.401834 0.900000
vt 0.401834 0.850000
vt 0.587326 0.428947
vt 0.587326 0.274888
vt 0.482555 0.428947
vt 0.401834 0.428947
vt 0.508904 0.274888
vt 0.508904 0.428947
vt 0.482555 0.350000
vt 0.482555 0.476974
vt 0.401834 0.476974
vt 0.482555 0.274888
vt 0.401834 0.350000
vt 0.401834 0.274888
vt 0.850279 0.720916
vt 0.850279 0.529084
vt 0.875000 0.500000
vt 0.875000 0.750000
vt 0.648026 0.529084
vt 0.649721 0.529084
vt 0.648026 0.500000
vt 0.649721 0.720916
vt 0.850112 0.720916
vt 0.850112 0.750000
vt 0.725000 0.500000
vt 0.775000 0.500000
vt 0.696053 0.720916
vt 0.725000 0.720916
vt 0.725000 0.750000
vt 0.696053 0.750000
vt 0.775000 0.720916
vt 0.775000 0.750000
vt 0.801645 0.529084
vt 0.801645 0.500000
vt 0.696053 0.529084
vt 0.696053 0.500000
vt 0.648026 0.720916
vt 0.648026 0.750000
vt 0.801645 0.720916
vt 0.801645 0.750000
vt 0.850111 0.529084
vt 0.850112 0.500000
vt 0.775000 0.720916
vt 0.801645 0.720916
vt 0.696053 0.720916
vt 0.725000 0.720916
vt 0.850111 0.529084
vt 0.801645 0.529084
vt 0.850112 0.720916
vt 0.850279 0.720916
vt 0.850279 0.529084
vt 0.696053 0.529084
vt 0.648026 0.529084
vt 0.649721 0.529084
vt 0.648026 0.720916
vt 0.649721 0.720916
vt 0.440868 0.104264
vt 0.559880 0.104264
vt 0.195614 0.643962
vt 0.195614 0.636914
vt 0.195614 0.636914
vt 0.195614 0.643991
vt 0.195614 0.694698
vt 0.195614 0.687756
vt 0.195614 0.687727
vt 0.195614 0.694698
vn 0.0000 0.0000 1.0000
vn 0.0000 -1.0000 0.0000
vn 0.0000 -0.0000 -1.0000
vn -1.0000 0.0000 0.0000
vn 1.0000 0.0000 0.0000
vn 0.0000 1.0000 -0.0000
vn 0.0001 0.0000 1.0000
vn -0.1782 0.9840 0.0000
vn -0.0040 -0.0000 -1.0000
vn 0.0041 0.0000 1.0000
usemtl Branco
s 1
f 217/1/1 220/2/1 560/3/1 559/4/1
f 647/5/2 646/6/2 638/7/2 636/8/2
f 141/9/1 144/10/1 295/11/1 298/12/1
f 194/13/3 191/14/3 246/15/3 243/16/3
f 191/14/4 141/9/4 298/12/4 246/15/4
f 220/2/5 272/17/5 562/18/5 560/3/5
f 272/17/3 269/19/3 561/20/3 562/18/3
f 376/21/6 568/22/6 570/23/6 350/24/6
f 399/25/6 373/26/6 564/27/6 563/28/6
f 428/29/6 569/30/6 567/31/6 402/32/6
f 269/19/4 217/1/4 559/4/4 561/20/4
f 144/10/5 194/13/5 243/16/5 295/11/5
f 563/28/6 565/33/6 425/34/6 399/25/6
f 563/28/6 564/27/6 568/22/6 567/31/6
f 566/35/6 564/27/6 373/26/6 347/36/6
f 567/31/6 568/22/6 376/21/6 402/32/6
f 650/37/2 267/38/2 766/39/2 770/40/2
f 646/6/2 652/41/2 643/42/2 678/43/2 638/7/2
f 645/44/6 188/45/6 755/46/6 757/47/6
f 651/48/2 642/49/2 215/50/2 647/5/2
f 652/41/2 644/51/2 267/38/2 650/37/2
f 641/52/2 651/48/2 647/5/2 636/8/2 673/53/2
f 672/54/5 748/55/5 764/56/5 763/57/5
f 241/58/2 644/51/2 652/41/2 646/6/2
f 670/59/5 639/60/5 767/61/5 773/62/5
f 189/63/2 642/49/2 651/48/2 649/64/2
f 240/65/6 214/66/6 188/45/6 645/44/6 648/67/6 266/68/6
f 215/50/2 241/58/2 646/6/2 647/5/2
f 664/69/6 661/70/6 662/71/6 676/72/6 665/73/6 666/74/6 679/75/6 663/76/6
f 648/67/4 645/44/4 661/70/4 664/69/4
f 751/77/5 668/78/5 675/79/5 753/80/5
f 748/55/5 662/71/5 762/81/5 764/56/5
f 639/60/5 670/59/5 680/82/5 677/83/5
f 752/84/5 638/7/5 678/43/5 754/85/5
f 635/86/5 675/79/5 674/87/5 672/54/5
f 745/88/5 747/89/5 666/74/5 665/73/5
f 747/89/5 750/90/5 679/75/5 666/74/5
f 748/55/5 749/91/5 676/72/5 662/71/5
f 749/91/5 674/87/5 669/92/5 745/88/5
f 673/53/5 753/80/5 675/79/5 635/86/5 637/93/5 641/52/5
f 677/83/5 754/85/5 678/43/5 643/42/5 640/94/5 639/60/5
f 750/90/5 680/82/5 670/59/5 746/95/5
f 603/96/2 571/97/2 572/98/2 573/99/2 574/100/2 575/101/2 576/102/2 577/103/2 578/104/2 579/105/2 611/106/2 610/107/2 609/108/2 608/109/2 607/110/2 606/111/2 605/112/2 604/113/2
f 611/106/2 579/105/2 580/114/2 581/115/2 582/116/2 583/117/2 584/118/2 585/119/2 586/120/2 587/121/2 619/122/2 618/123/2 617/124/2 616/125/2 615/126/2 614/127/2 613/128/2 612/129/2
f 619/122/2 587/121/2 588/130/2 589/131/2 590/132/2 591/133/2 592/134/2 593/135/2 594/136/2 595/137/2 627/138/2 626/139/2 625/140/2 624/141/2 623/142/2 622/143/2 621/144/2 620/145/2
f 627/138/2 595/137/2 596/146/2 597/147/2 598/148/2 599/149/2 600/150/2 601/151/2 602/152/2 571/97/2 603/96/2 634/153/2 633/154/2 632/155/2 631/156/2 630/157/2 629/158/2 628/159/2
f 679/75/5 750/90/5 746/95/5 663/76/5
f 676/72/5 749/91/5 745/88/5 665/73/5
f 672/54/5 674/87/5 749/91/5 748/55/5
f 671/160/5 680/82/5 750/90/5 747/89/5
f 667/161/5 752/84/5 754/85/5 677/83/5
f 638/7/5 752/84/5 751/77/5 636/8/5
f 636/8/5 751/77/5 753/80/5 673/53/5
f 757/47/1 760/162/1 759/163/1 758/164/1
f 755/46/1 756/165/1 760/162/1 757/47/1
f 757/47/1 758/164/1 763/57/1 764/56/1 762/81/1 761/166/1
f 661/70/4 645/44/4 757/47/4 761/166/4
f 649/64/1 637/93/1 759/163/1 760/162/1
f 637/93/5 635/86/5 758/164/5 759/163/5
f 662/71/6 661/70/6 761/166/6 762/81/6
f 635/86/5 672/54/5 763/57/5 758/164/5
f 189/63/2 649/64/2 760/162/2 756/165/2
f 767/61/3 769/167/3 772/168/3 771/169/3 774/170/3 773/62/3
f 770/40/3 769/167/3 767/61/3 768/171/3
f 766/39/3 765/172/3 769/167/3 770/40/3
f 664/69/6 663/76/6 771/169/6 772/168/6
f 266/68/6 648/67/6 769/167/6 765/172/6
f 663/76/5 746/95/5 774/170/5 771/169/5
f 746/95/5 670/59/5 773/62/5 774/170/5
f 639/60/5 640/94/5 768/171/5 767/61/5
f 640/94/1 650/37/1 770/40/1 768/171/1
f 648/67/4 664/69/4 772/168/4 769/167/4
usemtl Vermelho
f 752/84/5 667/161/5 668/78/5 751/77/5
f 668/78/5 667/161/5 671/160/5 669/92/5
f 674/87/5 675/79/5 668/78/5 669/92/5
f 677/83/5 680/82/5 671/160/5 667/161/5
f 669/92/5 671/160/5 747/89/5 745/88/5
usemtl Paredes
f 46/173/1 5/174/1 16/175/1 48/176/1
f 50/177/1 42/178/1 10/179/1 18/180/1
f 409/181/4 405/182/4 12/183/4 20/184/4
f 145/185/2 124/186/2 4/187/2 81/188/2
f 129/189/5 122/190/5 9/191/5 19/192/5
f 85/193/3 82/194/3 11/195/3 17/196/3
f 45/197/6 7/198/6 10/199/6 42/200/6
f 125/201/6 3/202/6 9/203/6 122/204/6
f 407/205/6 5/174/6 12/206/6 405/207/6
f 83/208/6 1/209/6 11/210/6 82/211/6
f 417/212/4 1/209/4 15/213/4 418/214/4
f 126/215/5 7/198/5 14/216/5 128/217/5
f 93/218/3 3/202/3 13/219/3 94/220/3
f 86/221/3 85/193/3 17/196/3 21/222/3
f 132/223/5 129/189/5 19/192/5 22/224/5
f 410/225/4 409/181/4 20/184/4 23/226/4
f 51/227/1 50/177/1 18/180/1 24/228/1
f 54/229/1 51/227/1 24/228/1 28/230/1
f 411/231/4 410/225/4 23/226/4 27/232/4
f 133/233/5 132/223/5 22/224/5 26/234/5
f 87/235/3 86/221/3 21/222/3 25/236/3
f 88/237/3 87/235/3 25/236/3 29/238/3
f 136/239/5 133/233/5 26/234/5 30/240/5
f 412/241/4 411/231/4 27/232/4 31/242/4
f 55/243/1 54/229/1 28/230/1 32/244/1
f 58/245/1 55/243/1 32/244/1 36/246/1
f 413/247/4 412/241/4 31/242/4 35/248/4
f 137/249/5 136/239/5 30/240/5 34/250/5
f 89/251/3 88/237/3 29/238/3 33/252/3
f 90/253/3 89/251/3 33/252/3 37/254/3
f 140/255/5 137/249/5 34/250/5 38/256/5
f 414/257/4 413/247/4 35/248/4 39/258/4
f 59/259/1 58/245/1 36/246/1 40/260/1
f 43/261/1 59/259/1 40/260/1 8/262/1
f 415/263/4 414/257/4 39/258/4 6/264/4
f 124/265/5 140/255/5 38/256/5 4/266/5
f 91/267/3 90/253/3 37/254/3 2/268/3
f 6/269/3 39/270/3 60/271/3 41/272/3
f 61/273/1 80/274/1 59/259/1 43/261/1
f 58/245/5 59/259/5 534/275/5 532/276/5
f 39/270/3 35/277/3 57/278/3 60/271/3
f 35/277/3 31/279/3 56/280/3 57/278/3
f 79/281/1 78/282/1 55/243/1 58/245/1
f 108/283/6 98/284/6 686/285/6 688/286/6
f 31/279/3 27/287/3 53/288/3 56/280/3
f 27/287/3 23/289/3 52/290/3 53/288/3
f 77/291/1 76/292/1 51/227/1 54/229/1
f 105/293/5 106/294/5 540/295/5 539/296/5
f 23/289/3 20/297/3 49/298/3 52/290/3
f 7/198/3 45/197/3 47/299/3 14/216/3
f 5/174/6 46/173/6 44/300/6 12/206/6
f 73/301/6 45/197/6 42/200/6 72/302/6
f 20/297/3 12/303/3 44/304/3 49/298/3
f 121/305/2 142/306/2 43/307/2 8/308/2
f 75/309/1 72/310/1 42/178/1 50/177/1
f 63/311/1 46/173/1 48/176/1 64/312/1
f 113/313/1 63/311/1 64/312/1 114/314/1
f 105/293/1 102/315/1 72/310/1 75/309/1
f 103/316/6 73/301/6 72/302/6 102/317/6
f 106/294/1 105/293/1 75/309/1 76/292/1
f 107/318/1 106/294/1 76/292/1 77/291/1
f 108/283/1 107/318/1 77/291/1 78/282/1
f 109/319/1 108/283/1 78/282/1 79/281/1
f 110/320/1 109/319/1 79/281/1 80/274/1
f 111/321/1 110/320/1 80/274/1 61/273/1
f 41/272/3 60/271/3 70/322/3 71/323/3
f 89/251/4 90/253/4 558/324/4 556/325/4
f 57/278/3 56/280/3 68/326/3 69/327/3
f 56/280/5 53/288/5 713/328/5 714/329/5
f 53/288/3 52/290/3 66/330/3 67/331/3
f 120/332/5 119/333/5 555/334/5 557/335/5
f 45/197/3 73/301/3 74/336/3 47/299/3
f 46/173/6 63/311/6 62/337/6 44/300/6
f 49/298/3 44/304/3 62/338/3 65/339/3
f 142/306/2 143/340/2 61/341/2 43/307/2
f 4/342/1 38/343/1 100/344/1 81/345/1
f 38/343/1 34/346/1 99/347/1 100/344/1
f 34/346/1 30/348/1 98/284/1 99/347/1
f 30/348/1 26/349/1 97/350/1 98/284/1
f 26/349/1 22/351/1 96/352/1 97/350/1
f 22/351/1 19/353/1 95/354/1 96/352/1
f 3/202/6 93/218/6 92/355/6 9/203/6
f 19/353/1 9/356/1 92/357/1 95/354/1
f 1/209/1 83/208/1 84/358/1 15/213/1
f 101/359/3 120/332/3 90/253/3 91/267/3
f 49/298/2 65/339/2 547/360/2 545/361/2
f 119/333/3 118/362/3 88/237/3 89/251/3
f 88/237/6 118/362/6 719/363/6 720/364/6
f 117/365/3 116/366/3 86/221/3 87/235/3
f 119/333/2 89/251/2 556/325/2 555/334/2
f 103/316/3 93/218/3 94/220/3 104/367/3
f 113/313/6 83/208/6 82/211/6 112/368/6
f 115/369/3 112/370/3 82/194/3 85/193/3
f 146/371/2 145/185/2 81/188/2 111/372/2
f 143/340/2 146/371/2 111/372/2 61/341/2
f 65/339/3 62/338/3 112/370/3 115/369/3
f 63/311/6 113/313/6 112/368/6 62/337/6
f 73/301/3 103/316/3 104/367/3 74/336/3
f 66/330/3 65/339/3 115/369/3 116/366/3
f 67/331/3 66/330/3 116/366/3 117/365/3
f 68/326/3 67/331/3 117/365/3 118/362/3
f 69/327/3 68/326/3 118/362/3 119/333/3
f 70/322/3 69/327/3 119/333/3 120/332/3
f 71/323/3 70/322/3 120/332/3 101/359/3
f 81/345/1 100/344/1 110/320/1 111/321/1
f 106/294/6 96/352/6 538/373/6 540/295/6
f 99/347/1 98/284/1 108/283/1 109/319/1
f 107/318/5 108/283/5 688/286/5 687/374/5
f 97/350/1 96/352/1 106/294/1 107/318/1
f 95/354/2 105/293/2 539/296/2 537/375/2
f 93/218/6 103/316/6 102/317/6 92/355/6
f 95/354/1 92/357/1 102/315/1 105/293/1
f 83/208/1 113/313/1 114/314/1 84/358/1
f 168/376/2 170/377/2 146/371/2 143/340/2
f 170/377/2 169/378/2 145/185/2 146/371/2
f 167/379/2 168/376/2 143/340/2 142/306/2
f 157/380/2 167/379/2 142/306/2 121/305/2
f 148/381/5 166/382/5 140/255/5 124/265/5
f 8/262/4 40/260/4 139/383/4 121/384/4
f 40/260/4 36/246/4 138/385/4 139/383/4
f 419/386/2 393/387/2 472/388/2 471/389/2
f 165/390/5 164/391/5 136/239/5 137/249/5
f 36/246/4 32/244/4 135/392/4 138/385/4
f 32/244/4 28/230/4 134/393/4 135/392/4
f 421/394/2 395/395/2 742/396/2 741/397/2
f 163/398/5 162/399/5 132/223/5 133/233/5
f 28/230/4 24/228/4 131/400/4 134/393/4
f 24/228/4 18/180/4 130/401/4 131/400/4
f 132/223/6 162/399/6 433/402/6 434/403/6
f 149/404/5 126/215/5 128/217/5 150/405/5
f 3/202/4 125/201/4 127/406/4 13/219/4
f 7/198/6 126/215/6 123/407/6 10/199/6
f 159/408/6 125/201/6 122/204/6 158/409/6
f 161/410/5 158/411/5 122/190/5 129/189/5
f 169/378/2 148/412/2 124/186/2 145/185/2
f 18/180/4 10/179/4 123/413/4 130/401/4
f 195/414/2 172/415/2 148/412/2 169/378/2
f 185/416/5 182/417/5 158/411/5 161/410/5
f 183/418/6 159/408/6 158/409/6 182/419/6
f 173/420/5 149/404/5 150/405/5 174/421/5
f 186/422/5 185/416/5 161/410/5 162/399/5
f 187/423/5 186/422/5 162/399/5 163/398/5
f 188/45/5 187/423/5 163/398/5 164/391/5
f 189/63/5 188/45/5 164/391/5 165/390/5
f 190/424/5 189/63/5 165/390/5 166/382/5
f 172/425/5 190/424/5 166/382/5 148/381/5
f 181/426/2 192/427/2 167/379/2 157/380/2
f 192/427/2 193/428/2 168/376/2 167/379/2
f 196/429/2 195/414/2 169/378/2 170/377/2
f 193/428/2 196/429/2 170/377/2 168/376/2
f 121/384/4 139/383/4 156/430/4 157/431/4
f 409/181/1 410/225/1 524/432/1 523/433/1
f 138/385/4 135/392/4 154/434/4 155/435/4
f 360/436/6 334/437/6 706/438/6 708/439/6
f 134/393/4 131/400/4 152/440/4 153/441/4
f 139/383/3 138/385/3 479/442/3 480/443/3
f 125/201/4 159/408/4 160/444/4 127/406/4
f 126/215/6 149/404/6 147/445/6 123/407/6
f 130/401/4 123/413/4 147/446/4 151/447/4
f 219/448/2 222/449/2 196/429/2 193/428/2
f 222/449/2 221/450/2 195/414/2 196/429/2
f 218/451/2 219/448/2 193/428/2 192/427/2
f 207/452/2 218/451/2 192/427/2 181/426/2
f 198/453/5 216/454/5 190/424/5 172/425/5
f 190/424/6 216/454/6 445/455/6 446/456/6
f 240/65/6 266/68/6 731/457/6 732/458/6
f 213/459/5 212/460/5 186/422/5 187/423/5
f 237/461/3 238/462/3 450/463/3 448/464/3
f 199/465/5 173/420/5 174/421/5 200/466/5
f 209/467/6 183/418/6 182/419/6 208/468/6
f 211/469/5 208/470/5 182/417/5 185/416/5
f 221/450/2 198/471/2 172/415/2 195/414/2
f 157/431/4 156/430/4 180/472/4 181/473/4
f 156/430/4 155/435/4 179/474/4 180/472/4
f 155/435/4 154/434/4 178/475/4 179/474/4
f 154/434/4 153/441/4 177/476/4 178/475/4
f 153/441/4 152/440/4 176/477/4 177/476/4
f 152/440/4 151/447/4 175/478/4 176/477/4
f 159/408/4 183/418/4 184/479/4 160/444/4
f 149/404/6 173/420/6 171/480/6 147/445/6
f 151/447/4 147/446/4 171/481/4 175/478/4
f 247/482/2 224/483/2 198/471/2 221/450/2
f 237/461/5 234/484/5 208/470/5 211/469/5
f 235/485/6 209/467/6 208/468/6 234/486/6
f 225/487/5 199/465/5 200/466/5 226/488/5
f 238/462/5 237/461/5 211/469/5 212/460/5
f 239/489/5 238/462/5 212/460/5 213/459/5
f 240/65/5 239/489/5 213/459/5 214/66/5
f 242/490/5 241/58/5 215/50/5 216/454/5
f 224/491/5 242/490/5 216/454/5 198/453/5
f 233/492/2 244/493/2 218/451/2 207/452/2
f 244/493/2 245/494/2 219/448/2 218/451/2
f 248/495/2 247/482/2 221/450/2 222/449/2
f 245/494/2 248/495/2 222/449/2 219/448/2
f 181/473/4 180/472/4 206/496/4 207/497/4
f 175/478/2 201/498/2 491/499/2 489/500/2
f 179/474/4 178/475/4 204/501/4 205/502/4
f 204/501/6 178/475/6 694/503/6 696/504/6
f 177/476/4 176/477/4 202/505/4 203/506/4
f 309/507/1 310/508/1 510/509/1 509/510/1
f 183/418/4 209/467/4 210/511/4 184/479/4
f 173/420/6 199/465/6 197/512/6 171/480/6
f 175/478/4 171/481/4 197/513/4 201/498/4
f 271/514/2 274/515/2 248/495/2 245/494/2
f 274/515/2 273/516/2 247/482/2 248/495/2
f 270/517/2 271/514/2 245/494/2 244/493/2
f 259/518/2 270/517/2 244/493/2 233/492/2
f 250/519/5 268/520/5 242/490/5 224/491/5
f 371/521/2 345/522/2 468/523/2 467/524/2
f 369/525/2 343/526/2 738/527/2 737/528/2
f 265/529/5 264/530/5 238/462/5 239/489/5
f 263/531/2 237/461/2 448/464/2 447/532/2
f 251/533/5 225/487/5 226/488/5 252/534/5
f 261/535/6 235/485/6 234/486/6 260/536/6
f 263/531/5 260/537/5 234/484/5 237/461/5
f 273/516/2 250/538/2 224/483/2 247/482/2
f 207/497/4 206/496/4 232/539/4 233/540/4
f 206/496/4 205/502/4 231/541/4 232/539/4
f 205/502/4 204/501/4 230/542/4 231/541/4
f 204/501/4 203/506/4 229/543/4 230/542/4
f 203/506/4 202/505/4 228/544/4 229/543/4
f 202/505/4 201/498/4 227/545/4 228/544/4
f 209/467/4 235/485/4 236/546/4 210/511/4
f 199/465/6 225/487/6 223/547/6 197/512/6
f 201/498/4 197/513/4 223/548/4 227/545/4
f 299/549/2 276/550/2 250/538/2 273/516/2
f 289/551/5 286/552/5 260/537/5 263/531/5
f 287/553/6 261/535/6 260/536/6 286/554/6
f 277/555/5 251/533/5 252/534/5 278/556/5
f 290/557/5 289/551/5 263/531/5 264/530/5
f 291/558/5 290/557/5 264/530/5 265/529/5
f 292/559/5 291/558/5 265/529/5 266/68/5
f 293/560/5 292/559/5 266/68/5 267/38/5
f 294/561/5 293/560/5 267/38/5 268/520/5
f 276/562/5 294/561/5 268/520/5 250/519/5
f 285/563/2 296/564/2 270/517/2 259/518/2
f 296/564/2 297/565/2 271/514/2 270/517/2
f 300/566/2 299/549/2 273/516/2 274/515/2
f 297/565/2 300/566/2 274/515/2 271/514/2
f 233/540/4 232/539/4 258/567/4 259/568/4
f 138/385/2 155/435/2 485/569/2 479/442/2
f 231/541/4 230/542/4 256/570/4 257/571/4
f 308/572/6 282/573/6 702/574/6 704/575/6
f 229/543/4 228/544/4 254/576/4 255/577/4
f 253/578/1 254/576/1 500/579/1 499/580/1
f 235/485/4 261/535/4 262/581/4 236/546/4
f 225/487/6 251/533/6 249/582/6 223/547/6
f 227/545/4 223/548/4 249/583/4 253/578/4
f 323/584/2 326/585/2 300/566/2 297/565/2
f 326/585/2 325/586/2 299/549/2 300/566/2
f 322/587/2 323/584/2 297/565/2 296/564/2
f 311/588/2 322/587/2 296/564/2 285/563/2
f 302/589/5 320/590/5 294/561/5 276/562/5
f 424/591/1 423/592/1 475/593/1 477/594/1
f 319/595/5 318/596/5 292/559/5 293/560/5
f 213/459/2 187/423/2 726/597/2 725/598/2
f 317/599/5 316/600/5 290/557/5 291/558/5
f 316/600/1 315/601/1 455/602/1 457/603/1
f 303/604/5 277/555/5 278/556/5 304/605/5
f 313/606/6 287/553/6 286/554/6 312/607/6
f 315/601/5 312/608/5 286/552/5 289/551/5
f 325/586/2 302/609/2 276/550/2 299/549/2
f 259/568/4 258/567/4 284/610/4 285/611/4
f 258/567/4 257/571/4 283/612/4 284/610/4
f 257/571/4 256/570/4 282/573/4 283/612/4
f 256/570/4 255/577/4 281/613/4 282/573/4
f 255/577/4 254/576/4 280/614/4 281/613/4
f 254/576/4 253/578/4 279/615/4 280/614/4
f 261/535/4 287/553/4 288/616/4 262/581/4
f 251/533/6 277/555/6 275/617/6 249/582/6
f 253/578/4 249/583/4 275/618/4 279/615/4
f 351/619/2 328/620/2 302/609/2 325/586/2
f 341/621/5 338/622/5 312/608/5 315/601/5
f 339/623/6 313/606/6 312/607/6 338/624/6
f 329/625/5 303/604/5 304/605/5 330/626/5
f 342/627/5 341/621/5 315/601/5 316/600/5
f 343/526/5 342/627/5 316/600/5 317/599/5
f 344/628/5 343/526/5 317/599/5 318/596/5
f 345/522/5 344/628/5 318/596/5 319/595/5
f 346/629/5 345/522/5 319/595/5 320/590/5
f 328/630/5 346/629/5 320/590/5 302/589/5
f 337/631/2 348/632/2 322/587/2 311/588/2
f 348/632/2 349/633/2 323/584/2 322/587/2
f 352/634/2 351/619/2 325/586/2 326/585/2
f 349/633/2 352/634/2 326/585/2 323/584/2
f 285/611/4 284/610/4 310/508/4 311/635/4
f 155/435/1 156/430/1 486/636/1 485/569/1
f 283/612/4 282/573/4 308/572/4 309/507/4
f 385/637/2 411/231/2 711/638/2 709/639/2
f 281/613/4 280/614/4 306/640/4 307/641/4
f 384/642/3 383/643/3 521/644/3 522/645/3
f 287/553/4 313/606/4 314/646/4 288/616/4
f 277/555/6 303/604/6 301/647/6 275/617/6
f 279/615/4 275/618/4 301/648/4 305/649/4
f 375/650/2 378/651/2 352/634/2 349/633/2
f 378/651/2 377/652/2 351/619/2 352/634/2
f 374/653/2 375/650/2 349/633/2 348/632/2
f 363/654/2 374/653/2 348/632/2 337/631/2
f 354/655/5 372/656/5 346/629/5 328/630/5
f 215/50/2 642/49/2 189/63/2 444/657/2 443/658/2
f 371/521/5 370/659/5 344/628/5 345/522/5
f 317/599/2 291/558/2 734/660/2 733/661/2
f 369/525/5 368/662/5 342/627/5 343/526/5
f 268/520/1 267/38/1 451/663/1 453/664/1
f 355/665/5 329/625/5 330/626/5 356/666/5
f 365/667/6 339/623/6 338/624/6 364/668/6
f 367/669/5 364/670/5 338/622/5 341/621/5
f 377/652/2 354/671/2 328/620/2 351/619/2
f 311/635/4 310/508/4 336/672/4 337/673/4
f 310/508/4 309/507/4 335/674/4 336/672/4
f 309/507/4 308/572/4 334/437/4 335/674/4
f 308/572/4 307/641/4 333/675/4 334/437/4
f 307/641/4 306/640/4 332/676/4 333/675/4
f 306/640/4 305/649/4 331/677/4 332/676/4
f 313/606/4 339/623/4 340/678/4 314/646/4
f 303/604/6 329/625/6 327/679/6 301/647/6
f 305/649/4 301/648/4 327/680/4 331/677/4
f 403/681/2 380/682/2 354/671/2 377/652/2
f 393/387/5 390/683/5 364/670/5 367/669/5
f 391/684/6 365/667/6 364/668/6 390/685/6
f 381/686/5 355/665/5 356/666/5 382/687/5
f 394/688/5 393/387/5 367/669/5 368/662/5
f 395/395/5 394/688/5 368/662/5 369/525/5
f 396/689/5 395/395/5 369/525/5 370/659/5
f 397/690/5 396/689/5 370/659/5 371/521/5
f 398/691/5 397/690/5 371/521/5 372/656/5
f 380/692/5 398/691/5 372/656/5 354/655/5
f 389/693/2 400/694/2 374/653/2 363/654/2
f 400/694/2 401/695/2 375/650/2 374/653/2
f 404/696/2 403/681/2 377/652/2 378/651/2
f 401/695/2 404/696/2 378/651/2 375/650/2
f 337/673/4 336/672/4 362/697/4 363/698/4
f 284/610/3 283/612/3 503/699/3 504/700/3
f 335/674/4 334/437/4 360/436/4 361/701/4
f 256/570/6 230/542/6 698/702/6 700/703/6
f 333/675/4 332/676/4 358/704/4 359/705/4
f 414/257/6 388/706/6 520/707/6 526/708/6
f 339/623/4 365/667/4 366/709/4 340/678/4
f 329/625/6 355/665/6 353/710/6 327/679/6
f 331/677/4 327/680/4 353/711/4 357/712/4
f 427/713/2 430/714/2 404/696/2 401/695/2
f 430/714/2 429/715/2 403/681/2 404/696/2
f 426/716/2 427/713/2 401/695/2 400/694/2
f 415/717/2 426/716/2 400/694/2 389/693/2
f 406/718/5 424/591/5 398/691/5 380/692/5
f 162/399/1 161/410/1 431/719/1 433/402/1
f 423/592/5 422/720/5 396/689/5 397/690/5
f 265/529/2 239/489/2 730/721/2 729/722/2
f 421/394/5 420/723/5 394/688/5 395/395/5
f 161/410/2 129/189/2 432/724/2 431/719/2
f 407/205/5 381/686/5 382/687/5 408/725/5
f 417/212/6 391/684/6 390/685/6 416/726/6
f 419/386/5 416/727/5 390/683/5 393/387/5
f 429/715/2 406/728/2 380/682/2 403/681/2
f 363/698/4 362/697/4 388/706/4 389/729/4
f 362/697/4 361/701/4 387/730/4 388/706/4
f 361/701/4 360/436/4 386/731/4 387/730/4
f 360/436/4 359/705/4 385/637/4 386/731/4
f 359/705/4 358/704/4 384/642/4 385/637/4
f 358/704/4 357/712/4 383/643/4 384/642/4
f 365/667/4 391/684/4 392/732/4 366/709/4
f 355/665/6 381/686/6 379/733/6 353/710/6
f 357/712/4 353/711/4 379/734/4 383/643/4
f 91/735/2 2/268/2 406/728/2 429/715/2
f 17/736/5 11/737/5 416/727/5 419/386/5
f 1/209/6 417/212/6 416/726/6 11/210/6
f 5/174/5 407/205/5 408/725/5 16/175/5
f 21/738/5 17/736/5 419/386/5 420/723/5
f 25/739/5 21/738/5 420/723/5 421/394/5
f 29/740/5 25/739/5 421/394/5 422/720/5
f 33/741/5 29/740/5 422/720/5 423/592/5
f 37/742/5 33/741/5 423/592/5 424/591/5
f 2/743/5 37/742/5 424/591/5 406/718/5
f 6/264/2 41/744/2 426/716/2 415/717/2
f 41/744/2 71/745/2 427/713/2 426/716/2
f 101/746/2 91/735/2 429/715/2 430/714/2
f 71/745/2 101/746/2 430/714/2 427/713/2
f 389/729/4 388/706/4 414/257/4 415/263/4
f 306/640/6 280/614/6 506/747/6 508/748/6
f 387/730/4 386/731/4 412/241/4 413/247/4
f 333/675/2 359/705/2 707/749/2 705/750/2
f 385/637/4 384/642/4 410/225/4 411/231/4
f 228/544/3 227/545/3 497/751/3 498/752/3
f 391/684/4 417/212/4 418/214/4 392/732/4
f 381/686/6 407/205/6 405/207/6 379/733/6
f 383/643/4 379/734/4 405/182/4 409/181/4
f 293/560/3 294/561/3 462/753/3 460/754/3
f 238/462/6 264/530/6 449/755/6 450/463/6
f 393/387/3 394/688/3 474/756/3 472/388/3
f 346/629/6 372/656/6 469/757/6 470/758/6
f 394/688/6 420/723/6 473/759/6 474/756/6
f 137/249/3 140/255/3 438/760/3 436/761/3
f 166/382/1 165/390/1 435/762/1 437/763/1
f 212/460/1 211/469/1 439/764/1 441/765/1
f 320/590/1 319/595/1 459/766/1 461/767/1
f 267/38/2 644/51/2 241/58/2 452/768/2 451/663/2
f 368/662/1 367/669/1 463/769/1 465/770/1
f 315/601/2 289/551/2 456/771/2 455/602/2
f 189/63/3 190/424/3 446/456/3 444/657/3
f 423/592/2 397/690/2 476/772/2 475/593/2
f 289/551/3 290/557/3 458/773/3 456/771/3
f 242/490/6 268/520/6 453/664/6 454/774/6
f 345/522/3 346/629/3 470/758/3 468/523/3
f 290/557/6 316/600/6 457/603/6 458/773/6
f 165/390/2 137/249/2 436/761/2 435/762/2
f 398/691/6 424/591/6 477/594/6 478/775/6
f 216/454/1 215/50/1 443/658/1 445/455/1
f 264/530/1 263/531/1 447/532/1 449/755/1
f 372/656/1 371/521/1 467/524/1 469/757/1
f 211/469/2 185/416/2 440/776/2 439/764/2
f 319/595/2 293/560/2 460/754/2 459/766/2
f 185/416/3 186/422/3 442/777/3 440/776/3
f 140/255/6 166/382/6 437/763/6 438/760/6
f 420/723/1 419/386/1 471/389/1 473/759/1
f 367/669/2 341/621/2 464/778/2 463/769/2
f 241/58/3 242/490/3 454/774/3 452/768/3
f 186/422/6 212/460/6 441/765/6 442/777/6
f 341/621/3 342/627/3 466/779/3 464/778/3
f 294/561/6 320/590/6 461/767/6 462/753/6
f 129/189/3 132/223/3 434/403/3 432/724/3
f 397/690/3 398/691/3 478/775/3 476/772/3
f 342/627/6 368/662/6 465/770/6 466/779/6
f 283/612/2 309/507/2 509/510/2 503/699/2
f 156/430/6 139/383/6 480/443/6 486/636/6
f 331/677/2 357/712/2 515/780/2 513/781/2
f 202/505/6 176/477/6 490/782/6 492/783/6
f 310/508/6 284/610/6 504/700/6 510/509/6
f 180/472/3 179/474/3 487/784/3 488/785/3
f 280/614/3 279/615/3 505/786/3 506/747/3
f 358/704/6 332/676/6 514/787/6 516/788/6
f 336/672/3 335/674/3 511/789/3 512/790/3
f 151/447/1 152/440/1 484/791/1 483/792/1
f 205/502/1 206/496/1 494/793/1 493/794/1
f 305/649/1 306/640/1 508/748/1 507/795/1
f 179/474/2 205/502/2 493/794/2 487/784/2
f 361/701/1 362/697/1 518/796/1 517/797/1
f 227/545/2 253/578/2 499/580/2 497/751/2
f 335/674/2 361/701/2 517/797/2 511/789/2
f 206/496/6 180/472/6 488/785/6 494/793/6
f 176/477/3 175/478/3 489/500/3 490/782/3
f 383/643/2 409/181/2 523/433/2 521/644/2
f 254/576/6 228/544/6 498/752/6 500/579/6
f 362/697/6 336/672/6 512/790/6 518/796/6
f 232/539/3 231/541/3 495/798/3 496/799/3
f 332/676/3 331/677/3 513/781/3 514/787/3
f 410/225/6 384/642/6 522/645/6 524/432/6
f 388/706/3 387/730/3 519/800/3 520/707/3
f 201/498/1 202/505/1 492/783/1 491/499/1
f 131/400/3 130/401/3 481/801/3 482/802/3
f 257/571/1 258/567/1 502/803/1 501/804/1
f 130/401/2 151/447/2 483/792/2 481/801/2
f 357/712/1 358/704/1 516/788/1 515/780/1
f 231/541/2 257/571/2 501/804/2 495/798/2
f 413/247/1 414/257/1 526/708/1 525/805/1
f 279/615/2 305/649/2 507/795/2 505/786/2
f 152/440/6 131/400/6 482/802/6 484/791/6
f 387/730/2 413/247/2 525/805/2 519/800/2
f 258/567/6 232/539/6 496/799/6 502/803/6
f 50/177/5 51/227/5 530/806/5 528/807/5
f 80/274/4 79/281/4 531/808/4 533/809/4
f 96/352/4 95/354/4 537/375/4 538/373/4
f 75/309/2 50/177/2 528/807/2 527/810/2
f 79/281/2 58/245/2 532/276/2 531/808/2
f 99/347/2 109/319/2 541/811/2 535/812/2
f 51/227/6 76/292/6 529/813/6 530/806/6
f 109/319/5 110/320/5 542/814/5 541/811/5
f 110/320/6 100/344/6 536/815/6 542/814/6
f 59/259/6 80/274/6 533/809/6 534/275/6
f 76/292/4 75/309/4 527/810/4 529/813/4
f 100/344/4 99/347/4 535/812/4 536/815/4
f 90/253/6 120/332/6 557/335/6 558/324/6
f 66/330/6 52/290/6 546/816/6 548/817/6
f 60/271/5 57/278/5 543/818/5 544/819/5
f 65/339/4 66/330/4 548/817/4 547/360/4
f 52/290/5 49/298/5 545/361/5 546/816/5
f 115/369/2 85/193/2 552/820/2 551/821/2
f 116/366/5 115/369/5 551/821/5 553/822/5
f 57/278/2 69/327/2 549/823/2 543/818/2
f 86/221/6 116/366/6 553/822/6 554/824/6
f 85/193/4 86/221/4 554/824/4 552/820/4
f 69/327/4 70/322/4 550/825/4 549/823/4
f 70/322/6 60/271/6 544/819/6 550/825/6
f 267/38/4 266/68/4 765/172/4 766/39/4
f 98/284/4 97/350/4 685/826/4 686/285/4
f 55/243/6 78/282/6 683/827/6 684/828/6
f 78/282/4 77/291/4 681/829/4 683/827/4
f 97/350/2 107/318/2 687/374/2 685/826/2
f 54/229/5 55/243/5 684/828/5 682/830/5
f 77/291/2 54/229/2 682/830/2 681/829/2
f 412/241/6 386/731/6 710/831/6 712/832/6
f 203/506/1 204/501/1 696/504/1 695/833/1
f 230/542/3 229/543/3 697/834/3 698/702/3
f 255/577/1 256/570/1 700/703/1 699/835/1
f 282/573/3 281/613/3 701/836/3 702/574/3
f 134/393/2 153/441/2 691/837/2 689/838/2
f 153/441/1 154/434/1 692/839/1 691/837/1
f 307/641/1 308/572/1 704/575/1 703/840/1
f 178/475/3 177/476/3 693/841/3 694/503/3
f 334/437/3 333/675/3 705/750/3 706/438/3
f 359/705/1 360/436/1 708/439/1 707/749/1
f 386/731/3 385/637/3 709/639/3 710/831/3
f 411/231/1 412/241/1 712/832/1 711/638/1
f 154/434/6 135/392/6 690/842/6 692/839/6
f 135/392/3 134/393/3 689/838/3 690/842/3
f 229/543/2 255/577/2 699/835/2 697/834/2
f 281/613/2 307/641/2 703/840/2 701/836/2
f 177/476/2 203/506/2 695/833/2 693/841/2
f 68/326/6 56/280/6 714/329/6 716/843/6
f 117/365/2 87/235/2 718/844/2 717/845/2
f 67/331/4 68/326/4 716/843/4 715/846/4
f 118/362/5 117/365/5 717/845/5 719/363/5
f 87/235/4 88/237/4 720/364/4 718/844/4
f 53/288/2 67/331/2 715/846/2 713/328/2
f 163/398/2 133/233/2 722/847/2 721/848/2
f 292/559/6 318/596/6 735/849/6 736/850/6
f 188/45/6 214/66/6 727/851/6 728/852/6
f 344/628/6 370/659/6 739/853/6 740/854/6
f 396/689/6 422/720/6 743/855/6 744/856/6
f 266/68/1 265/529/1 729/722/1 731/457/1
f 318/596/1 317/599/1 733/661/1 735/849/1
f 214/66/1 213/459/1 725/598/1 727/851/1
f 370/659/1 369/525/1 737/528/1 739/853/1
f 422/720/1 421/394/1 741/397/1 743/855/1
f 133/233/3 136/239/3 724/857/3 722/847/3
f 239/489/3 240/65/3 732/458/3 730/721/3
f 136/239/6 164/391/6 723/858/6 724/857/6
f 291/558/3 292/559/3 736/850/3 734/660/3
f 164/391/1 163/398/1 721/848/1 723/858/1
f 187/423/3 188/45/3 728/852/3 726/597/3
f 343/526/3 344/628/3 740/854/3 738/527/3
f 395/395/3 396/689/3 744/856/3 742/396/3
f 188/45/4 189/63/4 756/165/4 755/46/4
f 783/859/4 919/860/4 920/861/4 784/862/4
f 837/863/3 921/864/3 922/865/3 785/866/3
f 785/866/5 922/865/5 923/867/5 786/868/5
f 861/869/1 924/870/1 919/871/1 783/872/1
f 841/873/2 781/874/2 779/875/2 836/876/2
f 862/877/1 861/869/1 783/872/1 790/878/1
f 788/879/5 785/866/5 786/868/5 789/880/5
f 838/881/3 837/863/3 785/866/3 788/879/3
f 790/882/4 783/859/4 784/862/4 787/883/4
f 794/884/4 790/882/4 787/883/4 791/885/4
f 839/886/3 838/881/3 788/879/3 792/887/3
f 792/887/5 788/879/5 789/880/5 793/888/5
f 863/889/1 862/877/1 790/878/1 794/890/1
f 864/891/1 863/889/1 794/890/1 798/892/1
f 796/893/5 792/887/5 793/888/5 797/894/5
f 840/895/3 839/886/3 792/887/3 796/893/3
f 798/896/4 794/884/4 791/885/4 795/897/4
f 775/898/4 798/896/4 795/897/4 777/899/4
f 841/900/3 840/895/3 796/893/3 781/874/3
f 781/874/5 796/893/5 797/894/5 779/875/5
f 866/901/1 864/891/1 798/892/1 775/902/1
f 824/903/1 834/904/1 810/905/1 801/906/1
f 811/907/3 822/908/3 809/909/3 799/910/3
f 855/911/4 856/912/4 914/913/4 912/914/4
f 834/904/1 833/915/1 807/916/1 810/905/1
f 833/915/1 832/917/1 806/918/1 807/916/1
f 821/919/3 820/920/3 805/921/3 808/922/3
f 808/922/4 809/909/4 902/923/4 900/924/4
f 832/917/1 831/925/1 803/926/1 806/918/1
f 811/927/2 799/928/2 801/929/2 818/930/2
f 831/925/1 927/931/1 928/932/1 803/926/1
f 819/933/3 925/934/3 926/935/3 804/936/3
f 855/911/3 930/937/3 925/934/3 819/933/3
f 847/938/2 811/927/2 818/930/2 854/939/2
f 856/912/3 855/911/3 819/933/3 820/920/3
f 857/940/3 856/912/3 820/920/3 821/919/3
f 858/941/3 857/940/3 821/919/3 822/908/3
f 847/942/3 858/941/3 822/908/3 811/907/3
f 801/906/1 810/905/1 816/943/1 818/944/1
f 843/945/2 831/925/2 880/946/2 879/947/2
f 807/916/1 806/918/1 814/948/1 815/949/1
f 806/918/4 803/926/4 873/950/4 874/951/4
f 803/926/1 928/932/1 929/952/1 813/953/1
f 843/945/1 932/954/1 927/931/1 831/925/1
f 852/955/4 851/956/4 887/957/4 888/958/4
f 845/959/1 844/960/1 832/917/1 833/915/1
f 803/926/2 813/953/2 875/961/2 873/950/2
f 836/962/1 846/963/1 834/904/1 824/903/1
f 799/910/3 809/909/3 828/964/3 829/965/3
f 809/909/3 808/922/3 827/966/3 828/964/3
f 808/922/3 805/921/3 826/967/3 827/966/3
f 805/921/3 804/936/3 825/968/3 826/967/3
f 799/928/2 829/969/2 824/970/2 801/929/2
f 804/936/3 926/935/3 931/971/3 825/968/3
f 779/875/1 797/894/1 846/963/1 836/962/1
f 797/894/1 793/888/1 845/959/1 846/963/1
f 793/888/1 789/880/1 844/960/1 845/959/1
f 789/880/1 786/868/1 843/945/1 844/960/1
f 786/868/1 923/867/1 932/954/1 843/945/1
f 829/965/3 828/964/3 840/895/3 841/900/3
f 805/921/6 820/920/6 897/972/6 898/973/6
f 827/966/3 826/967/3 838/881/3 839/886/3
f 857/940/4 858/941/4 918/974/4 916/975/4
f 829/969/2 841/873/2 836/876/2 824/970/2
f 825/968/3 931/971/3 921/864/3 837/863/3
f 859/976/3 870/977/3 858/941/3 847/942/3
f 819/933/2 804/936/2 896/978/2 895/979/2
f 869/980/3 868/981/3 856/912/3 857/940/3
f 837/863/4 838/881/4 908/982/4 907/983/4
f 859/984/2 847/938/2 854/939/2 866/985/2
f 867/986/3 934/987/3 930/937/3 855/911/3
f 818/944/1 816/943/1 852/955/1 854/988/1
f 816/943/1 815/949/1 851/956/1 852/955/1
f 815/949/1 814/948/1 850/989/1 851/956/1
f 814/948/1 813/953/1 849/990/1 850/989/1
f 813/953/1 929/952/1 933/991/1 849/990/1
f 784/862/3 920/861/3 934/987/3 867/986/3
f 777/992/2 859/984/2 866/985/2 775/993/2
f 787/883/3 784/862/3 867/986/3 868/981/3
f 791/885/3 787/883/3 868/981/3 869/980/3
f 795/897/3 791/885/3 869/980/3 870/977/3
f 777/899/3 795/897/3 870/977/3 859/976/3
f 854/988/1 852/955/1 864/891/1 866/901/1
f 846/963/4 845/959/4 883/994/4 885/995/4
f 851/956/1 850/989/1 862/877/1 863/889/1
f 849/990/2 861/869/2 891/996/2 889/997/2
f 800/998/1 817/999/1 941/1000/1 942/1001/1
f 849/990/1 933/991/1 924/870/1 861/869/1
f 862/877/6 850/989/6 890/1002/6 892/1003/6
f 833/915/5 834/904/5 886/1004/5 884/1005/5
f 814/948/6 806/918/6 874/951/6 876/1006/6
f 832/917/6 844/960/6 881/1007/6 882/1008/6
f 851/956/2 863/889/2 893/1009/2 887/957/2
f 844/960/4 843/945/4 879/947/4 881/1007/4
f 863/889/5 864/891/5 894/1010/5 893/1009/5
f 807/916/2 815/949/2 877/1011/2 871/1012/2
f 850/989/4 849/990/4 889/997/4 890/1002/4
f 815/949/5 816/943/5 878/1013/5 877/1011/5
f 845/959/2 833/915/2 884/1005/2 883/994/2
f 864/891/6 852/955/6 888/958/6 894/1010/6
f 816/943/6 810/905/6 872/1014/6 878/1013/6
f 834/904/6 846/963/6 885/995/6 886/1004/6
f 810/905/4 807/916/4 871/1012/4 872/1014/4
f 861/869/5 862/877/5 892/1003/5 891/996/5
f 813/953/5 814/948/5 876/1006/5 875/961/5
f 831/925/5 832/917/5 882/1008/5 880/946/5
f 825/968/2 837/863/2 907/983/2 905/1015/2
f 867/986/2 855/911/2 912/914/2 911/1016/2
f 828/964/5 827/966/5 903/1017/5 904/1018/5
f 868/981/5 867/986/5 911/1016/5 913/1019/5
f 820/920/5 819/933/5 895/979/5 897/972/5
f 838/881/6 826/967/6 906/1020/6 908/982/6
f 856/912/6 868/981/6 913/1019/6 914/913/6
f 821/919/2 808/922/2 900/924/2 899/1021/2
f 827/966/2 839/886/2 909/1022/2 903/1017/2
f 839/886/4 840/895/4 910/1023/4 909/1022/4
f 869/980/2 857/940/2 916/975/2 915/1024/2
f 826/967/5 825/968/5 905/1015/5 906/1020/5
f 809/909/6 822/908/6 901/1025/6 902/923/6
f 870/977/5 869/980/5 915/1024/5 917/1026/5
f 840/895/6 828/964/6 904/1018/6 910/1023/6
f 822/908/5 821/919/5 899/1021/5 901/1025/5
f 804/936/4 805/921/4 898/973/4 896/978/4
f 858/941/6 870/977/6 917/1026/6 918/974/6
f 776/1027/6 778/1028/6 920/1029/6 919/1030/6
f 835/1031/6 782/1032/6 922/865/6 921/1033/6
f 782/1032/6 780/1034/6 923/867/6 922/865/6
f 860/1035/6 776/1027/6 919/1030/6 924/1036/6
f 817/999/6 800/998/6 926/1037/6 925/1038/6
f 830/1039/6 802/1040/6 928/1041/6 927/1042/6
f 802/1040/6 812/1043/6 929/1044/6 928/1041/6
f 853/1045/6 817/999/6 925/1038/6 930/1046/6
f 800/998/6 823/1047/6 931/1048/6 926/1037/6
f 842/1049/6 830/1039/6 927/1042/6 932/1050/6
f 823/1047/6 835/1031/6 921/1033/6 931/1048/6
f 780/1034/6 842/1049/6 932/1050/6 923/867/6
f 812/1043/6 848/1051/6 933/1052/6 929/1044/6
f 865/1053/6 853/1045/6 930/1046/6 934/1054/6
f 848/1051/6 860/1035/6 924/1036/6 933/1052/6
f 778/1028/6 865/1053/6 934/1054/6 920/1029/6
f 848/1051/3 812/1043/3 945/1055/3 949/1056/3
f 802/1040/3 830/1039/3 943/1057/3 944/1058/3
f 853/1045/1 865/1053/1 950/1059/1 946/1060/1
f 812/1043/3 802/1040/3 944/1058/3 945/1055/3
f 860/1035/3 848/1051/3 949/1056/3 940/1061/3
f 817/999/1 853/1045/1 946/1060/1 941/1000/1
f 778/1028/5 776/1027/5 935/1062/5 936/1063/5
f 865/1053/1 778/1028/7 936/1063/7 950/1059/1
f 823/1047/1 800/998/1 942/1001/1 947/1064/1
f 782/1032/3 835/1031/3 937/1065/3 938/1066/3
f 830/1039/3 842/1049/3 948/1067/3 943/1057/3
f 780/1034/4 782/1032/4 938/1066/4 939/1068/4
f 835/1031/1 823/1047/1 947/1064/1 937/1065/1
f 776/1027/3 860/1035/3 940/1061/3 935/1062/3
f 842/1049/1 780/1034/1 939/1068/1 948/1067/1
usemtl Teto
f 141/9/6 128/217/6 14/216/6 47/299/6
f 127/406/6 144/10/6 94/220/6 13/219/6
f 184/479/6 194/13/6 144/10/6 127/406/6 160/444/6
f 220/2/6 217/1/6 191/14/6 194/13/6
f 262/581/6 272/17/6 220/2/6 210/511/6 236/546/6
f 210/511/6 220/2/6 194/13/6 184/479/6
f 217/1/6 200/466/6 174/421/6 191/14/6
f 324/1069/6 321/1070/6 269/19/6 272/17/6
f 269/19/6 252/534/6 226/488/6 200/466/6 217/1/6
f 314/646/6 324/1069/6 272/17/6 262/581/6 288/616/6
f 246/15/8 298/12/8 295/11/8 243/16/8
f 321/1070/6 304/605/6 278/556/6 252/534/6 269/19/6
f 347/36/6 321/1070/6 324/1069/6 350/24/6 570/23/6 566/35/6
f 562/18/8 561/20/8 559/4/8 560/3/8
f 347/36/6 330/626/6 304/605/6 321/1070/6
f 340/678/6 350/24/6 324/1069/6 314/646/6
f 366/709/6 376/21/6 350/24/6 340/678/6
f 373/26/6 356/666/6 330/626/6 347/36/6
f 399/25/6 382/687/6 356/666/6 373/26/6
f 392/732/6 402/32/6 376/21/6 366/709/6
f 114/314/6 64/312/6 48/176/6 425/34/6 565/33/6 569/30/6 428/29/6 84/358/6
f 418/214/6 428/29/6 402/32/6 392/732/6
f 425/34/6 408/725/6 382/687/6 399/25/6
f 48/176/6 16/175/6 408/725/6 425/34/6
f 141/9/6 47/299/6 74/336/6 104/367/6 94/220/6 144/10/6
f 15/213/6 84/358/6 428/29/6 418/214/6
f 191/14/6 174/421/6 150/405/6 128/217/6 141/9/6
f 567/31/6 569/30/6 565/33/6 563/28/6
f 570/23/6 568/22/6 564/27/6 566/35/6
f 640/94/5 643/42/5 656/1071/5 655/1072/5
f 652/41/4 650/37/4 658/1073/4 660/1074/4
f 657/1075/2 659/1076/2 653/1077/2 654/1078/2
f 656/1071/2 660/1074/2 658/1073/2 655/1072/2
f 651/48/9 641/52/9 653/1077/9 659/1076/9
f 637/93/1 649/64/1 657/1075/1 654/1078/1
f 649/64/4 651/48/4 659/1076/4 657/1075/4
f 643/42/10 652/41/10 660/1074/10 656/1071/10
f 641/52/5 637/93/5 654/1078/5 653/1077/5
f 650/37/3 640/94/3 655/1072/3 658/1073/3
f 942/1001/6 941/1000/6 946/1060/6 950/1059/6 936/1063/6 935/1062/6 940/1061/6 949/1056/6 945/1055/6 944/1058/6 943/1057/6 948/1067/6 939/1068/6 938/1066/6 937/1065/6 947/1064/6
usemtl Janelas
f 437/763/5 435/762/5 436/761/5 438/760/5
f 433/402/5 431/719/5 432/724/5 434/403/5
f 445/455/5 443/658/5 444/657/5 446/456/5
f 441/765/5 439/764/5 440/776/5 442/777/5
f 453/664/5 451/663/5 452/768/5 454/774/5
f 449/755/5 447/532/5 448/464/5 450/463/5
f 461/767/5 459/766/5 460/754/5 462/753/5
f 457/603/5 455/602/5 456/771/5 458/773/5
f 469/757/5 467/524/5 468/523/5 470/758/5
f 465/770/5 463/769/5 464/778/5 466/779/5
f 477/594/5 475/593/5 476/772/5 478/775/5
f 473/759/5 471/389/5 472/388/5 474/756/5
f 480/443/4 479/442/4 485/569/4 486/636/4
f 482/802/4 481/801/4 483/792/4 484/791/4
f 488/785/4 487/784/4 493/794/4 494/793/4
f 490/782/4 489/500/4 491/499/4 492/783/4
f 496/799/4 495/798/4 501/804/4 502/803/4
f 498/752/4 497/751/4 499/580/4 500/579/4
f 504/700/4 503/699/4 509/510/4 510/509/4
f 506/747/4 505/786/4 507/795/4 508/748/4
f 512/790/4 511/789/4 517/797/4 518/796/4
f 514/787/4 513/781/4 515/780/4 516/788/4
f 520/707/4 519/800/4 525/805/4 526/708/4
f 522/645/4 521/644/4 523/433/4 524/432/4
f 533/809/1 531/808/1 532/276/1 534/275/1
f 529/813/1 527/810/1 528/807/1 530/806/1
f 536/815/1 535/812/1 541/811/1 542/814/1
f 538/373/1 537/375/1 539/296/1 540/295/1
f 544/819/3 543/818/3 549/823/3 550/825/3
f 546/816/3 545/361/3 547/360/3 548/817/3
f 557/335/3 555/334/3 556/325/3 558/324/3
f 553/822/3 551/821/3 552/820/3 554/824/3
f 683/827/1 681/829/1 682/830/1 684/828/1
f 686/285/1 685/826/1 687/374/1 688/286/1
f 690/842/4 689/838/4 691/837/4 692/839/4
f 694/503/4 693/841/4 695/833/4 696/504/4
f 698/702/4 697/834/4 699/835/4 700/703/4
f 702/574/4 701/836/4 703/840/4 704/575/4
f 706/438/4 705/750/4 707/749/4 708/439/4
f 710/831/4 709/639/4 711/638/4 712/832/4
f 714/329/3 713/328/3 715/846/3 716/843/3
f 719/363/3 717/845/3 718/844/3 720/364/3
f 723/858/5 721/848/5 722/847/5 724/857/5
f 727/851/5 725/598/5 726/597/5 728/852/5
f 731/457/5 729/722/5 730/721/5 732/458/5
f 735/849/5 733/661/5 734/660/5 736/850/5
f 739/853/5 737/528/5 738/527/5 740/854/5
f 743/855/5 741/397/5 742/396/5 744/856/5
f 872/1014/1 871/1012/1 877/1011/1 878/1013/1
f 874/951/1 873/950/1 875/961/1 876/1006/1
f 881/1007/1 879/947/1 880/946/1 882/1008/1
f 885/995/1 883/994/1 884/1005/1 886/1004/1
f 888/958/1 887/957/1 893/1009/1 894/1010/1
f 890/1002/1 889/997/1 891/996/1 892/1003/1
f 901/1025/3 899/1021/3 900/924/3 902/923/3
f 897/972/3 895/979/3 896/978/3 898/973/3
f 904/1018/3 903/1017/3 909/1022/3 910/1023/3
f 906/1020/3 905/1015/3 907/983/3 908/982/3
f 917/1026/3 915/1024/3 916/975/3 918/974/3
f 913/1019/3 911/1016/3 912/914/3 914/913/3
