# Blender MTL File: 'TrafficLight.blend'
# Material Count: 4

newmtl Material
Ns 225.000000
Ka 1.000000 1.000000 1.000000
Kd 0.800000 0.019811 0.048296
Ks 0.500000 0.500000 0.500000
Ke 0.000000 0.000000 0.000000
Ni 1.450000
d 1.000000
illum 2

newmtl Material.001
Ns 225.000000
Ka 1.000000 1.000000 1.000000
Kd 0.800000 0.581533 0.153202
Ks 0.500000 0.500000 0.500000
Ke 0.000000 0.000000 0.000000
Ni 1.450000
d 1.000000
illum 2

newmtl Material.002
Ns 225.000000
Ka 1.000000 1.000000 1.000000
Kd 0.137154 0.800000 0.090008
Ks 0.500000 0.500000 0.500000
Ke 0.000000 0.000000 0.000000
Ni 1.450000
d 1.000000
illum 2

newmtl initialShadingGroup
Ns 225.000000
Ka 1.000000 1.000000 1.000000
Kd 0.800000 0.800000 0.800000
Ks 0.500000 0.500000 0.500000
Ke 0.000000 0.000000 0.000000
Ni 1.450000
d 1.000000
illum 2
