# Blender MTL File: 'Hippo.blend'
# Material Count: 2

newmtl Material
Ns 225.000000
Ka 1.000000 1.000000 1.000000
Kd 0.800000 0.800000 0.800000
Ks 0.500000 0.500000 0.500000
Ke 0.000000 0.000000 0.000000
Ni 1.450000
d 1.000000
illum 2

newmtl material0
Ns 179.999996
Ka 1.000000 1.000000 1.000000
Kd 0.341176 0.560784 0.878431
Ks 0.500000 0.500000 0.500000
Ke 0.000000 0.000000 0.000000
Ni 1.450000
d 0.000000
illum 9
