# Blender v2.83.0 OBJ File: 'Ornitho.blend'
# www.blender.org
mtllib Ornitho.mtl
o ornithorinque
v 0.087633 0.210532 0.601832
v 0.108320 0.229981 0.536746
v 0.104207 0.042617 0.411652
v 0.131675 0.129681 0.584364
v 0.151492 0.164415 0.442550
v 0.089875 0.257971 0.575290
v 0.121733 0.276091 0.401029
v 0.228324 0.116619 0.256202
v 0.195307 0.063137 0.281768
v 0.189626 0.053221 0.235528
v 0.159694 0.032854 0.039342
v 0.215566 0.092208 0.201326
v 0.241330 0.191201 0.164576
v 0.162118 0.334340 0.015406
v 0.183608 0.263190 -0.124867
v 0.124446 0.125927 -0.284355
v 0.036521 0.045106 0.581764
v 0.041366 0.255252 0.609466
v 0.064090 0.162982 0.667826
v 0.112931 0.093541 0.827940
v 0.081911 0.123264 0.633831
v 0.012196 0.146129 0.814530
v 0.112010 0.125037 0.847425
v 0.315342 0.054518 0.180013
v 0.333504 0.051831 0.247481
v 0.249808 0.076052 0.253165
v 0.335829 0.054613 0.285217
v 0.283839 0.049518 0.382634
v 0.234598 0.071606 0.290897
v 0.335944 0.046706 0.339765
v 0.378066 0.023189 0.221006
v 0.278982 0.017384 0.398437
v 0.374260 0.013937 0.289542
v 0.344763 0.013801 0.355549
v 0.338638 0.020172 0.160368
v 0.256335 0.068462 0.205370
v 0.197593 0.127632 -0.179605
v 0.256628 0.056516 -0.275128
v 0.312700 0.003659 -0.267694
v 0.275147 0.063973 -0.245810
v 0.291004 0.046504 -0.213127
v 0.226890 0.072476 -0.267877
v 0.209073 0.087509 -0.121550
v 0.297125 0.015754 -0.203842
v 0.297371 0.025359 -0.307751
v 0.156949 0.106012 -0.223599
v 0.176673 0.070710 -0.309393
v 0.234375 0.054165 -0.327962
v 0.174941 0.056598 -0.137928
v 0.085318 0.029200 -0.192078
v 0.028200 0.206808 -0.324954
v 0.105123 0.106943 -0.638723
v -0.057344 0.248771 0.595784
v -0.087048 0.217889 0.560721
v -0.060793 0.214923 0.606801
v -0.027268 0.303339 0.471055
v -0.112939 0.237811 0.428300
v -0.128982 0.110361 0.425407
v -0.124620 0.125166 0.555241
v -0.050679 0.046538 0.561253
v -0.000731 0.004861 0.249267
v -0.132898 0.031788 0.036772
v -0.071246 0.029847 -0.140830
v -0.172954 0.054981 0.225646
v -0.080017 0.344146 0.299900
v -0.203005 0.126739 0.282052
v -0.172380 0.057787 0.264952
v -0.205757 0.103440 0.216516
v -0.152470 0.053243 -0.141412
v -0.137468 0.112182 -0.221891
v -0.195495 0.096518 -0.108043
v -0.175367 0.128559 -0.181635
v -0.108332 0.110715 -0.279431
v -0.221141 0.215087 0.045677
v -0.132994 0.338950 0.024312
v -0.145865 0.271303 -0.144968
v -0.037035 0.191669 -0.320250
v -0.080040 0.140867 0.616289
v -0.042916 0.169370 0.663545
v -0.090156 0.092727 0.831281
v -0.088546 0.124116 0.861582
v -0.216111 0.078631 0.280184
v -0.237824 0.072716 0.215140
v -0.322075 0.047097 0.295024
v -0.317549 0.052715 0.243393
v -0.304284 0.052823 0.339048
v -0.358705 0.022763 0.218623
v -0.316362 0.027864 0.159183
v -0.271326 0.044717 0.356051
v -0.358662 0.013480 0.278583
v -0.333893 0.021683 0.357439
v -0.259472 0.034045 0.402724
v -0.201241 0.068374 -0.277292
v -0.247766 0.059722 -0.262732
v -0.272099 0.043247 -0.218042
v -0.293517 0.011982 -0.224344
v -0.211123 0.064686 -0.326874
v -0.206672 0.091502 -0.176769
v -0.271082 0.012949 -0.313551
v -0.157961 0.072303 -0.302107
v -0.087094 0.110429 -0.633878
v 0.075127 0.355992 0.282413
v 0.009268 0.383883 -0.005920
v -0.058422 0.090034 0.631429
v 0.077805 0.087154 0.625132
v 0.017938 0.084682 0.876128
v 0.011253 0.083280 -0.716661
v -0.029048 0.015992 -0.675074
v 0.051919 0.018407 -0.671978
vt 0.912920 1.305627
vt 0.852573 1.236016
vt 0.933581 1.281588
vt 0.936200 1.375501
vt 0.901255 1.327802
vt 0.935642 1.325460
vt 0.848917 1.388744
vt 0.217992 1.547709
vt 0.199399 1.675405
vt 0.118241 1.621074
vt 0.230106 1.673351
vt 0.476633 1.597461
vt 0.495243 1.650473
vt 0.454539 1.661180
vt 0.338748 1.642993
vt 0.251012 1.690503
vt 0.423816 1.682730
vt 0.505541 1.422478
vt 0.674422 1.387081
vt 0.696550 1.454744
vt 0.738119 1.442108
vt 0.464872 1.380512
vt 0.525745 1.323516
vt 0.609898 1.309284
vt 0.803744 1.309482
vt 0.404510 1.226087
vt 0.604762 1.234713
vt 0.392548 1.330100
vt 0.937752 1.309883
vt 0.026101 1.611539
vt 0.031120 1.582420
vt 0.051335 1.625455
vt 0.651233 1.727772
vt 0.695944 1.709016
vt 0.718028 1.735230
vt 0.676980 1.684450
vt 0.147668 1.717994
vt 0.137628 1.743328
vt 0.113518 1.716495
vt 0.229414 1.962517
vt 0.214338 1.944720
vt 0.249212 1.957598
vt 0.141249 1.875636
vt 0.152784 1.905753
vt 0.085817 1.869726
vt 0.060375 1.337770
vt 0.068638 1.360437
vt 0.055797 1.362298
vt 0.922061 1.191357
vt 0.925046 1.218194
vt 0.842610 1.167099
vt 0.943463 1.204188
vt 0.959542 1.164445
vt 0.937423 1.134406
vt 0.968202 1.150611
vt 0.966603 1.139220
vt 0.968591 1.108615
vt 0.880785 1.096655
vt 0.037836 1.533279
vt 0.200880 1.448179
vt 0.112726 1.471468
vt 0.454413 1.497421
vt 0.489748 1.457955
vt 0.541071 1.479307
vt 0.243015 1.423376
vt 0.333682 1.473708
vt 0.237956 1.441150
vt 0.740937 1.040752
vt 0.780686 1.065701
vt 0.629449 1.094769
vt 0.416797 1.424209
vt 0.439043 1.446294
vt 0.533467 1.037620
vt 0.538014 1.141890
vt 0.492334 1.071068
vt 0.392781 1.106048
vt 0.449093 1.073271
vt 0.347115 1.408073
vt 0.621786 1.167832
vt 0.393486 1.167983
vt 0.721688 1.780727
vt 0.717730 1.805181
vt 0.674654 1.806499
vt 0.833385 1.820740
vt 0.797139 1.818784
vt 0.788208 1.768755
vt 0.686856 1.842676
vt 0.898242 1.651488
vt 0.854585 1.651114
vt 0.898435 1.623864
vt 0.841411 1.615817
vt 0.839455 1.899786
vt 0.859403 1.874729
vt 0.945018 1.875359
vt 0.358582 1.949617
vt 0.400416 1.925779
vt 0.389545 1.961246
vt 0.737067 1.273354
vt 0.749985 1.202115
vt 0.185386 1.350071
vt 0.170555 1.359770
vt 0.159564 1.346755
vt 0.869921 1.427658
vt 0.761815 1.451512
vt 0.103494 1.658896
vt 0.430402 1.372625
vt 0.632583 1.698535
vt 0.815706 1.732093
vt 0.804079 1.699241
vt 0.822524 1.708353
vt 0.194552 1.931201
vt 0.213556 1.915702
vt 0.715076 1.890712
vt 0.681957 1.951951
vt 0.678424 1.907022
vt 0.524137 1.638784
vt 0.055865 1.499628
vt 0.183447 1.435818
vt 0.375533 1.908325
vt 0.922027 1.645825
vt 0.942889 1.590337
vt 0.628332 1.910028
vt 0.627816 1.956597
vt 0.593880 1.883876
vt 0.833161 1.651878
vt 0.836113 1.642509
vt 0.100043 1.754866
vt 0.074058 1.717494
vt 0.078830 1.797423
vt 0.105375 1.803002
vt 0.134300 1.813167
vt 0.167353 1.793657
vt 0.102955 1.833287
vt 0.063642 1.746642
vt 0.172355 1.772021
vt 0.142523 1.828429
vt 0.060446 1.816016
vt 0.232811 1.860369
vt 0.273680 1.860367
vt 0.302590 1.878632
vt 0.322279 1.918622
vt 0.314844 1.960130
vt 0.092991 1.900220
vt 0.166852 1.958076
vt 0.084585 1.933703
vt 0.085879 1.960021
vt 0.080144 1.971155
vt 0.045959 1.939151
vt 0.160047 1.975561
vt 0.776459 1.935087
vt 0.743677 1.966034
vt 0.718350 1.607546
vt 0.184649 1.248718
vt 0.744915 1.534477
vt 0.717563 1.499127
vt 0.930670 1.573581
vt 0.907198 1.561160
vt 0.861264 1.534205
vt 0.876092 1.557145
vt 0.829594 1.552053
vt 0.848555 1.568907
vt 0.913397 1.541965
vt 0.955079 1.913230
vt 0.933782 1.959053
vt 0.863319 1.971834
vt 0.447311 1.885106
vt 0.443576 1.858217
vt 0.457405 1.911088
vt 0.468523 1.876406
vt 0.489691 1.911047
vt 0.451018 1.946379
vt 0.468761 1.949378
vt 0.529210 1.913310
vt 0.542122 1.951948
vt 0.192791 1.152590
vt 0.147183 1.198995
vt 0.155330 1.149865
vt 0.744131 1.573038
vt 0.769929 1.550087
vt 0.044885 1.775847
vt 0.032560 1.786893
vt 0.158518 1.747376
vt 0.178340 1.796546
vt 0.074476 1.916184
vt 0.048150 1.927481
vt 0.061536 1.892551
vt 0.784154 1.913575
vt 0.767496 1.897272
vt 0.805406 1.580590
vt 0.944776 1.561379
vt 0.902486 1.974339
vt 0.841827 1.919787
vt 0.392721 1.868909
vt 0.564125 1.879416
vt 0.149783 1.248125
vt 0.935725 1.705574
vt 0.575022 1.784993
vt 0.549620 1.749161
vt 0.563536 1.825464
vt 0.565832 1.841919
vt 0.953606 1.807155
vt 0.961504 1.750309
vt 0.534783 1.786893
vt 0.541997 1.739669
vt 0.837203 1.851593
vn 0.6315 0.6507 0.4218
vn -0.2224 0.9293 0.2948
vn 0.1408 0.7462 0.6506
vn 0.9077 -0.1885 0.3748
vn 0.8902 0.4307 0.1482
vn 0.7448 0.3949 0.5379
vn 0.9641 0.0161 0.2651
vn -0.0190 -0.9983 0.0560
vn 0.4591 -0.7774 0.4300
vn 0.5099 -0.8330 0.2148
vn 0.1214 -0.9905 -0.0649
vn 0.3191 -0.9358 -0.1496
vn 0.2932 -0.3877 -0.8739
vn 0.3181 -0.9479 0.0184
vn 0.4600 -0.8878 -0.0117
vn 0.8842 -0.3237 -0.3369
vn 0.9540 -0.2775 0.1135
vn 0.9751 0.2072 0.0795
vn 0.9522 0.1764 0.2496
vn 0.8825 0.3706 -0.2896
vn 0.7258 0.5736 -0.3797
vn 0.6273 0.7711 -0.1090
vn 0.6884 0.6640 0.2920
vn 0.1882 0.8830 -0.4299
vn 0.0058 0.9775 -0.2107
vn 0.9210 0.0437 -0.3871
vn 0.5976 -0.7610 0.2527
vn 0.2090 -0.9133 0.3497
vn 0.5692 0.7145 0.4068
vn -0.2481 0.7208 0.6472
vn -0.5988 0.0647 -0.7982
vn -0.8414 0.2534 0.4773
vn -0.5140 0.6679 0.5383
vn -0.8569 0.3888 0.3384
vn -0.8525 0.4583 0.2512
vn -0.9104 0.1214 0.3955
vn -0.9350 -0.1803 0.3055
vn -0.5532 -0.7918 0.2589
vn -0.3759 -0.8875 0.2664
vn -0.9391 -0.1833 0.2908
vn -0.1092 -0.9262 0.3608
vn -0.2748 -0.9547 -0.1141
vn -0.3220 -0.6421 -0.6957
vn -0.9445 -0.1095 -0.3098
vn -0.9754 -0.0569 -0.2131
vn -0.4435 -0.8955 -0.0378
vn -0.2505 -0.9514 -0.1792
vn -0.9311 0.0993 0.3510
vn -0.9651 0.2608 -0.0244
vn -0.9346 -0.3522 -0.0498
vn -0.1934 -0.9424 0.2729
vn -0.6464 0.6263 -0.4358
vn -0.8080 0.4870 -0.3315
vn -0.5905 0.8035 -0.0753
vn -0.4764 0.7833 -0.3993
vn -0.4128 0.8211 0.3943
vn -0.1320 0.8289 0.5436
vn -0.1629 0.8160 -0.5546
vn 0.1060 -0.1214 0.9869
vn -0.8511 0.4367 0.2915
vn 0.3423 0.9165 0.2069
vn -0.4958 0.8412 0.2159
vn 0.9243 -0.1029 0.3676
vn -0.0473 0.6662 -0.7443
vn 0.6604 0.1122 -0.7425
vn 0.5431 0.8393 0.0269
vn 0.4732 0.8766 -0.0871
vn 0.5033 0.8633 0.0377
vn 0.5707 0.7338 0.3686
vn -0.0742 0.7025 0.7078
vn 0.9032 -0.4090 0.1304
vn -0.2438 -0.4247 0.8719
vn 0.6421 -0.5029 0.5786
vn 0.9489 -0.0782 -0.3058
vn 0.3708 -0.3253 -0.8699
vn 0.3609 0.8957 -0.2597
vn 0.5334 0.8347 -0.1371
vn 0.7839 0.5207 0.3382
vn 0.5863 -0.5473 0.5972
vn 0.7210 -0.6677 -0.1853
vn 0.8088 0.4046 -0.4267
vn -0.4554 -0.7358 -0.5012
vn -0.8055 0.4236 -0.4144
vn -0.1916 0.9025 0.3858
vn -0.3653 0.8508 0.3777
vn -0.8507 -0.5010 0.1592
vn -0.5282 0.8436 0.0969
vn -0.9261 -0.1608 -0.3414
vn -0.4231 0.9052 -0.0409
vn -0.6953 -0.3476 0.6291
vn -0.2883 -0.1948 -0.9375
vn -0.2773 0.9380 -0.2078
vn -0.5553 0.8077 -0.1981
vn 0.0076 0.4056 -0.9140
vn -0.5405 -0.4994 -0.6771
vn -0.7703 0.5825 0.2594
vn -0.8307 -0.4991 0.2465
vn 0.0098 0.2978 -0.9546
vn 0.4891 -0.7330 -0.4727
vn 0.2316 0.7510 -0.6183
vn 0.3821 0.8573 -0.3450
vn 0.5659 -0.1700 -0.8067
vn 0.0182 0.0593 -0.9981
vn 0.7680 -0.6053 0.2092
vn 0.0167 0.9579 0.2867
vn 0.7035 0.3933 0.5919
vn -0.6478 0.3039 0.6986
vn -0.7269 -0.6585 0.1948
vn 0.0534 -0.5293 0.8467
usemtl Default_OBJ
s 1
f 6/1/1 56/2/2 18/3/3
f 4/4/4 2/5/5 1/6/6
f 5/7/7 2/5/5 4/4/4
f 61/8/8 9/9/9 3/10/10
f 61/8/8 10/11/11 9/9/9
f 50/12/12 46/13/13 49/14/14
f 49/14/14 11/15/15 50/12/12
f 12/16/16 10/11/11 11/15/15
f 11/15/15 43/17/17 12/16/16
f 43/18/17 13/19/18 12/20/16
f 8/21/19 13/19/18 5/7/7
f 37/22/20 15/23/21 13/19/18
f 13/19/18 14/24/22 7/25/23
f 14/24/22 13/19/18 15/23/21
f 15/23/21 51/26/24 103/27/25
f 16/28/26 51/26/24 15/23/21
f 1/29/6 6/1/1 18/3/3
f 105/30/27 17/31/28 4/32/4
f 17/31/28 3/10/10 4/32/4
f 19/33/29 1/34/6 18/35/3
f 1/34/6 19/33/29 4/36/4
f 9/37/9 29/38/30 8/39/19
f 9/40/9 10/41/11 29/42/30
f 46/43/13 37/44/20 47/45/31
f 55/46/32 53/47/33 54/48/34
f 54/49/34 53/50/33 57/51/35
f 55/52/32 54/49/34 78/53/36
f 56/2/2 57/51/35 53/50/33
f 78/53/36 54/49/34 59/54/37
f 104/55/38 78/53/36 59/54/37
f 104/56/38 59/54/37 60/57/39
f 59/54/37 57/51/35 58/58/40
f 60/59/39 67/60/41 61/8/8
f 67/60/41 60/59/39 58/61/40
f 63/62/42 70/63/43 73/64/44
f 68/65/45 62/66/46 64/67/47
f 62/66/46 61/8/8 64/67/47
f 68/68/45 66/69/48 74/70/49
f 62/66/46 71/71/50 63/62/42
f 63/62/42 71/71/50 69/72/51
f 70/63/43 63/62/42 69/72/51
f 71/73/50 76/74/52 72/75/53
f 71/73/50 74/70/49 76/74/52
f 72/75/53 73/76/44 70/77/43
f 72/75/53 76/74/52 73/76/44
f 74/78/49 71/71/50 68/65/45
f 74/70/49 75/79/54 76/74/52
f 75/79/54 103/27/25 76/74/52
f 76/74/52 77/80/55 73/76/44
f 53/81/33 55/82/32 79/83/56
f 104/84/38 60/85/39 17/86/28
f 79/83/56 55/82/32 78/87/36
f 79/83/56 19/33/29 53/81/33
f 66/88/48 68/89/45 82/90/57
f 83/91/58 82/90/57 68/89/45
f 64/92/47 67/93/41 92/94/59
f 71/95/50 98/96/60 69/97/51
f 61/8/8 3/10/10 60/59/39
f 63/62/42 50/12/12 61/8/8
f 56/2/2 7/25/23 102/98/61
f 102/98/61 65/99/62 56/2/2
f 14/24/22 103/27/25 102/98/61
f 103/27/25 75/79/54 65/99/62
f 103/27/25 14/24/22 15/23/21
f 51/26/24 77/80/55 76/74/52
f 17/31/28 60/59/39 3/10/10
f 18/35/3 53/81/33 19/33/29
f 2/100/5 6/101/1 1/102/6
f 2/5/5 5/7/7 6/1/1
f 6/1/1 5/7/7 7/25/23
f 5/7/7 4/4/4 3/103/10
f 9/104/9 8/21/19 5/7/7
f 3/10/10 9/9/9 5/105/7
f 49/14/14 43/17/17 11/15/15
f 11/15/15 10/11/11 61/8/8
f 8/21/19 12/20/16 13/19/18
f 13/19/18 7/25/23 5/7/7
f 7/25/23 14/24/22 102/98/61
f 37/22/20 46/106/13 16/28/26
f 37/22/20 16/28/26 15/23/21
f 4/36/4 19/33/29 21/107/63
f 17/86/28 105/108/27 104/84/38
f 4/109/4 21/110/63 105/108/27
f 12/111/16 36/112/64 10/41/11
f 47/113/31 49/114/14 46/115/13
f 50/12/12 16/116/26 46/13/13
f 60/59/39 59/117/37 58/61/40
f 57/51/35 59/54/37 54/49/34
f 67/60/41 58/61/40 66/118/48
f 61/8/8 67/60/41 64/67/47
f 58/58/40 57/51/35 66/69/48
f 66/69/48 57/51/35 65/99/62
f 65/99/62 57/51/35 56/2/2
f 62/66/46 68/65/45 71/71/50
f 98/96/60 71/95/50 72/119/53
f 74/70/49 66/69/48 65/99/62
f 74/70/49 65/99/62 75/79/54
f 67/120/41 66/88/48 82/90/57
f 92/121/59 67/120/41 82/90/57
f 70/122/43 69/123/51 100/124/65
f 18/3/3 56/2/2 53/50/33
f 7/25/23 56/2/2 6/1/1
f 61/8/8 50/12/12 11/15/15
f 62/66/46 63/62/42 61/8/8
f 102/98/61 103/27/25 65/99/62
f 51/26/24 76/74/52 103/27/25
f 13/19/18 43/18/17 37/22/20
f 64/125/47 83/126/58 68/89/45
usemtl Material
f 29/38/30 26/127/66 8/39/19
f 26/127/66 12/128/16 8/39/19
f 25/129/67 26/127/66 27/130/68
f 30/131/69 29/38/30 28/132/70
f 30/131/69 26/127/66 29/38/30
f 30/131/69 27/130/68 26/127/66
f 33/133/71 25/129/67 27/130/68
f 27/130/68 30/131/69 33/133/71
f 12/128/16 26/127/66 36/134/64
f 29/38/30 32/135/72 28/132/70
f 33/133/71 30/131/69 34/136/73
f 31/137/74 25/129/67 33/133/71
f 35/138/75 31/139/74 33/140/71
f 33/140/71 34/141/73 32/142/72
f 47/45/31 37/44/20 42/143/76
f 37/44/20 43/144/17 42/143/76
f 42/143/76 43/144/17 40/145/77
f 41/146/78 44/147/79 39/148/80
f 49/149/14 41/146/78 43/144/17
f 39/150/80 44/151/79 49/114/14
f 47/113/31 39/150/80 49/114/14
f 50/12/12 52/152/81 16/116/26
f 52/153/81 77/80/55 51/26/24
f 108/154/82 63/62/42 73/64/44 101/155/83
f 89/156/84 82/90/57 86/157/85
f 90/158/86 86/157/85 84/159/87
f 87/160/88 90/158/86 85/161/89
f 86/157/85 91/162/90 89/156/84
f 64/92/47 92/94/59 91/163/90
f 91/163/90 90/164/86 88/165/91
f 91/163/90 88/165/91 64/92/47
f 98/96/60 72/119/53 93/166/92
f 93/166/92 72/119/53 100/167/65
f 93/166/92 94/168/93 98/96/60
f 94/168/93 97/169/94 99/170/95
f 94/168/93 95/171/96 98/96/60
f 95/171/96 96/172/97 98/96/60
f 69/97/51 98/96/60 96/172/97
f 99/173/95 69/123/51 96/174/97
f 73/76/44 77/80/55 101/175/83
f 52/153/81 101/175/83 77/80/55
f 107/176/98 101/175/83 52/153/81
f 107/176/98 108/177/82 101/175/83
f 109/178/99 108/154/82 107/179/98
f 36/134/64 26/127/66 24/180/100
f 25/129/67 24/180/100 26/127/66
f 31/137/74 35/181/75 25/129/67
f 25/129/67 35/181/75 24/180/100
f 29/38/30 10/182/11 32/135/72
f 28/132/70 32/183/72 34/136/73
f 28/132/70 34/136/73 30/131/69
f 35/181/75 36/134/64 24/180/100
f 32/142/72 35/138/75 33/140/71
f 35/138/75 32/142/72 10/41/11
f 38/184/101 42/143/76 40/145/77
f 40/145/77 45/185/102 38/184/101
f 45/185/102 40/145/77 41/146/78
f 45/185/102 41/146/78 39/148/80
f 41/146/78 40/145/77 43/144/17
f 45/185/102 48/186/103 38/184/101
f 48/186/103 42/143/76 38/184/101
f 42/143/76 48/186/103 47/45/31
f 49/149/14 44/147/79 41/146/78
f 45/187/102 39/150/80 48/188/103
f 47/113/31 48/188/103 39/150/80
f 50/12/12 109/178/99 52/152/81
f 16/28/26 52/153/81 51/26/24
f 84/159/87 82/90/57 83/91/58
f 84/159/87 86/157/85 82/90/57
f 82/90/57 89/156/84 92/121/59
f 90/158/86 84/159/87 85/161/89
f 88/189/91 85/161/89 83/91/58
f 88/189/91 87/160/88 85/161/89
f 85/161/89 84/159/87 83/91/58
f 86/157/85 90/158/86 91/162/90
f 92/190/59 89/156/84 91/162/90
f 88/165/91 90/164/86 87/191/88
f 88/165/91 83/192/58 64/92/47
f 70/193/43 100/167/65 72/119/53
f 94/168/93 99/170/95 95/171/96
f 95/171/96 99/170/95 96/172/97
f 94/168/93 93/166/92 97/169/94
f 97/169/94 93/166/92 100/167/65
f 99/173/95 97/194/94 100/124/65
f 100/124/65 69/123/51 99/173/95
f 108/154/82 109/178/99 50/12/12
f 107/176/98 52/153/81 109/195/99
f 10/41/11 36/112/64 35/138/75
f 63/62/42 108/154/82 50/12/12
usemtl Material.001
f 20/196/104 105/108/27 21/110/63
f 79/83/56 22/197/105 19/33/29
f 23/198/106 19/33/29 22/197/105
f 79/83/56 78/87/36 81/199/107
f 78/87/36 80/200/108 81/199/107
f 104/84/38 105/108/27 80/201/108
f 106/202/109 105/108/27 20/196/104
f 23/198/106 21/107/63 19/33/29
f 106/203/109 23/198/106 81/199/107
f 20/204/104 23/198/106 106/203/109
f 21/107/63 23/198/106 20/204/104
f 22/197/105 81/199/107 23/198/106
f 80/201/108 78/205/36 104/84/38
f 106/203/109 81/199/107 80/200/108
f 22/197/105 79/83/56 81/199/107
f 105/108/27 106/202/109 80/201/108
