# Blender v2.83.0 OBJ File: 'Penguin.blend'
# www.blender.org
mtllib Penguin.mtl
o Plane_Plane.001
v 0.087484 0.334734 0.233617
v 0.109972 0.210120 0.226582
v 0.089757 0.425017 0.076537
v 0.112245 0.325025 0.004240
v 0.109972 0.126872 0.200787
v 0.112245 0.249985 -0.039143
v 0.109972 0.053005 0.165612
v 0.112245 0.181980 -0.054385
v 0.109972 -0.013828 0.131609
v 0.112245 0.126872 -0.069628
v 0.109972 -0.039623 0.103469
v 0.110381 0.101211 -0.102649
v 0.106462 -0.037001 0.084709
v 0.110381 0.069697 -0.115656
v 0.110381 -0.029966 0.046478
v 0.110381 0.032177 -0.091033
v 0.110381 -0.018241 -0.026217
v 0.110381 0.005209 -0.061721
v 0.109972 0.368737 0.267619
v 0.112245 0.468399 0.094522
v 0.109972 0.480124 0.301622
v 0.112245 0.545784 0.137905
v 0.109972 0.535232 0.293414
v 0.112245 0.572752 0.171908
v 0.109972 0.571579 0.254722
v 0.112245 0.573814 0.258673
v -0.004887 0.425017 0.040402
v -0.004887 0.334734 0.262219
v 0.003048 0.210120 0.255184
v 0.003048 0.325025 -0.039443
v 0.003048 0.126872 0.229389
v 0.003048 0.249985 -0.082826
v 0.003048 0.053005 0.194214
v 0.003048 0.181980 -0.098068
v 0.003048 -0.013828 0.160211
v 0.003048 0.126872 -0.113311
v 0.003048 -0.039623 0.132071
v 0.003048 0.092870 -0.121518
v 0.003048 -0.058383 0.113311
v 0.003048 0.048315 -0.115656
v 0.003048 -0.051348 0.046478
v 0.003048 0.010795 -0.091033
v 0.003048 -0.039623 -0.026217
v 0.003048 -0.016173 -0.061721
v 0.003048 0.468399 0.050839
v 0.003048 0.368737 0.296221
v 0.003048 0.545784 0.094222
v 0.003048 0.480124 0.330224
v 0.003048 0.572752 0.128224
v 0.003048 0.535232 0.322016
v 0.003048 0.585649 0.214990
v 0.003048 0.571579 0.283324
v 0.058470 0.053005 0.194214
v 0.058470 0.126872 0.229389
v 0.058470 -0.039623 -0.026217
v 0.058470 -0.051348 0.046478
v 0.058470 0.210120 0.255184
v 0.050535 0.334734 0.262219
v 0.058470 0.249985 -0.082826
v 0.058470 0.181980 -0.098068
v 0.058470 0.010795 -0.091033
v 0.058470 -0.016173 -0.061721
v 0.058470 -0.058383 0.113311
v 0.058470 -0.039623 0.132071
v 0.058470 0.572752 0.128224
v 0.058470 0.545784 0.094222
v 0.050535 0.425017 0.040402
v 0.058470 0.325025 -0.039443
v 0.058470 0.092870 -0.121518
v 0.058470 0.048315 -0.115656
v 0.058470 0.480124 0.330224
v 0.058470 0.535232 0.322016
v 0.058470 -0.013828 0.160211
v 0.058470 0.468399 0.050839
v 0.058470 0.571579 0.283324
v 0.058470 0.585649 0.214990
v 0.058470 0.126872 -0.113311
v 0.058470 0.368737 0.296221
v 0.113892 0.035550 0.228522
v 0.113892 -0.031283 0.194519
v 0.058470 0.035550 0.228522
v 0.058470 -0.031283 0.194519
v 0.113892 0.011655 0.271113
v 0.113892 -0.040727 0.217457
v 0.058470 0.011655 0.271113
v 0.058470 -0.040727 0.217457
v 0.113892 -0.030924 0.302944
v 0.113892 -0.042418 0.228845
v 0.058470 -0.030924 0.302944
v 0.058470 -0.042418 0.228845
v 0.113892 -0.049867 0.305423
v 0.113892 -0.049722 0.230438
v 0.058470 -0.049867 0.305423
v 0.058470 -0.049722 0.230438
v 0.120034 0.379875 0.141286
v 0.142521 0.267573 0.107870
v 0.142521 0.188429 0.073281
v 0.142521 0.117492 0.048073
v 0.142521 0.056522 0.023450
v 0.142521 0.026624 0.005276
v 0.128673 -0.016742 -0.001172
v 0.113892 -0.020277 -0.022277
v 0.110381 -0.006516 -0.043969
v 0.142521 0.418568 0.173530
v 0.142521 0.512954 0.212223
v 0.142521 0.553992 0.225120
v 0.113892 0.573411 0.249157
v 0.003048 -0.027898 -0.043969
v 0.003048 0.578614 0.249157
v 0.058470 -0.027898 -0.043969
v 0.058470 0.578614 0.249157
v 0.003048 0.359554 0.326302
v 0.003048 0.427233 0.361865
v 0.058470 0.427233 0.361865
v 0.058470 0.359554 0.326302
v 0.003048 0.361050 0.362832
v 0.003048 0.397507 0.387468
v 0.058470 0.397507 0.387468
v 0.058470 0.361050 0.362832
v 0.003048 0.368984 0.375690
v 0.003048 0.393397 0.393551
v 0.058470 0.393397 0.393551
v 0.058470 0.368984 0.375690
v 0.142521 0.267573 0.107870
v 0.132429 0.286723 0.073327
v 0.142521 0.188429 0.073281
v 0.132429 0.208947 0.035807
v 0.142521 0.117492 0.048073
v 0.132429 0.138988 0.013920
v 0.142521 0.056522 0.023450
v 0.132429 0.079972 -0.007576
v 0.142521 0.026624 0.005276
v 0.131808 0.051486 -0.030699
v 0.128673 -0.016742 -0.001172
v 0.122576 0.012071 -0.039334
v 0.113892 -0.020277 -0.022277
v 0.112721 -0.002792 -0.045196
v 0.110381 -0.006516 -0.043969
v 0.110381 -0.002608 -0.049886
v 0.003048 -0.027898 -0.043969
v 0.003048 -0.023989 -0.049886
v 0.058470 0.578614 0.249157
v 0.058470 0.580959 0.237768
v 0.109942 0.394923 0.119703
v 0.120034 0.379875 0.141286
v 0.132429 0.435178 0.147194
v 0.142521 0.418568 0.173530
v 0.132429 0.523898 0.187450
v 0.142521 0.512954 0.212223
v 0.132429 0.560245 0.207383
v 0.142521 0.553992 0.225120
v 0.113343 0.573545 0.252329
v 0.113892 0.573411 0.249157
v 0.003048 0.580959 0.237768
v 0.003048 0.578614 0.249157
v 0.058470 -0.023989 -0.049886
v 0.058470 -0.027898 -0.043969
v 0.142521 0.267573 0.107870
v 0.132429 0.286723 0.073327
v 0.109942 0.394923 0.119703
v 0.120034 0.379875 0.141286
v 0.187293 0.255437 0.117305
v 0.177200 0.270071 0.086375
v 0.172781 0.340328 0.111070
v 0.182873 0.325281 0.132653
v 0.220582 0.249848 0.105169
v 0.210490 0.264482 0.074239
v 0.206070 0.310348 0.098935
v 0.216162 0.295301 0.120518
v 0.241799 0.245292 0.096016
v 0.236238 0.253355 0.078973
v 0.233802 0.278629 0.092581
v 0.239363 0.270338 0.104474
v -0.078713 0.334734 0.233617
v -0.101200 0.210120 0.226582
v -0.080986 0.425017 0.076537
v -0.103473 0.325025 0.004240
v -0.101200 0.126872 0.200787
v -0.103473 0.249985 -0.039143
v -0.101200 0.053005 0.165612
v -0.103473 0.181980 -0.054385
v -0.101200 -0.013828 0.131609
v -0.103473 0.126872 -0.069628
v -0.101200 -0.039623 0.103469
v -0.101610 0.101211 -0.102649
v -0.097690 -0.037001 0.084709
v -0.101610 0.069697 -0.115656
v -0.101610 -0.029966 0.046478
v -0.101610 0.032177 -0.091033
v -0.101610 -0.018241 -0.026217
v -0.101610 0.005209 -0.061721
v -0.101200 0.368737 0.267619
v -0.103473 0.468399 0.094522
v -0.101200 0.480124 0.301622
v -0.103473 0.545784 0.137905
v -0.101200 0.535232 0.293414
v -0.103473 0.572752 0.171908
v -0.101200 0.571579 0.254722
v -0.103473 0.573814 0.258673
v 0.013659 0.425017 0.040402
v 0.013659 0.334734 0.262219
v 0.005723 0.210120 0.255184
v 0.005723 0.325025 -0.039443
v 0.005723 0.126872 0.229389
v 0.005723 0.249985 -0.082826
v 0.005723 0.053005 0.194214
v 0.005723 0.181980 -0.098068
v 0.005723 -0.013828 0.160211
v 0.005723 0.126872 -0.113311
v 0.005723 -0.039623 0.132071
v 0.005723 0.092870 -0.121518
v 0.005723 -0.058383 0.113311
v 0.005723 0.048315 -0.115656
v 0.005723 -0.051348 0.046478
v 0.005723 0.010795 -0.091033
v 0.005723 -0.039623 -0.026217
v 0.005723 -0.016173 -0.061721
v 0.005723 0.468399 0.050839
v 0.005723 0.368737 0.296221
v 0.005723 0.545784 0.094222
v 0.005723 0.480124 0.330224
v 0.005723 0.572752 0.128224
v 0.005723 0.535232 0.322016
v 0.005723 0.585649 0.214990
v 0.005723 0.571579 0.283324
v -0.049698 0.053005 0.194214
v -0.049698 0.126872 0.229389
v -0.049698 -0.039623 -0.026217
v -0.049698 -0.051348 0.046478
v -0.049698 0.210120 0.255184
v -0.041763 0.334734 0.262219
v -0.049698 0.249985 -0.082826
v -0.049698 0.181980 -0.098068
v -0.049698 0.010795 -0.091033
v -0.049698 -0.016173 -0.061721
v -0.049698 -0.058383 0.113311
v -0.049698 -0.039623 0.132071
v -0.049698 0.572752 0.128224
v -0.049698 0.545784 0.094222
v -0.041763 0.425017 0.040402
v -0.049698 0.325025 -0.039443
v -0.049698 0.092870 -0.121518
v -0.049698 0.048315 -0.115656
v -0.049698 0.480124 0.330224
v -0.049698 0.535232 0.322016
v -0.049698 -0.013828 0.160211
v -0.049698 0.468399 0.050839
v -0.049698 0.571579 0.283324
v -0.049698 0.585649 0.214990
v -0.049698 0.126872 -0.113311
v -0.049698 0.368737 0.296221
v -0.105120 0.035550 0.228522
v -0.105120 -0.031283 0.194519
v -0.049698 0.035550 0.228522
v -0.049698 -0.031283 0.194519
v -0.105120 0.011655 0.271113
v -0.105120 -0.040727 0.217457
v -0.049698 0.011655 0.271113
v -0.049698 -0.040727 0.217457
v -0.105120 -0.030924 0.302944
v -0.105120 -0.042418 0.228845
v -0.049698 -0.030924 0.302944
v -0.049698 -0.042418 0.228845
v -0.105120 -0.049867 0.305423
v -0.105120 -0.049722 0.230438
v -0.049698 -0.049867 0.305423
v -0.049698 -0.049722 0.230438
v -0.111262 0.379875 0.141286
v -0.133750 0.267573 0.107870
v -0.133750 0.188429 0.073281
v -0.133750 0.117492 0.048073
v -0.133750 0.056522 0.023450
v -0.133750 0.026624 0.005276
v -0.119901 -0.016742 -0.001172
v -0.105120 -0.020277 -0.022277
v -0.101610 -0.006516 -0.043969
v -0.133750 0.418568 0.173530
v -0.133750 0.512954 0.212223
v -0.133750 0.553992 0.225120
v -0.105120 0.573411 0.249157
v 0.005723 -0.027898 -0.043969
v 0.005723 0.578614 0.249157
v -0.049698 -0.027898 -0.043969
v -0.049698 0.578614 0.249157
v 0.005723 0.359554 0.326302
v 0.005723 0.427233 0.361865
v -0.049698 0.427233 0.361865
v -0.049698 0.359554 0.326302
v 0.005723 0.361050 0.362832
v 0.005723 0.397507 0.387468
v -0.049698 0.397507 0.387468
v -0.049698 0.361050 0.362832
v 0.005723 0.368984 0.375690
v 0.005723 0.393397 0.393551
v -0.049698 0.393397 0.393551
v -0.049698 0.368984 0.375690
v -0.133750 0.267573 0.107870
v -0.123658 0.286723 0.073327
v -0.133750 0.188429 0.073281
v -0.123658 0.208947 0.035807
v -0.133750 0.117492 0.048073
v -0.123658 0.138988 0.013920
v -0.133750 0.056522 0.023450
v -0.123658 0.079972 -0.007576
v -0.133750 0.026624 0.005276
v -0.123036 0.051486 -0.030699
v -0.119901 -0.016742 -0.001172
v -0.113804 0.012071 -0.039334
v -0.105120 -0.020277 -0.022277
v -0.103950 -0.002792 -0.045196
v -0.101610 -0.006516 -0.043969
v -0.101610 -0.002608 -0.049886
v 0.005723 -0.027898 -0.043969
v 0.005723 -0.023989 -0.049886
v -0.049698 0.578614 0.249157
v -0.049698 0.580959 0.237768
v -0.101170 0.394923 0.119703
v -0.111262 0.379875 0.141286
v -0.123658 0.435178 0.147194
v -0.133750 0.418568 0.173530
v -0.123658 0.523898 0.187450
v -0.133750 0.512954 0.212223
v -0.123658 0.560245 0.207383
v -0.133750 0.553992 0.225120
v -0.104571 0.573545 0.252329
v -0.105120 0.573411 0.249157
v 0.005723 0.580959 0.237768
v 0.005723 0.578614 0.249157
v -0.049698 -0.023989 -0.049886
v -0.049698 -0.027898 -0.043969
v -0.133750 0.267573 0.107870
v -0.123658 0.286723 0.073327
v -0.101170 0.394923 0.119703
v -0.111262 0.379875 0.141286
v -0.178521 0.255437 0.117305
v -0.168429 0.270071 0.086375
v -0.164009 0.340328 0.111070
v -0.174101 0.325281 0.132653
v -0.211811 0.249848 0.105169
v -0.201719 0.264482 0.074239
v -0.197299 0.310348 0.098935
v -0.207391 0.295301 0.120518
v -0.233027 0.245292 0.096016
v -0.227466 0.253355 0.078973
v -0.225031 0.278629 0.092581
v -0.230592 0.270338 0.104474
vn 0.9423 0.2944 -0.1595
vn 0.9726 -0.0811 0.2180
vn 0.9731 -0.0804 0.2160
vn 0.9726 -0.0892 0.2148
vn 0.9702 -0.0940 0.2232
vn 0.9731 -0.0965 0.2093
vn 0.9704 -0.1008 0.2197
vn 0.9667 -0.1636 0.1967
vn 0.9020 -0.4264 0.0680
vn 0.3571 -0.9263 -0.1200
vn 0.3709 -0.9225 -0.1073
vn 0.3547 -0.9271 -0.1212
vn -0.2693 -0.9322 -0.2417
vn 0.8519 -0.1935 -0.4867
vn 0.9445 0.1477 -0.2934
vn 0.9071 0.2729 -0.3203
vn 0.5302 0.8477 -0.0156
vn 0.0000 -0.9872 -0.1592
vn -0.0000 0.2187 -0.9758
vn 0.0000 -0.7359 -0.6771
vn 0.0000 -0.7071 0.7071
vn 0.0000 0.7835 -0.6214
vn 0.0000 0.6240 -0.7814
vn 0.0000 -0.1305 -0.9915
vn 0.0000 0.1473 0.9891
vn -0.0000 -0.4535 0.8913
vn 0.0000 0.2339 -0.9723
vn 0.0000 0.9795 0.2017
vn 0.0000 0.2666 -0.9638
vn 0.0000 -0.9945 -0.1047
vn 0.0000 0.9891 -0.1470
vn -0.0000 0.5005 -0.8657
vn 0.0000 -0.5487 -0.8360
vn 0.0000 0.7288 0.6847
vn -0.0000 -0.7372 0.6757
vn 0.0000 0.4890 -0.8723
vn 0.0000 -0.8344 -0.5511
vn 0.0000 0.2346 -0.9721
vn -1.0000 -0.0000 0.0000
vn 0.4691 -0.2578 0.8447
vn 0.4078 0.5104 -0.7571
vn 0.3250 -0.7891 -0.5212
vn 0.5782 0.3990 -0.7117
vn 0.3513 -0.6902 0.6326
vn 0.3554 0.6813 0.6400
vn 0.2204 -0.5352 -0.8155
vn 0.5753 0.4094 -0.7081
vn 0.1722 0.9819 -0.0790
vn 0.3643 -0.9247 -0.1102
vn 0.3685 -0.7346 0.5697
vn 0.6165 0.2099 -0.7589
vn 0.1077 0.9680 0.2266
vn 0.6512 0.0202 -0.7587
vn 0.4814 0.1291 0.8669
vn 0.1524 0.0924 -0.9840
vn 0.5395 0.5603 -0.6286
vn 0.4506 0.6994 -0.5547
vn 0.3784 -0.8627 0.3357
vn 0.2901 -0.7043 -0.6479
vn 0.6212 0.1714 -0.7647
vn 0.3767 -0.9145 -0.1475
vn 0.0000 0.0000 1.0000
vn 0.7154 0.4965 0.4917
vn 0.9263 -0.0184 0.3764
vn 0.9511 -0.1028 0.2911
vn 0.8422 -0.5389 0.0196
vn 0.0000 0.0000 0.0000
vn -0.1732 0.9849 0.0000
vn 0.9313 0.1180 0.3446
vn 0.9712 0.1116 -0.2107
vn 0.9712 0.1118 -0.2106
vn 0.9710 0.0996 -0.2173
vn 0.9710 0.0998 -0.2172
vn 0.9697 0.0635 -0.2360
vn 0.9705 0.0764 -0.2287
vn 0.9663 0.0788 -0.2449
vn 0.9673 0.0910 -0.2368
vn 0.9696 0.1532 -0.1906
vn 0.9697 0.1342 -0.2043
vn 0.9660 -0.0482 -0.2540
vn 0.9177 -0.1926 -0.3475
vn 0.9020 -0.2856 -0.3238
vn 0.7923 -0.4371 -0.4256
vn 0.8896 -0.3488 -0.2949
vn 0.6786 -0.5765 -0.4552
vn 0.0153 0.9575 0.2879
vn 0.0719 0.9562 0.2837
vn 0.5400 0.8413 -0.0255
vn 0.9152 0.1574 -0.3709
vn 0.0000 0.0000 -0.8585
vn -0.1963 -0.4739 -0.8585
vn 0.9442 0.1304 -0.3026
vn 0.8734 -0.1462 -0.4645
vn 0.2950 0.3916 -0.8716
vn 0.2195 -0.2353 0.9468
vn 0.6582 0.7262 0.1985
vn -0.1801 -0.2791 0.9432
vn -0.1863 -0.8953 -0.4046
vn 0.3519 0.4698 -0.8096
vn -0.2740 -0.9008 -0.3368
vn -0.1311 0.3796 -0.9158
vn 0.6926 0.7020 0.1656
vn 0.9470 0.2014 -0.2502
vn 0.7588 0.6445 0.0945
vn 0.3311 -0.2728 0.9033
vn -0.3272 -0.8910 -0.3148
vn -0.9423 0.2944 -0.1595
vn -0.9726 -0.0811 0.2180
vn -0.9726 -0.0892 0.2148
vn -0.9731 -0.0805 0.2160
vn -0.9731 -0.0965 0.2093
vn -0.9702 -0.0940 0.2232
vn -0.9704 -0.1008 0.2197
vn -0.9667 -0.1636 0.1967
vn -0.9020 -0.4264 0.0680
vn -0.3571 -0.9263 -0.1200
vn -0.3547 -0.9271 -0.1212
vn -0.3709 -0.9225 -0.1073
vn 0.2693 -0.9322 -0.2417
vn -0.8519 -0.1935 -0.4867
vn -0.9445 0.1477 -0.2934
vn -0.9071 0.2729 -0.3203
vn -0.5302 0.8477 -0.0156
vn 1.0000 0.0000 0.0000
vn -0.4691 -0.2578 0.8447
vn -0.4078 0.5104 -0.7571
vn -0.3250 -0.7891 -0.5212
vn -0.5782 0.3990 -0.7117
vn -0.3513 -0.6902 0.6326
vn -0.3554 0.6813 0.6400
vn -0.2204 -0.5352 -0.8155
vn -0.5753 0.4094 -0.7081
vn -0.1722 0.9819 -0.0790
vn -0.3643 -0.9247 -0.1102
vn -0.3685 -0.7346 0.5697
vn -0.6165 0.2099 -0.7589
vn -0.1077 0.9680 0.2266
vn -0.6512 0.0202 -0.7587
vn -0.4814 0.1291 0.8669
vn -0.1524 0.0924 -0.9840
vn -0.5395 0.5603 -0.6286
vn -0.4506 0.6994 -0.5547
vn -0.3784 -0.8627 0.3357
vn -0.2901 -0.7043 -0.6479
vn -0.6212 0.1714 -0.7647
vn -0.3767 -0.9145 -0.1475
vn -0.7154 0.4965 0.4917
vn -0.9263 -0.0184 0.3764
vn -0.9511 -0.1028 0.2911
vn -0.8422 -0.5389 0.0196
vn 0.0156 -0.9999 0.0000
vn -0.9313 0.1180 0.3446
vn -0.9712 0.1116 -0.2107
vn -0.9710 0.0996 -0.2172
vn -0.9712 0.1118 -0.2106
vn -0.9710 0.0998 -0.2172
vn -0.9697 0.0635 -0.2360
vn -0.9705 0.0764 -0.2287
vn -0.9663 0.0788 -0.2449
vn -0.9673 0.0910 -0.2368
vn -0.9696 0.1532 -0.1906
vn -0.9697 0.1342 -0.2043
vn -0.9660 -0.0482 -0.2540
vn -0.9177 -0.1926 -0.3475
vn -0.9020 -0.2856 -0.3238
vn -0.7923 -0.4371 -0.4256
vn -0.8896 -0.3488 -0.2949
vn -0.6786 -0.5765 -0.4552
vn -0.0153 0.9575 0.2879
vn -0.0719 0.9562 0.2837
vn -0.5400 0.8413 -0.0255
vn -0.9152 0.1574 -0.3709
vn -0.9442 0.1304 -0.3026
vn -0.8734 -0.1462 -0.4645
vn -0.2950 0.3916 -0.8716
vn -0.2195 -0.2353 0.9468
vn -0.6582 0.7262 0.1985
vn 0.1801 -0.2791 0.9432
vn 0.1863 -0.8953 -0.4046
vn -0.3519 0.4698 -0.8096
vn 0.2740 -0.9008 -0.3368
vn 0.1311 0.3796 -0.9158
vn -0.6926 0.7020 0.1656
vn -0.9470 0.2014 -0.2502
vn -0.7588 0.6445 0.0945
vn -0.3311 -0.2728 0.9033
vn 0.3272 -0.8910 -0.3148
vn -0.0892 -0.9385 -0.3334
vn 0.0000 -0.9247 -0.3807
vn 0.9981 0.0277 -0.0545
vn 0.0892 0.9385 0.3334
vn 0.0000 0.8721 0.4893
vn 0.0000 -0.2131 -0.9770
vn 0.0000 0.5988 0.8009
vn 0.0000 -0.9892 -0.1469
vn 0.0000 -1.0000 -0.0019
vn 0.0000 0.1297 0.9915
vn 0.0000 0.5134 0.8582
vn -0.0000 -0.9564 -0.2920
vn 0.0000 -0.8510 0.5252
vn 0.0000 0.6526 0.7577
vn 0.0000 -0.9992 0.0409
vn 0.0000 -0.5905 0.8071
vn 0.0000 0.8286 0.5599
vn 0.0892 -0.9385 -0.3334
vn -0.9981 0.0277 -0.0545
vn -0.0892 0.9385 0.3334
vn 0.0000 -0.4299 0.9029
vn -0.0000 -0.0564 0.9984
vn 0.0000 -0.2960 0.9552
vn 0.4686 -0.2615 0.8438
vn 0.5430 0.0189 0.8395
vn 0.4482 -0.3843 0.8071
vn -0.4686 -0.2615 0.8438
vn -0.5430 0.0189 0.8395
vn -0.4482 -0.3843 0.8071
usemtl Material.001
s 1
f 144//1 125//1 4//1 3//1
f 96//2 2//2 5//3 97//4
f 97//4 5//3 7//5 98//6
f 98//6 7//5 9//7 99//7
f 99//8 9//8 11//8 100//8
f 100//9 11//9 13//9 101//9
f 101//10 13//11 15//12 102//10
f 102//13 15//13 17//13 103//13
f 144//14 3//14 20//14 146//14
f 146//15 20//15 22//15 148//15
f 148//16 22//16 24//16 150//16
f 150//17 24//17 26//17 152//17
f 56//18 41//18 43//18 55//18
f 60//19 34//19 32//19 59//19
f 62//20 44//20 42//20 61//20
f 64//21 37//21 39//21 63//21
f 66//22 47//22 49//22 65//22
f 68//23 30//23 27//23 67//23
f 70//24 40//24 38//24 69//24
f 72//25 50//25 48//25 71//25
f 53//26 33//26 35//26 73//26
f 67//27 27//27 45//27 74//27
f 111//28 109//28 52//28 75//28
f 77//29 36//29 34//29 60//29
f 78//21 46//21 28//21 58//21
f 63//30 39//30 41//30 56//30
f 65//31 49//31 51//31 76//31
f 59//32 32//32 30//32 68//32
f 61//33 42//33 40//33 70//33
f 75//34 52//34 50//34 72//34
f 73//35 35//35 37//35 64//35
f 74//36 45//36 47//36 66//36
f 156//37 141//37 44//37 62//37
f 69//38 38//38 36//38 77//38
f 46//39 112//39 113//39 48//39
f 21//40 71//40 78//40 19//40
f 12//41 69//41 77//41 10//41
f 139//42 156//42 62//42 18//42
f 20//43 74//43 66//43 22//43
f 9//44 73//44 64//44 11//44
f 25//45 75//45 72//45 23//45
f 16//46 61//46 70//46 14//46
f 6//47 59//47 68//47 4//47
f 24//48 65//48 76//48 26//48
f 13//11 63//49 56//49 15//12
f 19//50 78//50 58//50 1//50
f 10//51 77//51 60//51 8//51
f 107//52 111//52 75//52 25//52
f 3//53 67//53 74//53 20//53
f 23//54 72//54 71//54 21//54
f 14//55 70//55 69//55 12//55
f 4//56 68//56 67//56 3//56
f 22//57 66//57 65//57 24//57
f 11//58 64//58 63//58 13//58
f 18//59 62//59 61//59 16//59
f 8//60 60//60 59//60 6//60
f 15//61 56//61 55//61 17//61
f 153//62 142//62 111//62 107//62
f 17//42 55//42 110//42 103//42
f 55//37 43//37 108//37 110//37
f 142//62 155//62 109//62 111//62
f 23//63 106//63 107//63 25//63
f 21//64 105//64 106//64 23//64
f 19//65 104//65 105//65 21//65
f 1//66 95//66 104//66 19//66
f 136//67 102//67 103//62 138//62
f 134//68 101//68 102//68 136//68
f 132//62 100//62 101//62 134//62
f 130//62 99//62 100//62 132//62
f 128//62 98//62 99//62 130//62
f 126//62 97//62 98//62 128//62
f 124//62 96//62 97//62 126//62
f 1//69 2//69 96//69 95//69
f 112//39 116//39 117//39 113//39
f 116//39 120//39 121//39 117//39
f 4//70 125//71 127//72 6//70
f 125//71 124//73 126//73 127//72
f 6//74 127//74 129//74 8//74
f 127//75 126//75 128//75 129//75
f 8//76 129//76 131//76 10//76
f 129//77 128//77 130//77 131//77
f 10//78 131//78 133//78 12//78
f 131//79 130//79 132//79 133//79
f 12//80 133//80 135//80 14//80
f 133//81 132//81 134//81 135//81
f 14//82 135//82 137//82 16//82
f 135//83 134//83 136//83 137//83
f 16//84 137//84 139//84 18//84
f 137//85 136//85 138//85 139//85
f 76//28 51//28 154//28 143//28
f 143//28 154//28 155//28 142//28
f 26//86 76//86 143//86 152//86
f 152//87 143//87 142//87 153//87
f 103//62 110//62 157//62 138//62
f 138//42 157//42 156//42 139//42
f 110//62 108//62 140//62 157//62
f 157//37 140//37 141//37 156//37
f 106//62 151//62 153//62 107//62
f 151//88 150//88 152//88 153//88
f 105//62 149//62 151//62 106//62
f 149//89 148//89 150//89 151//89
f 104//90 147//91 149//62 105//62
f 147//92 146//92 148//92 149//92
f 95//62 145//62 147//62 104//62
f 145//93 144//93 146//93 147//93
f 95//62 96//62 124//62 145//62
f 125//62 159//62 158//62 124//62
f 160//94 164//94 163//94 159//94
f 145//62 161//62 160//62 144//62
f 144//62 160//62 159//62 125//62
f 124//62 158//62 161//62 145//62
f 162//95 166//95 169//95 165//95
f 161//96 165//96 164//96 160//96
f 158//97 162//97 165//97 161//97
f 159//98 163//98 162//98 158//98
f 168//99 172//99 171//99 167//99
f 163//100 167//100 166//100 162//100
f 164//101 168//101 167//101 163//101
f 165//102 169//102 168//102 164//102
f 173//103 170//103 171//103 172//103
f 169//104 173//104 172//104 168//104
f 166//105 170//105 173//105 169//105
f 167//106 171//106 170//106 166//106
f 317//107 176//107 177//107 298//107
f 269//108 270//109 178//110 175//108
f 270//109 271//111 180//112 178//110
f 271//111 272//113 182//113 180//112
f 272//114 273//114 184//114 182//114
f 273//115 274//115 186//115 184//115
f 274//116 275//116 188//117 186//118
f 275//119 276//119 190//119 188//119
f 317//120 319//120 193//120 176//120
f 319//121 321//121 195//121 193//121
f 321//122 323//122 197//122 195//122
f 323//123 325//123 199//123 197//123
f 229//18 228//18 216//18 214//18
f 233//19 232//19 205//19 207//19
f 235//20 234//20 215//20 217//20
f 237//21 236//21 212//21 210//21
f 239//22 238//22 222//22 220//22
f 241//23 240//23 200//23 203//23
f 243//24 242//24 211//24 213//24
f 245//25 244//25 221//25 223//25
f 226//26 246//26 208//26 206//26
f 240//27 247//27 218//27 200//27
f 284//28 248//28 225//28 282//28
f 250//29 233//29 207//29 209//29
f 251//21 231//21 201//21 219//21
f 236//30 229//30 214//30 212//30
f 238//31 249//31 224//31 222//31
f 232//32 241//32 203//32 205//32
f 234//33 243//33 213//33 215//33
f 248//34 245//34 223//34 225//34
f 246//35 237//35 210//35 208//35
f 247//36 239//36 220//36 218//36
f 329//37 235//37 217//37 314//37
f 242//38 250//38 209//38 211//38
f 219//124 221//124 286//124 285//124
f 194//125 192//125 251//125 244//125
f 185//126 183//126 250//126 242//126
f 312//127 191//127 235//127 329//127
f 193//128 195//128 239//128 247//128
f 182//129 184//129 237//129 246//129
f 198//130 196//130 245//130 248//130
f 189//131 187//131 243//131 234//131
f 179//132 177//132 241//132 232//132
f 197//133 199//133 249//133 238//133
f 186//118 188//117 229//134 236//134
f 192//135 174//135 231//135 251//135
f 183//136 181//136 233//136 250//136
f 280//137 198//137 248//137 284//137
f 176//138 193//138 247//138 240//138
f 196//139 194//139 244//139 245//139
f 187//140 185//140 242//140 243//140
f 177//141 176//141 240//141 241//141
f 195//142 197//142 238//142 239//142
f 184//143 186//143 236//143 237//143
f 191//144 189//144 234//144 235//144
f 181//145 179//145 232//145 233//145
f 188//146 190//146 228//146 229//146
f 326//62 280//62 284//62 315//62
f 190//127 276//127 283//127 228//127
f 228//37 283//37 281//37 216//37
f 315//62 284//62 282//62 328//62
f 196//147 198//147 280//147 279//147
f 194//148 196//148 279//148 278//148
f 192//149 194//149 278//149 277//149
f 174//150 192//150 277//150 268//150
f 309//67 311//62 276//62 275//67
f 307//151 309//151 275//151 274//151
f 305//62 307//62 274//62 273//62
f 303//62 305//62 273//62 272//62
f 301//62 303//62 272//62 271//62
f 299//62 301//62 271//62 270//62
f 297//62 299//62 270//62 269//62
f 174//152 268//152 269//152 175//152
f 285//124 286//124 290//124 289//124
f 289//124 290//124 294//124 293//124
f 177//153 179//153 300//154 298//155
f 298//155 300//154 299//156 297//156
f 179//157 181//157 302//157 300//157
f 300//158 302//158 301//158 299//158
f 181//159 183//159 304//159 302//159
f 302//160 304//160 303//160 301//160
f 183//161 185//161 306//161 304//161
f 304//162 306//162 305//162 303//162
f 185//163 187//163 308//163 306//163
f 306//164 308//164 307//164 305//164
f 187//165 189//165 310//165 308//165
f 308//166 310//166 309//166 307//166
f 189//167 191//167 312//167 310//167
f 310//168 312//168 311//168 309//168
f 249//28 316//28 327//28 224//28
f 316//28 315//28 328//28 327//28
f 199//169 325//169 316//169 249//169
f 325//170 326//170 315//170 316//170
f 276//62 311//62 330//62 283//62
f 311//127 312//127 329//127 330//127
f 283//62 330//62 313//62 281//62
f 330//37 329//37 314//37 313//37
f 279//62 280//62 326//62 324//62
f 324//171 326//171 325//171 323//171
f 278//62 279//62 324//62 322//62
f 322//172 324//172 323//172 321//172
f 277//91 278//62 322//62 320//90
f 320//173 322//173 321//173 319//173
f 268//62 277//62 320//62 318//62
f 318//174 320//174 319//174 317//174
f 268//62 318//62 297//62 269//62
f 298//62 297//62 331//62 332//62
f 333//175 332//175 336//175 337//175
f 318//62 317//62 333//62 334//62
f 317//62 298//62 332//62 333//62
f 297//62 318//62 334//62 331//62
f 335//176 338//176 342//176 339//176
f 334//177 333//177 337//177 338//177
f 331//178 334//178 338//178 335//178
f 332//179 331//179 335//179 336//179
f 341//180 340//180 344//180 345//180
f 336//181 335//181 339//181 340//181
f 337//182 336//182 340//182 341//182
f 338//183 337//183 341//183 342//183
f 346//184 345//184 344//184 343//184
f 342//185 341//185 345//185 346//185
f 339//186 342//186 346//186 343//186
f 340//187 339//187 343//187 344//187
usemtl Material.002
f 9//188 80//188 82//188 73//188
f 80//189 84//189 86//189 82//189
f 7//190 79//190 80//190 9//190
f 73//39 82//39 81//39 53//39
f 53//191 81//191 79//191 7//191
f 86//39 90//39 89//39 85//39
f 79//124 83//124 84//124 80//124
f 82//39 86//39 85//39 81//39
f 81//192 85//192 83//192 79//192
f 88//193 92//193 94//193 90//193
f 85//194 89//194 87//194 83//194
f 84//195 88//195 90//195 86//195
f 83//124 87//124 88//124 84//124
f 91//196 93//196 94//196 92//196
f 87//124 91//124 92//124 88//124
f 90//39 94//39 93//39 89//39
f 89//197 93//197 91//197 87//197
f 114//124 118//124 119//124 115//124
f 71//124 114//124 115//124 78//124
f 48//198 113//198 114//198 71//198
f 78//199 115//199 112//199 46//199
f 119//200 123//200 120//200 116//200
f 113//201 117//201 118//201 114//201
f 115//202 119//202 116//202 112//202
f 122//203 121//203 120//203 123//203
f 118//124 122//124 123//124 119//124
f 117//204 121//204 122//204 118//204
f 182//205 246//205 255//205 253//205
f 253//189 255//189 259//189 257//189
f 180//206 182//206 253//206 252//206
f 246//124 226//124 254//124 255//124
f 226//207 180//207 252//207 254//207
f 259//124 258//124 262//124 263//124
f 252//39 253//39 257//39 256//39
f 255//124 254//124 258//124 259//124
f 254//192 252//192 256//192 258//192
f 261//193 263//193 267//193 265//193
f 258//194 256//194 260//194 262//194
f 257//195 259//195 263//195 261//195
f 256//39 257//39 261//39 260//39
f 264//196 265//196 267//196 266//196
f 260//39 261//39 265//39 264//39
f 263//124 262//124 266//124 267//124
f 262//197 260//197 264//197 266//197
f 287//39 288//39 292//39 291//39
f 244//39 251//39 288//39 287//39
f 221//198 244//198 287//198 286//198
f 251//199 219//199 285//199 288//199
f 292//200 289//200 293//200 296//200
f 286//201 287//201 291//201 290//201
f 288//202 285//202 289//202 292//202
f 295//203 296//203 293//203 294//203
f 291//39 292//39 296//39 295//39
f 290//204 291//204 295//204 294//204
usemtl Material.003
f 54//208 31//208 33//208 53//208
f 58//209 28//209 29//209 57//209
f 57//210 29//210 31//210 54//210
f 2//211 57//211 54//211 5//211
f 1//212 58//212 57//212 2//212
f 5//213 54//213 53//213 7//213
f 227//208 226//208 206//208 204//208
f 231//209 230//209 202//209 201//209
f 230//210 227//210 204//210 202//210
f 175//214 178//214 227//214 230//214
f 174//215 175//215 230//215 231//215
f 178//216 180//216 226//216 227//216
